Turma2_2017020700_2017001212_2017005113/SISTEMA_FINAL/simulation/modelsim/msim_transcript
# Reading C:/altera/13.0sp1/modelsim_ase/tcl/vsim/pref.tcl 
# do SISTEMA_FINAL_run_msim_rtl_verilog.do 
# if {[file exists rtl_work]} {
# 	vdel -lib rtl_work -all
# }
# vlib rtl_work
# vmap work rtl_work
# Copying C:\altera\13.0sp1\modelsim_ase\win32aloem/../modelsim.ini to modelsim.ini
# Modifying modelsim.ini
# ** Warning: Copied C:\altera\13.0sp1\modelsim_ase\win32aloem/../modelsim.ini to modelsim.ini.
#          Updated modelsim.ini.
# 
# vlog -vlog01compat -work work +incdir+C:/Users/WyKKe/Documentos/Unifei/2018.1/Eletrônica\ Digital\ II/Trabalhos/Trabalho\ 3/git/Turma2_2017020700_2017001212_2017005113/AntiLoopM {C:/Users/WyKKe/Documentos/Unifei/2018.1/Eletrônica Digital II/Trabalhos/Trabalho 3/git/Turma2_2017020700_2017001212_2017005113/AntiLoopM/AntiLoopM.v}
# Model Technology ModelSim ALTERA vlog 10.1d Compiler 2012.11 Nov  2 2012
# -- Compiling module AntiLoopM
# 
# Top level modules:
# 	AntiLoopM
# vlog -vlog01compat -work work +incdir+C:/Users/WyKKe/Documentos/Unifei/2018.1/Eletrônica\ Digital\ II/Trabalhos/Trabalho\ 3/git/Turma2_2017020700_2017001212_2017005113/RegResto {C:/Users/WyKKe/Documentos/Unifei/2018.1/Eletrônica Digital II/Trabalhos/Trabalho 3/git/Turma2_2017020700_2017001212_2017005113/RegResto/RegResto.v}
# Model Technology ModelSim ALTERA vlog 10.1d Compiler 2012.11 Nov  2 2012
# -- Compiling module RegResto
# 
# Top level modules:
# 	RegResto
# vlog -vlog01compat -work work +incdir+C:/Users/WyKKe/Documentos/Unifei/2018.1/Eletrônica\ Digital\ II/Trabalhos/Trabalho\ 3/git/Turma2_2017020700_2017001212_2017005113/AntiLoopD {C:/Users/WyKKe/Documentos/Unifei/2018.1/Eletrônica Digital II/Trabalhos/Trabalho 3/git/Turma2_2017020700_2017001212_2017005113/AntiLoopD/AntiLoopD.v}
# Model Technology ModelSim ALTERA vlog 10.1d Compiler 2012.11 Nov  2 2012
# -- Compiling module AntiLoopD
# 
# Top level modules:
# 	AntiLoopD
# vlog -vlog01compat -work work +incdir+C:/Users/WyKKe/Documentos/Unifei/2018.1/Eletrônica\ Digital\ II/Trabalhos/Trabalho\ 3/git/Turma2_2017020700_2017001212_2017005113/ROM {C:/Users/WyKKe/Documentos/Unifei/2018.1/Eletrônica Digital II/Trabalhos/Trabalho 3/git/Turma2_2017020700_2017001212_2017005113/ROM/ROM.v}
# Model Technology ModelSim ALTERA vlog 10.1d Compiler 2012.11 Nov  2 2012
# -- Compiling module ROM
# 
# Top level modules:
# 	ROM
# vlog -vlog01compat -work work +incdir+C:/Users/WyKKe/Documentos/Unifei/2018.1/Eletrônica\ Digital\ II/Trabalhos/Trabalho\ 3/git/Turma2_2017020700_2017001212_2017005113/regC {C:/Users/WyKKe/Documentos/Unifei/2018.1/Eletrônica Digital II/Trabalhos/Trabalho 3/git/Turma2_2017020700_2017001212_2017005113/regC/regC.v}
# Model Technology ModelSim ALTERA vlog 10.1d Compiler 2012.11 Nov  2 2012
# -- Compiling module regC
# 
# Top level modules:
# 	regC
# vlog -vlog01compat -work work +incdir+C:/Users/WyKKe/Documentos/Unifei/2018.1/Eletrônica\ Digital\ II/Trabalhos/Trabalho\ 3/git/Turma2_2017020700_2017001212_2017005113/regA {C:/Users/WyKKe/Documentos/Unifei/2018.1/Eletrônica Digital II/Trabalhos/Trabalho 3/git/Turma2_2017020700_2017001212_2017005113/regA/regA.v}
# Model Technology ModelSim ALTERA vlog 10.1d Compiler 2012.11 Nov  2 2012
# -- Compiling module regA
# 
# Top level modules:
# 	regA
# vlog -vlog01compat -work work +incdir+C:/Users/WyKKe/Documentos/Unifei/2018.1/Eletrônica\ Digital\ II/Trabalhos/Trabalho\ 3/git/Turma2_2017020700_2017001212_2017005113/Controle {C:/Users/WyKKe/Documentos/Unifei/2018.1/Eletrônica Digital II/Trabalhos/Trabalho 3/git/Turma2_2017020700_2017001212_2017005113/Controle/Controle.v}
# Model Technology ModelSim ALTERA vlog 10.1d Compiler 2012.11 Nov  2 2012
# -- Compiling module Controle
# 
# Top level modules:
# 	Controle
# vlog -vlog01compat -work work +incdir+C:/Users/WyKKe/Documentos/Unifei/2018.1/Eletrônica\ Digital\ II/Trabalhos/Trabalho\ 3/git/Turma2_2017020700_2017001212_2017005113/ALU {C:/Users/WyKKe/Documentos/Unifei/2018.1/Eletrônica Digital II/Trabalhos/Trabalho 3/git/Turma2_2017020700_2017001212_2017005113/ALU/ALU.v}
# Model Technology ModelSim ALTERA vlog 10.1d Compiler 2012.11 Nov  2 2012
# -- Compiling module ALU
# -- Compiling module ALU_8bits
# 
# Top level modules:
# 	ALU
# vlog -vlog01compat -work work +incdir+C:/Users/WyKKe/Documentos/Unifei/2018.1/Eletrônica\ Digital\ II/Trabalhos/Trabalho\ 3/git/Turma2_2017020700_2017001212_2017005113/SISTEMA_FINAL {C:/Users/WyKKe/Documentos/Unifei/2018.1/Eletrônica Digital II/Trabalhos/Trabalho 3/git/Turma2_2017020700_2017001212_2017005113/SISTEMA_FINAL/SISTEMA_FINAL.v}
# Model Technology ModelSim ALTERA vlog 10.1d Compiler 2012.11 Nov  2 2012
# -- Compiling module SISTEMA_FINAL
# 
# Top level modules:
# 	SISTEMA_FINAL
# 
# vlog -vlog01compat -work work +incdir+C:/Users/WyKKe/Documentos/Unifei/2018.1/Eletrônica\ Digital\ II/Trabalhos/Trabalho\ 3/git/Turma2_2017020700_2017001212_2017005113/SISTEMA_FINAL {C:/Users/WyKKe/Documentos/Unifei/2018.1/Eletrônica Digital II/Trabalhos/Trabalho 3/git/Turma2_2017020700_2017001212_2017005113/SISTEMA_FINAL/Sistema_TB.v}
# Model Technology ModelSim ALTERA vlog 10.1d Compiler 2012.11 Nov  2 2012
# -- Compiling module Sistema_TB
# 
# Top level modules:
# 	Sistema_TB
# 
# vsim -t 1ps -L altera_ver -L lpm_ver -L sgate_ver -L altera_mf_ver -L altera_lnsim_ver -L cycloneii_ver -L rtl_work -L work -voptargs="+acc"  Sistema_TB
# vsim -L altera_ver -L lpm_ver -L sgate_ver -L altera_mf_ver -L altera_lnsim_ver -L cycloneii_ver -L rtl_work -L work -voptargs=\"+acc\" -t 1ps Sistema_TB 
# Loading work.Sistema_TB
# Loading work.SISTEMA_FINAL
# Loading work.Controle
# Loading work.ALU
# Loading work.ALU_8bits
# Loading work.ROM
# Loading work.regA
# Loading work.regC
# Loading work.AntiLoopD
# Loading work.AntiLoopM
# Loading work.RegResto
# 
# add wave *
# view structure
# .main_pane.structure.interior.cs.body.struct
# view signals
# .main_pane.objects.interior.cs.body.tree
# run 10 us
# 		time		CLK	Saida	Resto
#                    0, 	0, 	    x, 	    x
#                    2, 	1, 	    x, 	    x
#                    4, 	0, 	    x, 	    x
#                    6, 	1, 	    x, 	    x
#                    8, 	0, 	    x, 	    x
#                   10, 	1, 	    x, 	    x
#                   12, 	0, 	    x, 	    x
#                   14, 	1, 	    x, 	    0
#                   16, 	0, 	    x, 	    0
#                   18, 	1, 	    x, 	    0
#                   20, 	0, 	    x, 	    0
#                   22, 	1, 	    x, 	    0
#                   24, 	0, 	    x, 	    0
#                   26, 	1, 	    8, 	    0
#                   28, 	0, 	    8, 	    0
#                   30, 	1, 	    8, 	    0
#                   32, 	0, 	    8, 	    0
#                   34, 	1, 	    8, 	    0
#                   36, 	0, 	    8, 	    0
#                   38, 	1, 	    8, 	    0
#                   40, 	0, 	    8, 	    0
#                   42, 	1, 	    8, 	    0
#                   44, 	0, 	    8, 	    0
#                   46, 	1, 	    8, 	    0
#                   48, 	0, 	    8, 	    0
#                   50, 	1, 	    8, 	    0
#                   52, 	0, 	    8, 	    0
#                   54, 	1, 	    8, 	    0
#                   56, 	0, 	    8, 	    0
#                   58, 	1, 	    8, 	    0
#                   60, 	0, 	    8, 	    0
#                   62, 	1, 	    8, 	    0
#                   64, 	0, 	    8, 	    0
#                   66, 	1, 	    8, 	    0
#                   68, 	0, 	    8, 	    0
#                   70, 	1, 	    8, 	    0
#                   72, 	0, 	    8, 	    0
#                   74, 	1, 	    8, 	    0
#                   76, 	0, 	    8, 	    0
#                   78, 	1, 	    8, 	    0
#                   80, 	0, 	    8, 	    0
#                   82, 	1, 	    8, 	    0
#                   84, 	0, 	    8, 	    0
#                   86, 	1, 	    8, 	    0
#                   88, 	0, 	    8, 	    0
#                   90, 	1, 	    8, 	    0
#                   92, 	0, 	    8, 	    0
#                   94, 	1, 	    8, 	    0
#                   96, 	0, 	    8, 	    0
#                   98, 	1, 	    8, 	    0
#                  100, 	0, 	    8, 	    0
#                  102, 	1, 	    8, 	    0
#                  104, 	0, 	    8, 	    0
#                  106, 	1, 	    8, 	    0
#                  108, 	0, 	    8, 	    0
#                  110, 	1, 	    8, 	    0
#                  112, 	0, 	    8, 	    0
#                  114, 	1, 	    8, 	    0
#                  116, 	0, 	    8, 	    0
#                  118, 	1, 	    8, 	    0
#                  120, 	0, 	    8, 	    0
#                  122, 	1, 	    8, 	    0
#                  124, 	0, 	    8, 	    0
#                  126, 	1, 	    8, 	    0
#                  128, 	0, 	    8, 	    0
#                  130, 	1, 	    8, 	    0
#                  132, 	0, 	    8, 	    0
#                  134, 	1, 	    8, 	    0
#                  136, 	0, 	    8, 	    0
#                  138, 	1, 	    8, 	    0
#                  140, 	0, 	    8, 	    0
#                  142, 	1, 	    8, 	    0
#                  144, 	0, 	    8, 	    0
#                  146, 	1, 	    8, 	    0
#                  148, 	0, 	    8, 	    0
#                  150, 	1, 	    8, 	    0
#                  152, 	0, 	    8, 	    0
#                  154, 	1, 	    8, 	    0
#                  156, 	0, 	    8, 	    0
#                  158, 	1, 	    8, 	    0
#                  160, 	0, 	    8, 	    0
#                  162, 	1, 	    8, 	    0
#                  164, 	0, 	    8, 	    0
#                  166, 	1, 	    8, 	    0
#                  168, 	0, 	    8, 	    0
#                  170, 	1, 	    8, 	    0
#                  172, 	0, 	    8, 	    0
#                  174, 	1, 	    8, 	    0
#                  176, 	0, 	    8, 	    0
#                  178, 	1, 	    8, 	    0
#                  180, 	0, 	    8, 	    0
#                  182, 	1, 	    8, 	    0
#                  184, 	0, 	    8, 	    0
#                  186, 	1, 	    8, 	    0
#                  188, 	0, 	    8, 	    0
#                  190, 	1, 	    8, 	    0
#                  192, 	0, 	    8, 	    0
#                  194, 	1, 	    8, 	    0
#                  196, 	0, 	    8, 	    0
#                  198, 	1, 	    8, 	    0
#                  200, 	0, 	    8, 	    0
#                  202, 	1, 	    8, 	    0
#                  204, 	0, 	    8, 	    0
#                  206, 	1, 	    8, 	    0
#                  208, 	0, 	    8, 	    0
#                  210, 	1, 	    8, 	    0
#                  212, 	0, 	    8, 	    0
#                  214, 	1, 	    8, 	    0
#                  216, 	0, 	    8, 	    0
#                  218, 	1, 	    8, 	    0
#                  220, 	0, 	    8, 	    0
#                  222, 	1, 	    8, 	    0
#                  224, 	0, 	    8, 	    0
#                  226, 	1, 	    8, 	    0
#                  228, 	0, 	    8, 	    0
#                  230, 	1, 	    8, 	    0
#                  232, 	0, 	    8, 	    0
#                  234, 	1, 	    8, 	    0
#                  236, 	0, 	    8, 	    0
#                  238, 	1, 	  750, 	    0
#                  240, 	0, 	  750, 	    0
#                  242, 	1, 	  750, 	    0
#                  244, 	0, 	  750, 	    0
#                  246, 	1, 	  750, 	    0
#                  248, 	0, 	  750, 	    0
#                  250, 	1, 	  750, 	    0
#                  252, 	0, 	  750, 	    0
#                  254, 	1, 	  750, 	    0
#                  256, 	0, 	  750, 	    0
#                  258, 	1, 	  750, 	    0
#                  260, 	0, 	  750, 	    0
#                  262, 	1, 	  750, 	    0
#                  264, 	0, 	  750, 	    0
#                  266, 	1, 	  750, 	    5
#                  268, 	0, 	  750, 	    5
#                  270, 	1, 	    5, 	    5
#                  272, 	0, 	    5, 	    5
#                  274, 	1, 	    5, 	    5
#                  276, 	0, 	    5, 	    5
#                  278, 	1, 	    5, 	    5
#                  280, 	0, 	    5, 	    5
#                  282, 	1, 	   93, 	    0
#                  284, 	0, 	   93, 	    0
#                  286, 	1, 	   93, 	    0
#                  288, 	0, 	   93, 	    0
#                  290, 	1, 	   93, 	    0
#                  292, 	0, 	   93, 	    0
#                  294, 	1, 	    8, 	    0
#                  296, 	0, 	    8, 	    0
#                  298, 	1, 	    8, 	    0
#                  300, 	0, 	    8, 	    0
#                  302, 	1, 	    8, 	    0
#                  304, 	0, 	    8, 	    0
#                  306, 	1, 	    8, 	    0
#                  308, 	0, 	    8, 	    0
#                  310, 	1, 	    8, 	    0
#                  312, 	0, 	    8, 	    0
#                  314, 	1, 	    8, 	    0
#                  316, 	0, 	    8, 	    0
#                  318, 	1, 	    8, 	    0
#                  320, 	0, 	    8, 	    0
#                  322, 	1, 	    8, 	    0
#                  324, 	0, 	    8, 	    0
#                  326, 	1, 	    8, 	    0
#                  328, 	0, 	    8, 	    0
#                  330, 	1, 	    8, 	    0
#                  332, 	0, 	    8, 	    0
#                  334, 	1, 	    8, 	    0
#                  336, 	0, 	    8, 	    0
#                  338, 	1, 	    8, 	    0
#                  340, 	0, 	    8, 	    0
#                  342, 	1, 	    8, 	    0
#                  344, 	0, 	    8, 	    0
#                  346, 	1, 	    8, 	    0
#                  348, 	0, 	    8, 	    0
#                  350, 	1, 	    8, 	    0
#                  352, 	0, 	    8, 	    0
#                  354, 	1, 	    8, 	    0
#                  356, 	0, 	    8, 	    0
#                  358, 	1, 	    8, 	    0
#                  360, 	0, 	    8, 	    0
#                  362, 	1, 	    8, 	    0
#                  364, 	0, 	    8, 	    0
#                  366, 	1, 	    8, 	    0
#                  368, 	0, 	    8, 	    0
#                  370, 	1, 	    8, 	    0
#                  372, 	0, 	    8, 	    0
#                  374, 	1, 	    8, 	    0
#                  376, 	0, 	    8, 	    0
#                  378, 	1, 	    8, 	    0
#                  380, 	0, 	    8, 	    0
#                  382, 	1, 	    8, 	    0
#                  384, 	0, 	    8, 	    0
#                  386, 	1, 	    8, 	    0
#                  388, 	0, 	    8, 	    0
#                  390, 	1, 	    8, 	    0
#                  392, 	0, 	    8, 	    0
#                  394, 	1, 	    8, 	    0
#                  396, 	0, 	    8, 	    0
#                  398, 	1, 	    8, 	    0
#                  400, 	0, 	    8, 	    0
#                  402, 	1, 	    8, 	    0
#                  404, 	0, 	    8, 	    0
#                  406, 	1, 	    8, 	    0
#                  408, 	0, 	    8, 	    0
#                  410, 	1, 	    8, 	    0
#                  412, 	0, 	    8, 	    0
#                  414, 	1, 	    8, 	    0
#                  416, 	0, 	    8, 	    0
#                  418, 	1, 	    8, 	    0
#                  420, 	0, 	    8, 	    0
#                  422, 	1, 	    8, 	    0
#                  424, 	0, 	    8, 	    0
#                  426, 	1, 	    8, 	    0
#                  428, 	0, 	    8, 	    0
#                  430, 	1, 	    8, 	    0
#                  432, 	0, 	    8, 	    0
#                  434, 	1, 	    8, 	    0
#                  436, 	0, 	    8, 	    0
#                  438, 	1, 	    8, 	    0
#                  440, 	0, 	    8, 	    0
#                  442, 	1, 	    8, 	    0
#                  444, 	0, 	    8, 	    0
#                  446, 	1, 	    8, 	    0
#                  448, 	0, 	    8, 	    0
#                  450, 	1, 	    8, 	    0
#                  452, 	0, 	    8, 	    0
#                  454, 	1, 	    8, 	    0
#                  456, 	0, 	    8, 	    0
#                  458, 	1, 	    8, 	    0
#                  460, 	0, 	    8, 	    0
#                  462, 	1, 	    8, 	    0
#                  464, 	0, 	    8, 	    0
#                  466, 	1, 	    8, 	    0
#                  468, 	0, 	    8, 	    0
#                  470, 	1, 	    8, 	    0
#                  472, 	0, 	    8, 	    0
#                  474, 	1, 	    8, 	    0
#                  476, 	0, 	    8, 	    0
#                  478, 	1, 	    8, 	    0
#                  480, 	0, 	    8, 	    0
#                  482, 	1, 	    8, 	    0
#                  484, 	0, 	    8, 	    0
#                  486, 	1, 	    8, 	    0
#                  488, 	0, 	    8, 	    0
#                  490, 	1, 	    8, 	    0
#                  492, 	0, 	    8, 	    0
#                  494, 	1, 	    8, 	    0
#                  496, 	0, 	    8, 	    0
#                  498, 	1, 	    8, 	    0
#                  500, 	0, 	    8, 	    0
#                  502, 	1, 	    8, 	    0
#                  504, 	0, 	    8, 	    0
#                  506, 	1, 	  750, 	    0
#                  508, 	0, 	  750, 	    0
#                  510, 	1, 	  750, 	    0
#                  512, 	0, 	  750, 	    0
#                  514, 	1, 	  750, 	    0
#                  516, 	0, 	  750, 	    0
#                  518, 	1, 	  750, 	    0
#                  520, 	0, 	  750, 	    0
#                  522, 	1, 	  750, 	    0
#                  524, 	0, 	  750, 	    0
#                  526, 	1, 	  750, 	    0
#                  528, 	0, 	  750, 	    0
#                  530, 	1, 	  750, 	    0
#                  532, 	0, 	  750, 	    0
#                  534, 	1, 	  750, 	    5
#                  536, 	0, 	  750, 	    5
#                  538, 	1, 	    5, 	    5
#                  540, 	0, 	    5, 	    5
#                  542, 	1, 	    5, 	    5
#                  544, 	0, 	    5, 	    5
#                  546, 	1, 	    5, 	    5
#                  548, 	0, 	    5, 	    5
#                  550, 	1, 	   93, 	    0
#                  552, 	0, 	   93, 	    0
#                  554, 	1, 	   93, 	    0
#                  556, 	0, 	   93, 	    0
#                  558, 	1, 	   93, 	    0
#                  560, 	0, 	   93, 	    0
#                  562, 	1, 	    8, 	    0
#                  564, 	0, 	    8, 	    0
#                  566, 	1, 	    8, 	    0
#                  568, 	0, 	    8, 	    0
#                  570, 	1, 	    8, 	    0
#                  572, 	0, 	    8, 	    0
#                  574, 	1, 	    8, 	    0
#                  576, 	0, 	    8, 	    0
#                  578, 	1, 	    8, 	    0
#                  580, 	0, 	    8, 	    0
#                  582, 	1, 	    8, 	    0
#                  584, 	0, 	    8, 	    0
#                  586, 	1, 	    8, 	    0
#                  588, 	0, 	    8, 	    0
#                  590, 	1, 	    8, 	    0
#                  592, 	0, 	    8, 	    0
#                  594, 	1, 	    8, 	    0
#                  596, 	0, 	    8, 	    0
#                  598, 	1, 	    8, 	    0
#                  600, 	0, 	    8, 	    0
#                  602, 	1, 	    8, 	    0
#                  604, 	0, 	    8, 	    0
#                  606, 	1, 	    8, 	    0
#                  608, 	0, 	    8, 	    0
#                  610, 	1, 	    8, 	    0
#                  612, 	0, 	    8, 	    0
#                  614, 	1, 	    8, 	    0
#                  616, 	0, 	    8, 	    0
#                  618, 	1, 	    8, 	    0
#                  620, 	0, 	    8, 	    0
#                  622, 	1, 	    8, 	    0
#                  624, 	0, 	    8, 	    0
#                  626, 	1, 	    8, 	    0
#                  628, 	0, 	    8, 	    0
#                  630, 	1, 	    8, 	    0
#                  632, 	0, 	    8, 	    0
#                  634, 	1, 	    8, 	    0
#                  636, 	0, 	    8, 	    0
#                  638, 	1, 	    8, 	    0
#                  640, 	0, 	    8, 	    0
#                  642, 	1, 	    8, 	    0
#                  644, 	0, 	    8, 	    0
#                  646, 	1, 	    8, 	    0
#                  648, 	0, 	    8, 	    0
#                  650, 	1, 	    8, 	    0
#                  652, 	0, 	    8, 	    0
#                  654, 	1, 	    8, 	    0
#                  656, 	0, 	    8, 	    0
#                  658, 	1, 	    8, 	    0
#                  660, 	0, 	    8, 	    0
#                  662, 	1, 	    8, 	    0
#                  664, 	0, 	    8, 	    0
#                  666, 	1, 	    8, 	    0
#                  668, 	0, 	    8, 	    0
#                  670, 	1, 	    8, 	    0
#                  672, 	0, 	    8, 	    0
#                  674, 	1, 	    8, 	    0
#                  676, 	0, 	    8, 	    0
#                  678, 	1, 	    8, 	    0
#                  680, 	0, 	    8, 	    0
#                  682, 	1, 	    8, 	    0
#                  684, 	0, 	    8, 	    0
#                  686, 	1, 	    8, 	    0
#                  688, 	0, 	    8, 	    0
#                  690, 	1, 	    8, 	    0
#                  692, 	0, 	    8, 	    0
#                  694, 	1, 	    8, 	    0
#                  696, 	0, 	    8, 	    0
#                  698, 	1, 	    8, 	    0
#                  700, 	0, 	    8, 	    0
#                  702, 	1, 	    8, 	    0
#                  704, 	0, 	    8, 	    0
#                  706, 	1, 	    8, 	    0
#                  708, 	0, 	    8, 	    0
#                  710, 	1, 	    8, 	    0
#                  712, 	0, 	    8, 	    0
#                  714, 	1, 	    8, 	    0
#                  716, 	0, 	    8, 	    0
#                  718, 	1, 	    8, 	    0
#                  720, 	0, 	    8, 	    0
#                  722, 	1, 	    8, 	    0
#                  724, 	0, 	    8, 	    0
#                  726, 	1, 	    8, 	    0
#                  728, 	0, 	    8, 	    0
#                  730, 	1, 	    8, 	    0
#                  732, 	0, 	    8, 	    0
#                  734, 	1, 	    8, 	    0
#                  736, 	0, 	    8, 	    0
#                  738, 	1, 	    8, 	    0
#                  740, 	0, 	    8, 	    0
#                  742, 	1, 	    8, 	    0
#                  744, 	0, 	    8, 	    0
#                  746, 	1, 	    8, 	    0
#                  748, 	0, 	    8, 	    0
#                  750, 	1, 	    8, 	    0
#                  752, 	0, 	    8, 	    0
#                  754, 	1, 	    8, 	    0
#                  756, 	0, 	    8, 	    0
#                  758, 	1, 	    8, 	    0
#                  760, 	0, 	    8, 	    0
#                  762, 	1, 	    8, 	    0
#                  764, 	0, 	    8, 	    0
#                  766, 	1, 	    8, 	    0
#                  768, 	0, 	    8, 	    0
#                  770, 	1, 	    8, 	    0
#                  772, 	0, 	    8, 	    0
#                  774, 	1, 	  750, 	    0
#                  776, 	0, 	  750, 	    0
#                  778, 	1, 	  750, 	    0
#                  780, 	0, 	  750, 	    0
#                  782, 	1, 	  750, 	    0
#                  784, 	0, 	  750, 	    0
#                  786, 	1, 	  750, 	    0
#                  788, 	0, 	  750, 	    0
#                  790, 	1, 	  750, 	    0
#                  792, 	0, 	  750, 	    0
#                  794, 	1, 	  750, 	    0
#                  796, 	0, 	  750, 	    0
#                  798, 	1, 	  750, 	    0
#                  800, 	0, 	  750, 	    0
#                  802, 	1, 	  750, 	    5
#                  804, 	0, 	  750, 	    5
#                  806, 	1, 	    5, 	    5
#                  808, 	0, 	    5, 	    5
#                  810, 	1, 	    5, 	    5
#                  812, 	0, 	    5, 	    5
#                  814, 	1, 	    5, 	    5
#                  816, 	0, 	    5, 	    5
#                  818, 	1, 	   93, 	    0
#                  820, 	0, 	   93, 	    0
#                  822, 	1, 	   93, 	    0
#                  824, 	0, 	   93, 	    0
#                  826, 	1, 	   93, 	    0
#                  828, 	0, 	   93, 	    0
#                  830, 	1, 	    8, 	    0
#                  832, 	0, 	    8, 	    0
#                  834, 	1, 	    8, 	    0
#                  836, 	0, 	    8, 	    0
#                  838, 	1, 	    8, 	    0
#                  840, 	0, 	    8, 	    0
#                  842, 	1, 	    8, 	    0
#                  844, 	0, 	    8, 	    0
#                  846, 	1, 	    8, 	    0
#                  848, 	0, 	    8, 	    0
#                  850, 	1, 	    8, 	    0
#                  852, 	0, 	    8, 	    0
#                  854, 	1, 	    8, 	    0
#                  856, 	0, 	    8, 	    0
#                  858, 	1, 	    8, 	    0
#                  860, 	0, 	    8, 	    0
#                  862, 	1, 	    8, 	    0
#                  864, 	0, 	    8, 	    0
#                  866, 	1, 	    8, 	    0
#                  868, 	0, 	    8, 	    0
#                  870, 	1, 	    8, 	    0
#                  872, 	0, 	    8, 	    0
#                  874, 	1, 	    8, 	    0
#                  876, 	0, 	    8, 	    0
#                  878, 	1, 	    8, 	    0
#                  880, 	0, 	    8, 	    0
#                  882, 	1, 	    8, 	    0
#                  884, 	0, 	    8, 	    0
#                  886, 	1, 	    8, 	    0
#                  888, 	0, 	    8, 	    0
#                  890, 	1, 	    8, 	    0
#                  892, 	0, 	    8, 	    0
#                  894, 	1, 	    8, 	    0
#                  896, 	0, 	    8, 	    0
#                  898, 	1, 	    8, 	    0
#                  900, 	0, 	    8, 	    0
#                  902, 	1, 	    8, 	    0
#                  904, 	0, 	    8, 	    0
#                  906, 	1, 	    8, 	    0
#                  908, 	0, 	    8, 	    0
#                  910, 	1, 	    8, 	    0
#                  912, 	0, 	    8, 	    0
#                  914, 	1, 	    8, 	    0
#                  916, 	0, 	    8, 	    0
#                  918, 	1, 	    8, 	    0
#                  920, 	0, 	    8, 	    0
#                  922, 	1, 	    8, 	    0
#                  924, 	0, 	    8, 	    0
#                  926, 	1, 	    8, 	    0
#                  928, 	0, 	    8, 	    0
#                  930, 	1, 	    8, 	    0
#                  932, 	0, 	    8, 	    0
#                  934, 	1, 	    8, 	    0
#                  936, 	0, 	    8, 	    0
#                  938, 	1, 	    8, 	    0
#                  940, 	0, 	    8, 	    0
#                  942, 	1, 	    8, 	    0
#                  944, 	0, 	    8, 	    0
#                  946, 	1, 	    8, 	    0
#                  948, 	0, 	    8, 	    0
#                  950, 	1, 	    8, 	    0
#                  952, 	0, 	    8, 	    0
#                  954, 	1, 	    8, 	    0
#                  956, 	0, 	    8, 	    0
#                  958, 	1, 	    8, 	    0
#                  960, 	0, 	    8, 	    0
#                  962, 	1, 	    8, 	    0
#                  964, 	0, 	    8, 	    0
#                  966, 	1, 	    8, 	    0
#                  968, 	0, 	    8, 	    0
#                  970, 	1, 	    8, 	    0
#                  972, 	0, 	    8, 	    0
#                  974, 	1, 	    8, 	    0
#                  976, 	0, 	    8, 	    0
#                  978, 	1, 	    8, 	    0
#                  980, 	0, 	    8, 	    0
#                  982, 	1, 	    8, 	    0
#                  984, 	0, 	    8, 	    0
#                  986, 	1, 	    8, 	    0
#                  988, 	0, 	    8, 	    0
#                  990, 	1, 	    8, 	    0
#                  992, 	0, 	    8, 	    0
#                  994, 	1, 	    8, 	    0
#                  996, 	0, 	    8, 	    0
#                  998, 	1, 	    8, 	    0
# Break in Module Sistema_TB at C:/Users/WyKKe/Documentos/Unifei/2018.1/Eletrônica Digital II/Trabalhos/Trabalho 3/git/Turma2_2017020700_2017001212_2017005113/SISTEMA_FINAL/Sistema_TB.v line 31
# Simulation Breakpoint: Break in Module Sistema_TB at C:/Users/WyKKe/Documentos/Unifei/2018.1/Eletrônica Digital II/Trabalhos/Trabalho 3/git/Turma2_2017020700_2017001212_2017005113/SISTEMA_FINAL/Sistema_TB.v line 31
# MACRO ./SISTEMA_FINAL_run_msim_rtl_verilog.do PAUSED at line 25
