Turma2_2017020700_2017001212_2017005113/SISTEMA_FINAL/simulation/modelsim/msim_transcript
# Reading C:/altera/13.0sp1/modelsim_ase/tcl/vsim/pref.tcl 
# do SISTEMA_FINAL_run_msim_rtl_verilog.do 
# if {[file exists rtl_work]} {
# 	vdel -lib rtl_work -all
# }
# vlib rtl_work
# vmap work rtl_work
# Copying C:\altera\13.0sp1\modelsim_ase\win32aloem/../modelsim.ini to modelsim.ini
# Modifying modelsim.ini
# ** Warning: Copied C:\altera\13.0sp1\modelsim_ase\win32aloem/../modelsim.ini to modelsim.ini.
#          Updated modelsim.ini.
# 
# vlog -vlog01compat -work work +incdir+C:/Users/WyKKe/Documentos/Unifei/2018.1/Eletrônica\ Digital\ II/Trabalhos/Trabalho\ 3/git/Turma2_2017020700_2017001212_2017005113/AntiLoopM {C:/Users/WyKKe/Documentos/Unifei/2018.1/Eletrônica Digital II/Trabalhos/Trabalho 3/git/Turma2_2017020700_2017001212_2017005113/AntiLoopM/AntiLoopM.v}
# Model Technology ModelSim ALTERA vlog 10.1d Compiler 2012.11 Nov  2 2012
# -- Compiling module AntiLoopM
# 
# Top level modules:
# 	AntiLoopM
# vlog -vlog01compat -work work +incdir+C:/Users/WyKKe/Documentos/Unifei/2018.1/Eletrônica\ Digital\ II/Trabalhos/Trabalho\ 3/git/Turma2_2017020700_2017001212_2017005113/RegResto {C:/Users/WyKKe/Documentos/Unifei/2018.1/Eletrônica Digital II/Trabalhos/Trabalho 3/git/Turma2_2017020700_2017001212_2017005113/RegResto/RegResto.v}
# Model Technology ModelSim ALTERA vlog 10.1d Compiler 2012.11 Nov  2 2012
# -- Compiling module RegResto
# 
# Top level modules:
# 	RegResto
# vlog -vlog01compat -work work +incdir+C:/Users/WyKKe/Documentos/Unifei/2018.1/Eletrônica\ Digital\ II/Trabalhos/Trabalho\ 3/git/Turma2_2017020700_2017001212_2017005113/AntiLoopD {C:/Users/WyKKe/Documentos/Unifei/2018.1/Eletrônica Digital II/Trabalhos/Trabalho 3/git/Turma2_2017020700_2017001212_2017005113/AntiLoopD/AntiLoopD.v}
# Model Technology ModelSim ALTERA vlog 10.1d Compiler 2012.11 Nov  2 2012
# -- Compiling module AntiLoopD
# 
# Top level modules:
# 	AntiLoopD
# vlog -vlog01compat -work work +incdir+C:/Users/WyKKe/Documentos/Unifei/2018.1/Eletrônica\ Digital\ II/Trabalhos/Trabalho\ 3/git/Turma2_2017020700_2017001212_2017005113/ROM {C:/Users/WyKKe/Documentos/Unifei/2018.1/Eletrônica Digital II/Trabalhos/Trabalho 3/git/Turma2_2017020700_2017001212_2017005113/ROM/ROM.v}
# Model Technology ModelSim ALTERA vlog 10.1d Compiler 2012.11 Nov  2 2012
# -- Compiling module ROM
# 
# Top level modules:
# 	ROM
# vlog -vlog01compat -work work +incdir+C:/Users/WyKKe/Documentos/Unifei/2018.1/Eletrônica\ Digital\ II/Trabalhos/Trabalho\ 3/git/Turma2_2017020700_2017001212_2017005113/regC {C:/Users/WyKKe/Documentos/Unifei/2018.1/Eletrônica Digital II/Trabalhos/Trabalho 3/git/Turma2_2017020700_2017001212_2017005113/regC/regC.v}
# Model Technology ModelSim ALTERA vlog 10.1d Compiler 2012.11 Nov  2 2012
# -- Compiling module regC
# 
# Top level modules:
# 	regC
# vlog -vlog01compat -work work +incdir+C:/Users/WyKKe/Documentos/Unifei/2018.1/Eletrônica\ Digital\ II/Trabalhos/Trabalho\ 3/git/Turma2_2017020700_2017001212_2017005113/regA {C:/Users/WyKKe/Documentos/Unifei/2018.1/Eletrônica Digital II/Trabalhos/Trabalho 3/git/Turma2_2017020700_2017001212_2017005113/regA/regA.v}
# Model Technology ModelSim ALTERA vlog 10.1d Compiler 2012.11 Nov  2 2012
# -- Compiling module regA
# 
# Top level modules:
# 	regA
# vlog -vlog01compat -work work +incdir+C:/Users/WyKKe/Documentos/Unifei/2018.1/Eletrônica\ Digital\ II/Trabalhos/Trabalho\ 3/git/Turma2_2017020700_2017001212_2017005113/Controle {C:/Users/WyKKe/Documentos/Unifei/2018.1/Eletrônica Digital II/Trabalhos/Trabalho 3/git/Turma2_2017020700_2017001212_2017005113/Controle/Controle.v}
# Model Technology ModelSim ALTERA vlog 10.1d Compiler 2012.11 Nov  2 2012
# -- Compiling module Controle
# 
# Top level modules:
# 	Controle
# vlog -vlog01compat -work work +incdir+C:/Users/WyKKe/Documentos/Unifei/2018.1/Eletrônica\ Digital\ II/Trabalhos/Trabalho\ 3/git/Turma2_2017020700_2017001212_2017005113/ALU {C:/Users/WyKKe/Documentos/Unifei/2018.1/Eletrônica Digital II/Trabalhos/Trabalho 3/git/Turma2_2017020700_2017001212_2017005113/ALU/ALU.v}
# Model Technology ModelSim ALTERA vlog 10.1d Compiler 2012.11 Nov  2 2012
# -- Compiling module ALU
# -- Compiling module ALU_8bits
# 
# Top level modules:
# 	ALU
# vlog -vlog01compat -work work +incdir+C:/Users/WyKKe/Documentos/Unifei/2018.1/Eletrônica\ Digital\ II/Trabalhos/Trabalho\ 3/git/Turma2_2017020700_2017001212_2017005113/SISTEMA_FINAL {C:/Users/WyKKe/Documentos/Unifei/2018.1/Eletrônica Digital II/Trabalhos/Trabalho 3/git/Turma2_2017020700_2017001212_2017005113/SISTEMA_FINAL/SISTEMA_FINAL.v}
# Model Technology ModelSim ALTERA vlog 10.1d Compiler 2012.11 Nov  2 2012
# -- Compiling module SISTEMA_FINAL
# 
# Top level modules:
# 	SISTEMA_FINAL
# 
# vlog -vlog01compat -work work +incdir+C:/Users/WyKKe/Documentos/Unifei/2018.1/Eletrônica\ Digital\ II/Trabalhos/Trabalho\ 3/git/Turma2_2017020700_2017001212_2017005113/SISTEMA_FINAL {C:/Users/WyKKe/Documentos/Unifei/2018.1/Eletrônica Digital II/Trabalhos/Trabalho 3/git/Turma2_2017020700_2017001212_2017005113/SISTEMA_FINAL/Sistema_TB.v}
# Model Technology ModelSim ALTERA vlog 10.1d Compiler 2012.11 Nov  2 2012
# -- Compiling module Sistema_TB
# 
# Top level modules:
# 	Sistema_TB
# 
# vsim -t 1ps -L altera_ver -L lpm_ver -L sgate_ver -L altera_mf_ver -L altera_lnsim_ver -L cycloneii_ver -L rtl_work -L work -voptargs="+acc"  Sistema_TB
# vsim -L altera_ver -L lpm_ver -L sgate_ver -L altera_mf_ver -L altera_lnsim_ver -L cycloneii_ver -L rtl_work -L work -voptargs=\"+acc\" -t 1ps Sistema_TB 
# Loading work.Sistema_TB
# Loading work.SISTEMA_FINAL
# Loading work.Controle
# Loading work.ALU
# Loading work.ALU_8bits
# Loading work.ROM
# Loading work.regA
# Loading work.regC
# Loading work.AntiLoopD
# Loading work.AntiLoopM
# Loading work.RegResto
# 
# add wave *
# view structure
# .main_pane.structure.interior.cs.body.struct
# view signals
# .main_pane.objects.interior.cs.body.tree
# run 10 us
# 		time, 	CLK, 	Reset 	Saida, 	Resto
#                    0, 	0, 	0, 	    x, 	    x
#                    2, 	1, 	0, 	    x, 	    x
#                    4, 	0, 	0, 	    x, 	    x
#                    6, 	1, 	0, 	    x, 	    x
#                    8, 	0, 	0, 	    x, 	    x
#                   10, 	1, 	1, 	    0, 	    x
#                   12, 	0, 	1, 	    0, 	    x
#                   14, 	1, 	1, 	    0, 	    x
#                   16, 	0, 	1, 	    0, 	    x
#                   18, 	1, 	1, 	    0, 	    x
#                   20, 	0, 	1, 	    0, 	    x
#                   22, 	1, 	1, 	    0, 	    x
#                   24, 	0, 	1, 	    0, 	    x
#                   26, 	1, 	1, 	    0, 	    x
#                   28, 	0, 	1, 	    0, 	    x
#                   30, 	1, 	1, 	    0, 	    x
#                   32, 	0, 	1, 	    0, 	    x
#                   34, 	1, 	1, 	    0, 	    x
#                   36, 	0, 	1, 	    0, 	    x
#                   38, 	1, 	1, 	    0, 	    x
#                   40, 	0, 	1, 	    0, 	    x
#                   42, 	1, 	1, 	    0, 	    x
#                   44, 	0, 	1, 	    0, 	    x
#                   46, 	1, 	1, 	    0, 	    x
#                   48, 	0, 	1, 	    0, 	    x
#                   50, 	1, 	1, 	    0, 	    x
#                   52, 	0, 	1, 	    0, 	    x
#                   54, 	1, 	1, 	    0, 	    x
#                   56, 	0, 	1, 	    0, 	    x
#                   58, 	1, 	1, 	    0, 	    x
#                   60, 	0, 	0, 	    0, 	    x
#                   62, 	1, 	0, 	    x, 	    x
#                   64, 	0, 	0, 	    x, 	    x
#                   66, 	1, 	0, 	    X, 	    x
#                   68, 	0, 	0, 	    X, 	    x
#                   70, 	1, 	0, 	    X, 	    0
#                   72, 	0, 	0, 	    X, 	    0
#                   74, 	1, 	0, 	    X, 	    0
#                   76, 	0, 	0, 	    X, 	    0
#                   78, 	1, 	0, 	    X, 	    0
#                   80, 	0, 	0, 	    X, 	    0
#                   82, 	1, 	0, 	    X, 	    0
#                   84, 	0, 	0, 	    X, 	    0
#                   86, 	1, 	0, 	    X, 	    0
#                   88, 	0, 	0, 	    X, 	    0
#                   90, 	1, 	0, 	    X, 	    0
#                   92, 	0, 	0, 	    X, 	    0
#                   94, 	1, 	0, 	  246, 	    0
#                   96, 	0, 	0, 	  246, 	    0
#                   98, 	1, 	0, 	  246, 	    0
#                  100, 	0, 	0, 	  246, 	    0
#                  102, 	1, 	0, 	  246, 	    0
#                  104, 	0, 	0, 	  246, 	    0
#                  106, 	1, 	0, 	  246, 	    0
#                  108, 	0, 	0, 	  246, 	    0
#                  110, 	1, 	0, 	  246, 	    0
#                  112, 	0, 	0, 	  246, 	    0
#                  114, 	1, 	0, 	  246, 	    0
#                  116, 	0, 	0, 	  246, 	    0
#                  118, 	1, 	0, 	  246, 	    0
#                  120, 	0, 	0, 	  246, 	    0
#                  122, 	1, 	0, 	  246, 	    0
#                  124, 	0, 	0, 	  246, 	    0
#                  126, 	1, 	0, 	  246, 	    0
#                  128, 	0, 	0, 	  246, 	    0
#                  130, 	1, 	0, 	  246, 	    0
#                  132, 	0, 	0, 	  246, 	    0
#                  134, 	1, 	0, 	  246, 	    0
#                  136, 	0, 	0, 	  246, 	    0
#                  138, 	1, 	0, 	  246, 	    0
#                  140, 	0, 	0, 	  246, 	    0
#                  142, 	1, 	0, 	  246, 	    0
#                  144, 	0, 	0, 	  246, 	    0
#                  146, 	1, 	0, 	  246, 	    0
#                  148, 	0, 	0, 	  246, 	    0
#                  150, 	1, 	0, 	  246, 	    0
#                  152, 	0, 	0, 	  246, 	    0
#                  154, 	1, 	0, 	  246, 	    0
#                  156, 	0, 	0, 	  246, 	    0
#                  158, 	1, 	0, 	  246, 	    0
#                  160, 	0, 	0, 	  246, 	    0
#                  162, 	1, 	0, 	  246, 	    0
#                  164, 	0, 	0, 	  246, 	    0
#                  166, 	1, 	0, 	  246, 	    0
#                  168, 	0, 	0, 	  246, 	    0
#                  170, 	1, 	0, 	  246, 	    0
#                  172, 	0, 	0, 	  246, 	    0
#                  174, 	1, 	0, 	  246, 	    0
#                  176, 	0, 	0, 	  246, 	    0
#                  178, 	1, 	0, 	  246, 	    0
#                  180, 	0, 	0, 	  246, 	    0
#                  182, 	1, 	0, 	  246, 	    0
#                  184, 	0, 	0, 	  246, 	    0
#                  186, 	1, 	0, 	  246, 	    0
#                  188, 	0, 	0, 	  246, 	    0
#                  190, 	1, 	0, 	  246, 	    0
#                  192, 	0, 	0, 	  246, 	    0
#                  194, 	1, 	0, 	  246, 	    0
#                  196, 	0, 	0, 	  246, 	    0
#                  198, 	1, 	0, 	  246, 	    0
#                  200, 	0, 	0, 	  246, 	    0
#                  202, 	1, 	0, 	  246, 	    0
#                  204, 	0, 	0, 	  246, 	    0
#                  206, 	1, 	0, 	  246, 	    0
#                  208, 	0, 	0, 	  246, 	    0
#                  210, 	1, 	0, 	  246, 	    0
#                  212, 	0, 	0, 	  246, 	    0
#                  214, 	1, 	0, 	  246, 	    0
#                  216, 	0, 	0, 	  246, 	    0
#                  218, 	1, 	0, 	  246, 	    0
#                  220, 	0, 	0, 	  246, 	    0
#                  222, 	1, 	0, 	  246, 	    0
#                  224, 	0, 	0, 	  246, 	    0
#                  226, 	1, 	0, 	  246, 	    0
#                  228, 	0, 	0, 	  246, 	    0
#                  230, 	1, 	0, 	  246, 	    0
#                  232, 	0, 	0, 	  246, 	    0
#                  234, 	1, 	0, 	  246, 	    0
#                  236, 	0, 	0, 	  246, 	    0
#                  238, 	1, 	0, 	  246, 	    0
#                  240, 	0, 	0, 	  246, 	    0
#                  242, 	1, 	0, 	  246, 	    0
#                  244, 	0, 	0, 	  246, 	    0
#                  246, 	1, 	0, 	  246, 	    0
#                  248, 	0, 	0, 	  246, 	    0
#                  250, 	1, 	0, 	  246, 	    0
#                  252, 	0, 	0, 	  246, 	    0
#                  254, 	1, 	0, 	  246, 	    0
#                  256, 	0, 	0, 	  246, 	    0
#                  258, 	1, 	0, 	  246, 	    0
#                  260, 	0, 	0, 	  246, 	    0
#                  262, 	1, 	0, 	  246, 	    0
#                  264, 	0, 	0, 	  246, 	    0
#                  266, 	1, 	0, 	  246, 	    0
#                  268, 	0, 	0, 	  246, 	    0
#                  270, 	1, 	0, 	  246, 	    0
#                  272, 	0, 	0, 	  246, 	    0
#                  274, 	1, 	0, 	  246, 	    0
#                  276, 	0, 	0, 	  246, 	    0
#                  278, 	1, 	0, 	  246, 	    0
#                  280, 	0, 	0, 	  246, 	    0
#                  282, 	1, 	0, 	  246, 	    0
#                  284, 	0, 	0, 	  246, 	    0
#                  286, 	1, 	0, 	  246, 	    0
#                  288, 	0, 	0, 	  246, 	    0
#                  290, 	1, 	0, 	  246, 	    0
#                  292, 	0, 	0, 	  246, 	    0
#                  294, 	1, 	0, 	  246, 	    0
#                  296, 	0, 	0, 	  246, 	    0
#                  298, 	1, 	0, 	  246, 	    0
#                  300, 	0, 	0, 	  246, 	    0
#                  302, 	1, 	0, 	  246, 	    0
#                  304, 	0, 	0, 	  246, 	    0
#                  306, 	1, 	0, 	  119, 	    0
#                  308, 	0, 	0, 	  119, 	    0
#                  310, 	1, 	0, 	  119, 	    0
#                  312, 	0, 	0, 	  119, 	    0
#                  314, 	1, 	0, 	  119, 	    0
#                  316, 	0, 	0, 	  119, 	    0
#                  318, 	1, 	0, 	  119, 	    0
#                  320, 	0, 	0, 	  119, 	    0
#                  322, 	1, 	0, 	  119, 	    0
#                  324, 	0, 	0, 	  119, 	    0
#                  326, 	1, 	0, 	  119, 	    0
#                  328, 	0, 	0, 	  119, 	    0
#                  330, 	1, 	0, 	  119, 	    0
#                  332, 	0, 	0, 	  119, 	    0
#                  334, 	1, 	0, 	  119, 	    0
#                  336, 	0, 	0, 	  119, 	    0
#                  338, 	1, 	0, 	  119, 	    0
#                  340, 	0, 	0, 	  119, 	    0
#                  342, 	1, 	0, 	  119, 	    0
#                  344, 	0, 	0, 	  119, 	    0
#                  346, 	1, 	0, 	  119, 	    0
#                  348, 	0, 	0, 	  119, 	    0
#                  350, 	1, 	0, 	  119, 	   15
#                  352, 	0, 	0, 	  119, 	   15
#                  354, 	1, 	0, 	    9, 	   15
#                  356, 	0, 	0, 	    9, 	   15
#                  358, 	1, 	0, 	    9, 	   15
#                  360, 	0, 	0, 	    9, 	   15
#                  362, 	1, 	0, 	    9, 	   15
#                  364, 	0, 	0, 	    9, 	   15
#                  366, 	1, 	0, 	  356, 	    0
#                  368, 	0, 	0, 	  356, 	    0
#                  370, 	1, 	0, 	  356, 	    0
#                  372, 	0, 	0, 	  356, 	    0
#                  374, 	1, 	0, 	  356, 	    0
#                  376, 	0, 	0, 	  356, 	    0
#                  378, 	1, 	0, 	  246, 	    0
#                  380, 	0, 	0, 	  246, 	    0
#                  382, 	1, 	0, 	  246, 	    0
#                  384, 	0, 	0, 	  246, 	    0
#                  386, 	1, 	0, 	  246, 	    0
#                  388, 	0, 	0, 	  246, 	    0
#                  390, 	1, 	0, 	  246, 	    0
#                  392, 	0, 	0, 	  246, 	    0
#                  394, 	1, 	0, 	  246, 	    0
#                  396, 	0, 	0, 	  246, 	    0
#                  398, 	1, 	0, 	  246, 	    0
#                  400, 	0, 	0, 	  246, 	    0
#                  402, 	1, 	0, 	  246, 	    0
#                  404, 	0, 	0, 	  246, 	    0
#                  406, 	1, 	0, 	  246, 	    0
#                  408, 	0, 	0, 	  246, 	    0
#                  410, 	1, 	0, 	  246, 	    0
#                  412, 	0, 	0, 	  246, 	    0
#                  414, 	1, 	0, 	  246, 	    0
#                  416, 	0, 	0, 	  246, 	    0
#                  418, 	1, 	0, 	  246, 	    0
#                  420, 	0, 	0, 	  246, 	    0
#                  422, 	1, 	0, 	  246, 	    0
#                  424, 	0, 	0, 	  246, 	    0
#                  426, 	1, 	0, 	  246, 	    0
#                  428, 	0, 	0, 	  246, 	    0
#                  430, 	1, 	0, 	  246, 	    0
#                  432, 	0, 	0, 	  246, 	    0
#                  434, 	1, 	0, 	  246, 	    0
#                  436, 	0, 	0, 	  246, 	    0
#                  438, 	1, 	0, 	  246, 	    0
#                  440, 	0, 	0, 	  246, 	    0
#                  442, 	1, 	0, 	  246, 	    0
#                  444, 	0, 	0, 	  246, 	    0
#                  446, 	1, 	0, 	  246, 	    0
#                  448, 	0, 	0, 	  246, 	    0
#                  450, 	1, 	0, 	  246, 	    0
#                  452, 	0, 	0, 	  246, 	    0
#                  454, 	1, 	0, 	  246, 	    0
#                  456, 	0, 	0, 	  246, 	    0
#                  458, 	1, 	0, 	  246, 	    0
#                  460, 	0, 	0, 	  246, 	    0
#                  462, 	1, 	0, 	  246, 	    0
#                  464, 	0, 	0, 	  246, 	    0
#                  466, 	1, 	0, 	  246, 	    0
#                  468, 	0, 	0, 	  246, 	    0
#                  470, 	1, 	0, 	  246, 	    0
#                  472, 	0, 	0, 	  246, 	    0
#                  474, 	1, 	0, 	  246, 	    0
#                  476, 	0, 	0, 	  246, 	    0
#                  478, 	1, 	0, 	  246, 	    0
#                  480, 	0, 	0, 	  246, 	    0
#                  482, 	1, 	0, 	  246, 	    0
#                  484, 	0, 	0, 	  246, 	    0
#                  486, 	1, 	0, 	  246, 	    0
#                  488, 	0, 	0, 	  246, 	    0
#                  490, 	1, 	0, 	  246, 	    0
#                  492, 	0, 	0, 	  246, 	    0
#                  494, 	1, 	0, 	  246, 	    0
#                  496, 	0, 	0, 	  246, 	    0
#                  498, 	1, 	0, 	  246, 	    0
#                  500, 	0, 	0, 	  246, 	    0
#                  502, 	1, 	0, 	  246, 	    0
#                  504, 	0, 	0, 	  246, 	    0
#                  506, 	1, 	0, 	  246, 	    0
#                  508, 	0, 	0, 	  246, 	    0
#                  510, 	1, 	0, 	  246, 	    0
#                  512, 	0, 	0, 	  246, 	    0
#                  514, 	1, 	0, 	  246, 	    0
#                  516, 	0, 	0, 	  246, 	    0
#                  518, 	1, 	0, 	  246, 	    0
#                  520, 	0, 	0, 	  246, 	    0
#                  522, 	1, 	0, 	  246, 	    0
#                  524, 	0, 	0, 	  246, 	    0
#                  526, 	1, 	0, 	  246, 	    0
#                  528, 	0, 	0, 	  246, 	    0
#                  530, 	1, 	0, 	  246, 	    0
#                  532, 	0, 	0, 	  246, 	    0
#                  534, 	1, 	0, 	  246, 	    0
#                  536, 	0, 	0, 	  246, 	    0
#                  538, 	1, 	0, 	  246, 	    0
#                  540, 	0, 	0, 	  246, 	    0
#                  542, 	1, 	0, 	  246, 	    0
#                  544, 	0, 	0, 	  246, 	    0
#                  546, 	1, 	0, 	  246, 	    0
#                  548, 	0, 	0, 	  246, 	    0
#                  550, 	1, 	0, 	  246, 	    0
#                  552, 	0, 	0, 	  246, 	    0
#                  554, 	1, 	0, 	  246, 	    0
#                  556, 	0, 	0, 	  246, 	    0
#                  558, 	1, 	0, 	  246, 	    0
#                  560, 	0, 	0, 	  246, 	    0
#                  562, 	1, 	0, 	  246, 	    0
#                  564, 	0, 	0, 	  246, 	    0
#                  566, 	1, 	0, 	  246, 	    0
#                  568, 	0, 	0, 	  246, 	    0
#                  570, 	1, 	0, 	  246, 	    0
#                  572, 	0, 	0, 	  246, 	    0
#                  574, 	1, 	0, 	  246, 	    0
#                  576, 	0, 	0, 	  246, 	    0
#                  578, 	1, 	0, 	  246, 	    0
#                  580, 	0, 	0, 	  246, 	    0
#                  582, 	1, 	0, 	  246, 	    0
#                  584, 	0, 	0, 	  246, 	    0
#                  586, 	1, 	0, 	  246, 	    0
#                  588, 	0, 	0, 	  246, 	    0
#                  590, 	1, 	0, 	  119, 	    0
#                  592, 	0, 	0, 	  119, 	    0
#                  594, 	1, 	0, 	  119, 	    0
#                  596, 	0, 	0, 	  119, 	    0
#                  598, 	1, 	0, 	  119, 	    0
#                  600, 	0, 	0, 	  119, 	    0
#                  602, 	1, 	0, 	  119, 	    0
#                  604, 	0, 	0, 	  119, 	    0
#                  606, 	1, 	0, 	  119, 	    0
#                  608, 	0, 	0, 	  119, 	    0
#                  610, 	1, 	0, 	  119, 	    0
#                  612, 	0, 	0, 	  119, 	    0
#                  614, 	1, 	0, 	  119, 	    0
#                  616, 	0, 	0, 	  119, 	    0
#                  618, 	1, 	0, 	  119, 	    0
#                  620, 	0, 	0, 	  119, 	    0
#                  622, 	1, 	0, 	  119, 	    0
#                  624, 	0, 	0, 	  119, 	    0
#                  626, 	1, 	0, 	  119, 	    0
#                  628, 	0, 	0, 	  119, 	    0
#                  630, 	1, 	0, 	  119, 	    0
#                  632, 	0, 	0, 	  119, 	    0
#                  634, 	1, 	0, 	  119, 	   15
#                  636, 	0, 	0, 	  119, 	   15
#                  638, 	1, 	0, 	    9, 	   15
#                  640, 	0, 	0, 	    9, 	   15
#                  642, 	1, 	0, 	    9, 	   15
#                  644, 	0, 	0, 	    9, 	   15
#                  646, 	1, 	0, 	    9, 	   15
#                  648, 	0, 	0, 	    9, 	   15
#                  650, 	1, 	0, 	  356, 	    0
#                  652, 	0, 	0, 	  356, 	    0
#                  654, 	1, 	0, 	  356, 	    0
#                  656, 	0, 	0, 	  356, 	    0
#                  658, 	1, 	0, 	  356, 	    0
#                  660, 	0, 	0, 	  356, 	    0
#                  662, 	1, 	0, 	  246, 	    0
#                  664, 	0, 	0, 	  246, 	    0
#                  666, 	1, 	0, 	  246, 	    0
#                  668, 	0, 	0, 	  246, 	    0
#                  670, 	1, 	0, 	  246, 	    0
#                  672, 	0, 	0, 	  246, 	    0
#                  674, 	1, 	0, 	  246, 	    0
#                  676, 	0, 	0, 	  246, 	    0
#                  678, 	1, 	0, 	  246, 	    0
#                  680, 	0, 	0, 	  246, 	    0
#                  682, 	1, 	0, 	  246, 	    0
#                  684, 	0, 	0, 	  246, 	    0
#                  686, 	1, 	0, 	  246, 	    0
#                  688, 	0, 	0, 	  246, 	    0
#                  690, 	1, 	0, 	  246, 	    0
#                  692, 	0, 	0, 	  246, 	    0
#                  694, 	1, 	0, 	  246, 	    0
#                  696, 	0, 	0, 	  246, 	    0
#                  698, 	1, 	0, 	  246, 	    0
#                  700, 	0, 	0, 	  246, 	    0
#                  702, 	1, 	0, 	  246, 	    0
#                  704, 	0, 	0, 	  246, 	    0
#                  706, 	1, 	0, 	  246, 	    0
#                  708, 	0, 	0, 	  246, 	    0
#                  710, 	1, 	0, 	  246, 	    0
#                  712, 	0, 	0, 	  246, 	    0
#                  714, 	1, 	0, 	  246, 	    0
#                  716, 	0, 	0, 	  246, 	    0
#                  718, 	1, 	0, 	  246, 	    0
#                  720, 	0, 	0, 	  246, 	    0
#                  722, 	1, 	0, 	  246, 	    0
#                  724, 	0, 	0, 	  246, 	    0
#                  726, 	1, 	0, 	  246, 	    0
#                  728, 	0, 	0, 	  246, 	    0
#                  730, 	1, 	0, 	  246, 	    0
#                  732, 	0, 	0, 	  246, 	    0
#                  734, 	1, 	0, 	  246, 	    0
#                  736, 	0, 	0, 	  246, 	    0
#                  738, 	1, 	0, 	  246, 	    0
#                  740, 	0, 	0, 	  246, 	    0
#                  742, 	1, 	0, 	  246, 	    0
#                  744, 	0, 	0, 	  246, 	    0
#                  746, 	1, 	0, 	  246, 	    0
#                  748, 	0, 	0, 	  246, 	    0
#                  750, 	1, 	0, 	  246, 	    0
#                  752, 	0, 	0, 	  246, 	    0
#                  754, 	1, 	0, 	  246, 	    0
#                  756, 	0, 	0, 	  246, 	    0
#                  758, 	1, 	0, 	  246, 	    0
#                  760, 	0, 	0, 	  246, 	    0
#                  762, 	1, 	0, 	  246, 	    0
#                  764, 	0, 	0, 	  246, 	    0
#                  766, 	1, 	0, 	  246, 	    0
#                  768, 	0, 	0, 	  246, 	    0
#                  770, 	1, 	0, 	  246, 	    0
#                  772, 	0, 	0, 	  246, 	    0
#                  774, 	1, 	0, 	  246, 	    0
#                  776, 	0, 	0, 	  246, 	    0
#                  778, 	1, 	0, 	  246, 	    0
#                  780, 	0, 	0, 	  246, 	    0
#                  782, 	1, 	0, 	  246, 	    0
#                  784, 	0, 	0, 	  246, 	    0
#                  786, 	1, 	0, 	  246, 	    0
#                  788, 	0, 	0, 	  246, 	    0
#                  790, 	1, 	0, 	  246, 	    0
#                  792, 	0, 	0, 	  246, 	    0
#                  794, 	1, 	0, 	  246, 	    0
#                  796, 	0, 	0, 	  246, 	    0
#                  798, 	1, 	0, 	  246, 	    0
#                  800, 	0, 	0, 	  246, 	    0
#                  802, 	1, 	0, 	  246, 	    0
#                  804, 	0, 	0, 	  246, 	    0
#                  806, 	1, 	0, 	  246, 	    0
#                  808, 	0, 	0, 	  246, 	    0
#                  810, 	1, 	0, 	  246, 	    0
#                  812, 	0, 	0, 	  246, 	    0
#                  814, 	1, 	0, 	  246, 	    0
#                  816, 	0, 	0, 	  246, 	    0
#                  818, 	1, 	0, 	  246, 	    0
#                  820, 	0, 	0, 	  246, 	    0
#                  822, 	1, 	0, 	  246, 	    0
#                  824, 	0, 	0, 	  246, 	    0
#                  826, 	1, 	0, 	  246, 	    0
#                  828, 	0, 	0, 	  246, 	    0
#                  830, 	1, 	0, 	  246, 	    0
#                  832, 	0, 	0, 	  246, 	    0
#                  834, 	1, 	0, 	  246, 	    0
#                  836, 	0, 	0, 	  246, 	    0
#                  838, 	1, 	0, 	  246, 	    0
#                  840, 	0, 	0, 	  246, 	    0
#                  842, 	1, 	0, 	  246, 	    0
#                  844, 	0, 	0, 	  246, 	    0
#                  846, 	1, 	0, 	  246, 	    0
#                  848, 	0, 	0, 	  246, 	    0
#                  850, 	1, 	0, 	  246, 	    0
#                  852, 	0, 	0, 	  246, 	    0
#                  854, 	1, 	0, 	  246, 	    0
#                  856, 	0, 	0, 	  246, 	    0
#                  858, 	1, 	0, 	  246, 	    0
#                  860, 	0, 	0, 	  246, 	    0
#                  862, 	1, 	0, 	  246, 	    0
#                  864, 	0, 	0, 	  246, 	    0
#                  866, 	1, 	0, 	  246, 	    0
#                  868, 	0, 	0, 	  246, 	    0
#                  870, 	1, 	0, 	  246, 	    0
#                  872, 	0, 	0, 	  246, 	    0
#                  874, 	1, 	0, 	  119, 	    0
#                  876, 	0, 	0, 	  119, 	    0
#                  878, 	1, 	0, 	  119, 	    0
#                  880, 	0, 	0, 	  119, 	    0
#                  882, 	1, 	0, 	  119, 	    0
#                  884, 	0, 	0, 	  119, 	    0
#                  886, 	1, 	0, 	  119, 	    0
#                  888, 	0, 	0, 	  119, 	    0
#                  890, 	1, 	0, 	  119, 	    0
#                  892, 	0, 	0, 	  119, 	    0
#                  894, 	1, 	0, 	  119, 	    0
#                  896, 	0, 	0, 	  119, 	    0
#                  898, 	1, 	0, 	  119, 	    0
#                  900, 	0, 	0, 	  119, 	    0
#                  902, 	1, 	0, 	  119, 	    0
#                  904, 	0, 	0, 	  119, 	    0
#                  906, 	1, 	0, 	  119, 	    0
#                  908, 	0, 	0, 	  119, 	    0
#                  910, 	1, 	0, 	  119, 	    0
#                  912, 	0, 	0, 	  119, 	    0
#                  914, 	1, 	0, 	  119, 	    0
#                  916, 	0, 	0, 	  119, 	    0
#                  918, 	1, 	0, 	  119, 	   15
#                  920, 	0, 	0, 	  119, 	   15
#                  922, 	1, 	0, 	    9, 	   15
#                  924, 	0, 	0, 	    9, 	   15
#                  926, 	1, 	0, 	    9, 	   15
#                  928, 	0, 	0, 	    9, 	   15
#                  930, 	1, 	0, 	    9, 	   15
#                  932, 	0, 	0, 	    9, 	   15
#                  934, 	1, 	0, 	  356, 	    0
#                  936, 	0, 	0, 	  356, 	    0
#                  938, 	1, 	0, 	  356, 	    0
#                  940, 	0, 	0, 	  356, 	    0
#                  942, 	1, 	0, 	  356, 	    0
#                  944, 	0, 	0, 	  356, 	    0
#                  946, 	1, 	0, 	  246, 	    0
#                  948, 	0, 	0, 	  246, 	    0
#                  950, 	1, 	0, 	  246, 	    0
#                  952, 	0, 	0, 	  246, 	    0
#                  954, 	1, 	0, 	  246, 	    0
#                  956, 	0, 	0, 	  246, 	    0
#                  958, 	1, 	0, 	  246, 	    0
#                  960, 	0, 	0, 	  246, 	    0
#                  962, 	1, 	0, 	  246, 	    0
#                  964, 	0, 	0, 	  246, 	    0
#                  966, 	1, 	0, 	  246, 	    0
#                  968, 	0, 	0, 	  246, 	    0
#                  970, 	1, 	0, 	  246, 	    0
#                  972, 	0, 	0, 	  246, 	    0
#                  974, 	1, 	0, 	  246, 	    0
#                  976, 	0, 	0, 	  246, 	    0
#                  978, 	1, 	0, 	  246, 	    0
#                  980, 	0, 	0, 	  246, 	    0
#                  982, 	1, 	0, 	  246, 	    0
#                  984, 	0, 	0, 	  246, 	    0
#                  986, 	1, 	0, 	  246, 	    0
#                  988, 	0, 	0, 	  246, 	    0
#                  990, 	1, 	0, 	  246, 	    0
#                  992, 	0, 	0, 	  246, 	    0
#                  994, 	1, 	0, 	  246, 	    0
#                  996, 	0, 	0, 	  246, 	    0
#                  998, 	1, 	0, 	  246, 	    0
