Turma2_2017020700_2017001212_2017005113/SISTEMA_FINAL/simulation/modelsim/msim_transcript
# Reading C:/altera/13.0sp1/modelsim_ase/tcl/vsim/pref.tcl 
# do SISTEMA_FINAL_run_msim_rtl_verilog.do 
# if {[file exists rtl_work]} {
# 	vdel -lib rtl_work -all
# }
# vlib rtl_work
# vmap work rtl_work
# Copying C:\altera\13.0sp1\modelsim_ase\win32aloem/../modelsim.ini to modelsim.ini
# Modifying modelsim.ini
# ** Warning: Copied C:\altera\13.0sp1\modelsim_ase\win32aloem/../modelsim.ini to modelsim.ini.
#          Updated modelsim.ini.
# 
# vlog -vlog01compat -work work +incdir+C:/Users/WyKKe/Documentos/Unifei/2018.1/Eletrônica\ Digital\ II/Trabalhos/Trabalho\ 3/Turma2_2017020700_2017001212_2017005113/ROM {C:/Users/WyKKe/Documentos/Unifei/2018.1/Eletrônica Digital II/Trabalhos/Trabalho 3/Turma2_2017020700_2017001212_2017005113/ROM/ROM.v}
# Model Technology ModelSim ALTERA vlog 10.1d Compiler 2012.11 Nov  2 2012
# -- Compiling module ROM
# 
# Top level modules:
# 	ROM
# vlog -vlog01compat -work work +incdir+C:/Users/WyKKe/Documentos/Unifei/2018.1/Eletrônica\ Digital\ II/Trabalhos/Trabalho\ 3/Turma2_2017020700_2017001212_2017005113/regC {C:/Users/WyKKe/Documentos/Unifei/2018.1/Eletrônica Digital II/Trabalhos/Trabalho 3/Turma2_2017020700_2017001212_2017005113/regC/regC.v}
# Model Technology ModelSim ALTERA vlog 10.1d Compiler 2012.11 Nov  2 2012
# -- Compiling module regC
# 
# Top level modules:
# 	regC
# vlog -vlog01compat -work work +incdir+C:/Users/WyKKe/Documentos/Unifei/2018.1/Eletrônica\ Digital\ II/Trabalhos/Trabalho\ 3/Turma2_2017020700_2017001212_2017005113/regA {C:/Users/WyKKe/Documentos/Unifei/2018.1/Eletrônica Digital II/Trabalhos/Trabalho 3/Turma2_2017020700_2017001212_2017005113/regA/regA.v}
# Model Technology ModelSim ALTERA vlog 10.1d Compiler 2012.11 Nov  2 2012
# -- Compiling module regA
# 
# Top level modules:
# 	regA
# vlog -vlog01compat -work work +incdir+C:/Users/WyKKe/Documentos/Unifei/2018.1/Eletrônica\ Digital\ II/Trabalhos/Trabalho\ 3/Turma2_2017020700_2017001212_2017005113/Controle {C:/Users/WyKKe/Documentos/Unifei/2018.1/Eletrônica Digital II/Trabalhos/Trabalho 3/Turma2_2017020700_2017001212_2017005113/Controle/Controle.v}
# Model Technology ModelSim ALTERA vlog 10.1d Compiler 2012.11 Nov  2 2012
# -- Compiling module Controle
# 
# Top level modules:
# 	Controle
# vlog -vlog01compat -work work +incdir+C:/Users/WyKKe/Documentos/Unifei/2018.1/Eletrônica\ Digital\ II/Trabalhos/Trabalho\ 3/Turma2_2017020700_2017001212_2017005113/AntiLoop {C:/Users/WyKKe/Documentos/Unifei/2018.1/Eletrônica Digital II/Trabalhos/Trabalho 3/Turma2_2017020700_2017001212_2017005113/AntiLoop/AntiLoop.v}
# Model Technology ModelSim ALTERA vlog 10.1d Compiler 2012.11 Nov  2 2012
# -- Compiling module AntiLoop
# 
# Top level modules:
# 	AntiLoop
# vlog -vlog01compat -work work +incdir+C:/Users/WyKKe/Documentos/Unifei/2018.1/Eletrônica\ Digital\ II/Trabalhos/Trabalho\ 3/Turma2_2017020700_2017001212_2017005113/ALU {C:/Users/WyKKe/Documentos/Unifei/2018.1/Eletrônica Digital II/Trabalhos/Trabalho 3/Turma2_2017020700_2017001212_2017005113/ALU/ALU.v}
# Model Technology ModelSim ALTERA vlog 10.1d Compiler 2012.11 Nov  2 2012
# -- Compiling module ALU
# -- Compiling module ALU_8bits
# 
# Top level modules:
# 	ALU
# vlog -vlog01compat -work work +incdir+C:/Users/WyKKe/Documentos/Unifei/2018.1/Eletrônica\ Digital\ II/Trabalhos/Trabalho\ 3/Turma2_2017020700_2017001212_2017005113/SISTEMA_FINAL {C:/Users/WyKKe/Documentos/Unifei/2018.1/Eletrônica Digital II/Trabalhos/Trabalho 3/Turma2_2017020700_2017001212_2017005113/SISTEMA_FINAL/SISTEMA_FINAL.v}
# Model Technology ModelSim ALTERA vlog 10.1d Compiler 2012.11 Nov  2 2012
# -- Compiling module SISTEMA_FINAL
# 
# Top level modules:
# 	SISTEMA_FINAL
# 
# vlog -vlog01compat -work work +incdir+C:/Users/WyKKe/Documentos/Unifei/2018.1/Eletrônica\ Digital\ II/Trabalhos/Trabalho\ 3/Turma2_2017020700_2017001212_2017005113/SISTEMA_FINAL {C:/Users/WyKKe/Documentos/Unifei/2018.1/Eletrônica Digital II/Trabalhos/Trabalho 3/Turma2_2017020700_2017001212_2017005113/SISTEMA_FINAL/Sistema_TB.v}
# Model Technology ModelSim ALTERA vlog 10.1d Compiler 2012.11 Nov  2 2012
# -- Compiling module Sistema_TB
# 
# Top level modules:
# 	Sistema_TB
# 
# vsim -t 1ps -L altera_ver -L lpm_ver -L sgate_ver -L altera_mf_ver -L altera_lnsim_ver -L cycloneii_ver -L rtl_work -L work -voptargs="+acc"  Sistema_TB
# vsim -L altera_ver -L lpm_ver -L sgate_ver -L altera_mf_ver -L altera_lnsim_ver -L cycloneii_ver -L rtl_work -L work -voptargs=\"+acc\" -t 1ps Sistema_TB 
# Loading work.Sistema_TB
# Loading work.SISTEMA_FINAL
# Loading work.Controle
# Loading work.ALU
# Loading work.ALU_8bits
# Loading work.ROM
# Loading work.regA
# Loading work.regC
# Loading work.AntiLoop
# ** Warning: (vsim-3015) C:/Users/WyKKe/Documentos/Unifei/2018.1/Eletrônica Digital II/Trabalhos/Trabalho 3/Turma2_2017020700_2017001212_2017005113/SISTEMA_FINAL/SISTEMA_FINAL.v(12): [PCDPC] - Port size (8 or 8) does not match connection size (16) for port 'B'. The port definition is at: C:/Users/WyKKe/Documentos/Unifei/2018.1/Eletrônica Digital II/Trabalhos/Trabalho 3/Turma2_2017020700_2017001212_2017005113/Controle/Controle.v(1).
# 
#         Region: /Sistema_TB/S0/controle
# 
# add wave *
# view structure
# .main_pane.structure.interior.cs.body.struct
# view signals
# .main_pane.objects.interior.cs.body.tree
# run 10 us
# 		time,	clk,	Saida
#                    0, 	0, 	    x
#                 2000, 	1, 	    x
#                 4000, 	0, 	    x
#                 6000, 	1, 	    x
#                 8000, 	0, 	    x
#                10000, 	1, 	    x
#                12000, 	0, 	    x
#                14000, 	1, 	    x
#                16000, 	0, 	    x
#                18000, 	1, 	    x
#                20000, 	0, 	    x
#                22000, 	1, 	    x
#                24000, 	0, 	    x
#                26000, 	1, 	    x
#                28000, 	0, 	    x
#                30000, 	1, 	    x
#                32000, 	0, 	    x
#                34000, 	1, 	    x
#                36000, 	0, 	    x
#                38000, 	1, 	    x
#                40000, 	0, 	    x
#                42000, 	1, 	    x
#                44000, 	0, 	    x
#                46000, 	1, 	    x
#                48000, 	0, 	    x
#                50000, 	1, 	    x
#                52000, 	0, 	    x
#                54000, 	1, 	    x
#                56000, 	0, 	    x
#                58000, 	1, 	    x
#                60000, 	0, 	    x
#                62000, 	1, 	    x
#                64000, 	0, 	    x
#                66000, 	1, 	    x
#                68000, 	0, 	    x
#                70000, 	1, 	    x
#                72000, 	0, 	    x
#                74000, 	1, 	    x
#                76000, 	0, 	    x
#                78000, 	1, 	    x
#                80000, 	0, 	    x
#                82000, 	1, 	    x
#                84000, 	0, 	    x
#                86000, 	1, 	    x
#                88000, 	0, 	    x
#                90000, 	1, 	    x
#                92000, 	0, 	    x
#                94000, 	1, 	    x
#                96000, 	0, 	    x
#                98000, 	1, 	    x
#               100000, 	0, 	    x
#               102000, 	1, 	    x
#               104000, 	0, 	    x
#               106000, 	1, 	    x
#               108000, 	0, 	    x
#               110000, 	1, 	    x
#               112000, 	0, 	    x
#               114000, 	1, 	    x
#               116000, 	0, 	    x
#               118000, 	1, 	    x
#               120000, 	0, 	    x
#               122000, 	1, 	    x
#               124000, 	0, 	    x
#               126000, 	1, 	    x
#               128000, 	0, 	    x
#               130000, 	1, 	    x
#               132000, 	0, 	    x
#               134000, 	1, 	    x
#               136000, 	0, 	    x
#               138000, 	1, 	    x
#               140000, 	0, 	    x
#               142000, 	1, 	    x
#               144000, 	0, 	    x
#               146000, 	1, 	    x
#               148000, 	0, 	    x
#               150000, 	1, 	    x
#               152000, 	0, 	    x
#               154000, 	1, 	    x
#               156000, 	0, 	    x
#               158000, 	1, 	    x
#               160000, 	0, 	    x
#               162000, 	1, 	    x
#               164000, 	0, 	    x
#               166000, 	1, 	    x
#               168000, 	0, 	    x
#               170000, 	1, 	    x
#               172000, 	0, 	    x
#               174000, 	1, 	    x
#               176000, 	0, 	    x
#               178000, 	1, 	    x
#               180000, 	0, 	    x
#               182000, 	1, 	    x
#               184000, 	0, 	    x
#               186000, 	1, 	    x
#               188000, 	0, 	    x
#               190000, 	1, 	    x
#               192000, 	0, 	    x
#               194000, 	1, 	    x
#               196000, 	0, 	    x
#               198000, 	1, 	    x
#               200000, 	0, 	    x
#               202000, 	1, 	    x
#               204000, 	0, 	    x
#               206000, 	1, 	    x
#               208000, 	0, 	    x
#               210000, 	1, 	    x
#               212000, 	0, 	    x
#               214000, 	1, 	    x
#               216000, 	0, 	    x
#               218000, 	1, 	    x
#               220000, 	0, 	    x
#               222000, 	1, 	    x
#               224000, 	0, 	    x
#               226000, 	1, 	    x
#               228000, 	0, 	    x
#               230000, 	1, 	    x
#               232000, 	0, 	    x
#               234000, 	1, 	    x
#               236000, 	0, 	    x
#               238000, 	1, 	    0
#               240000, 	0, 	    0
#               242000, 	1, 	    0
#               244000, 	0, 	    0
#               246000, 	1, 	    0
#               248000, 	0, 	    0
#               250000, 	1, 	    0
#               252000, 	0, 	    0
#               254000, 	1, 	    0
#               256000, 	0, 	    0
#               258000, 	1, 	    0
#               260000, 	0, 	    0
#               262000, 	1, 	    0
#               264000, 	0, 	    0
#               266000, 	1, 	    0
#               268000, 	0, 	    0
#               270000, 	1, 	    0
#               272000, 	0, 	    0
#               274000, 	1, 	    0
#               276000, 	0, 	    0
#               278000, 	1, 	    0
#               280000, 	0, 	    0
#               282000, 	1, 	    0
#               284000, 	0, 	    0
#               286000, 	1, 	    0
#               288000, 	0, 	    0
#               290000, 	1, 	    0
#               292000, 	0, 	    0
#               294000, 	1, 	    0
#               296000, 	0, 	    0
#               298000, 	1, 	    0
#               300000, 	0, 	    0
#               302000, 	1, 	    0
#               304000, 	0, 	    0
#               306000, 	1, 	    0
#               308000, 	0, 	    0
#               310000, 	1, 	    0
#               312000, 	0, 	    0
#               314000, 	1, 	    0
#               316000, 	0, 	    0
#               318000, 	1, 	    0
#               320000, 	0, 	    0
#               322000, 	1, 	    0
#               324000, 	0, 	    0
#               326000, 	1, 	    0
#               328000, 	0, 	    0
#               330000, 	1, 	    0
#               332000, 	0, 	    0
#               334000, 	1, 	    0
#               336000, 	0, 	    0
#               338000, 	1, 	    0
#               340000, 	0, 	    0
#               342000, 	1, 	    0
#               344000, 	0, 	    0
#               346000, 	1, 	    0
#               348000, 	0, 	    0
#               350000, 	1, 	    0
#               352000, 	0, 	    0
#               354000, 	1, 	    0
#               356000, 	0, 	    0
#               358000, 	1, 	    0
#               360000, 	0, 	    0
#               362000, 	1, 	    0
#               364000, 	0, 	    0
#               366000, 	1, 	    0
#               368000, 	0, 	    0
#               370000, 	1, 	    0
#               372000, 	0, 	    0
#               374000, 	1, 	    0
#               376000, 	0, 	    0
#               378000, 	1, 	    0
#               380000, 	0, 	    0
#               382000, 	1, 	    0
#               384000, 	0, 	    0
#               386000, 	1, 	    0
#               388000, 	0, 	    0
#               390000, 	1, 	    0
#               392000, 	0, 	    0
#               394000, 	1, 	    0
#               396000, 	0, 	    0
#               398000, 	1, 	    0
#               400000, 	0, 	    0
#               402000, 	1, 	    0
#               404000, 	0, 	    0
#               406000, 	1, 	    0
#               408000, 	0, 	    0
#               410000, 	1, 	    0
#               412000, 	0, 	    0
#               414000, 	1, 	    0
#               416000, 	0, 	    0
#               418000, 	1, 	    0
#               420000, 	0, 	    0
#               422000, 	1, 	    0
#               424000, 	0, 	    0
#               426000, 	1, 	    0
#               428000, 	0, 	    0
#               430000, 	1, 	    0
#               432000, 	0, 	    0
#               434000, 	1, 	    0
#               436000, 	0, 	    0
#               438000, 	1, 	    0
#               440000, 	0, 	    0
#               442000, 	1, 	    0
#               444000, 	0, 	    0
#               446000, 	1, 	    0
#               448000, 	0, 	    0
#               450000, 	1, 	    0
#               452000, 	0, 	    0
#               454000, 	1, 	    0
#               456000, 	0, 	    0
#               458000, 	1, 	    0
#               460000, 	0, 	    0
#               462000, 	1, 	   49
#               464000, 	0, 	   49
#               466000, 	1, 	   49
#               468000, 	0, 	   49
#               470000, 	1, 	   49
#               472000, 	0, 	   49
#               474000, 	1, 	    7
#               476000, 	0, 	    7
#               478000, 	1, 	    7
#               480000, 	0, 	    7
#               482000, 	1, 	    7
#               484000, 	0, 	    7
#               486000, 	1, 	    7
#               488000, 	0, 	    7
#               490000, 	1, 	    7
#               492000, 	0, 	    7
#               494000, 	1, 	    7
#               496000, 	0, 	    7
#               498000, 	1, 	    7
#               500000, 	0, 	    7
#               502000, 	1, 	    7
#               504000, 	0, 	    7
#               506000, 	1, 	    7
#               508000, 	0, 	    7
#               510000, 	1, 	    7
#               512000, 	0, 	    7
#               514000, 	1, 	    7
#               516000, 	0, 	    7
#               518000, 	1, 	    7
#               520000, 	0, 	    7
#               522000, 	1, 	    7
#               524000, 	0, 	    7
#               526000, 	1, 	    7
#               528000, 	0, 	    7
#               530000, 	1, 	    7
#               532000, 	0, 	    7
#               534000, 	1, 	    7
#               536000, 	0, 	    7
#               538000, 	1, 	    7
#               540000, 	0, 	    7
#               542000, 	1, 	    7
#               544000, 	0, 	    7
#               546000, 	1, 	    7
#               548000, 	0, 	    7
#               550000, 	1, 	    7
#               552000, 	0, 	    7
#               554000, 	1, 	    7
#               556000, 	0, 	    7
#               558000, 	1, 	    7
#               560000, 	0, 	    7
#               562000, 	1, 	    7
#               564000, 	0, 	    7
#               566000, 	1, 	    7
#               568000, 	0, 	    7
#               570000, 	1, 	    7
#               572000, 	0, 	    7
#               574000, 	1, 	    7
#               576000, 	0, 	    7
#               578000, 	1, 	    7
#               580000, 	0, 	    7
#               582000, 	1, 	    7
#               584000, 	0, 	    7
#               586000, 	1, 	    7
#               588000, 	0, 	    7
#               590000, 	1, 	    7
#               592000, 	0, 	    7
#               594000, 	1, 	    7
#               596000, 	0, 	    7
#               598000, 	1, 	    7
#               600000, 	0, 	    7
#               602000, 	1, 	    7
#               604000, 	0, 	    7
#               606000, 	1, 	    7
#               608000, 	0, 	    7
#               610000, 	1, 	    7
#               612000, 	0, 	    7
#               614000, 	1, 	    7
#               616000, 	0, 	    7
#               618000, 	1, 	    7
#               620000, 	0, 	    7
#               622000, 	1, 	    7
#               624000, 	0, 	    7
#               626000, 	1, 	    7
#               628000, 	0, 	    7
#               630000, 	1, 	    7
#               632000, 	0, 	    7
#               634000, 	1, 	    7
#               636000, 	0, 	    7
#               638000, 	1, 	    7
#               640000, 	0, 	    7
#               642000, 	1, 	    7
#               644000, 	0, 	    7
#               646000, 	1, 	    7
#               648000, 	0, 	    7
#               650000, 	1, 	    7
#               652000, 	0, 	    7
#               654000, 	1, 	    7
#               656000, 	0, 	    7
#               658000, 	1, 	    7
#               660000, 	0, 	    7
#               662000, 	1, 	    7
#               664000, 	0, 	    7
#               666000, 	1, 	    7
#               668000, 	0, 	    7
#               670000, 	1, 	    7
#               672000, 	0, 	    7
#               674000, 	1, 	    7
#               676000, 	0, 	    7
#               678000, 	1, 	    7
#               680000, 	0, 	    7
#               682000, 	1, 	    7
#               684000, 	0, 	    7
#               686000, 	1, 	    0
#               688000, 	0, 	    0
#               690000, 	1, 	    0
#               692000, 	0, 	    0
#               694000, 	1, 	    0
#               696000, 	0, 	    0
#               698000, 	1, 	    0
#               700000, 	0, 	    0
#               702000, 	1, 	    0
#               704000, 	0, 	    0
#               706000, 	1, 	    0
#               708000, 	0, 	    0
#               710000, 	1, 	    0
#               712000, 	0, 	    0
#               714000, 	1, 	    0
#               716000, 	0, 	    0
#               718000, 	1, 	    0
#               720000, 	0, 	    0
#               722000, 	1, 	    0
#               724000, 	0, 	    0
#               726000, 	1, 	    0
#               728000, 	0, 	    0
#               730000, 	1, 	    0
#               732000, 	0, 	    0
#               734000, 	1, 	    0
#               736000, 	0, 	    0
#               738000, 	1, 	    0
#               740000, 	0, 	    0
#               742000, 	1, 	    0
#               744000, 	0, 	    0
#               746000, 	1, 	    0
#               748000, 	0, 	    0
#               750000, 	1, 	    0
#               752000, 	0, 	    0
#               754000, 	1, 	    0
#               756000, 	0, 	    0
#               758000, 	1, 	    0
#               760000, 	0, 	    0
#               762000, 	1, 	    0
#               764000, 	0, 	    0
#               766000, 	1, 	    0
#               768000, 	0, 	    0
#               770000, 	1, 	    0
#               772000, 	0, 	    0
#               774000, 	1, 	    0
#               776000, 	0, 	    0
#               778000, 	1, 	    0
#               780000, 	0, 	    0
#               782000, 	1, 	    0
#               784000, 	0, 	    0
#               786000, 	1, 	    0
#               788000, 	0, 	    0
#               790000, 	1, 	    0
#               792000, 	0, 	    0
#               794000, 	1, 	    0
#               796000, 	0, 	    0
#               798000, 	1, 	    0
#               800000, 	0, 	    0
#               802000, 	1, 	    0
#               804000, 	0, 	    0
#               806000, 	1, 	    0
#               808000, 	0, 	    0
#               810000, 	1, 	    0
#               812000, 	0, 	    0
#               814000, 	1, 	    0
#               816000, 	0, 	    0
#               818000, 	1, 	    0
#               820000, 	0, 	    0
#               822000, 	1, 	    0
#               824000, 	0, 	    0
#               826000, 	1, 	    0
#               828000, 	0, 	    0
#               830000, 	1, 	    0
#               832000, 	0, 	    0
#               834000, 	1, 	    0
#               836000, 	0, 	    0
#               838000, 	1, 	    0
#               840000, 	0, 	    0
#               842000, 	1, 	    0
#               844000, 	0, 	    0
#               846000, 	1, 	    0
#               848000, 	0, 	    0
#               850000, 	1, 	    0
#               852000, 	0, 	    0
#               854000, 	1, 	    0
#               856000, 	0, 	    0
#               858000, 	1, 	    0
#               860000, 	0, 	    0
#               862000, 	1, 	    0
#               864000, 	0, 	    0
#               866000, 	1, 	    0
#               868000, 	0, 	    0
#               870000, 	1, 	    0
#               872000, 	0, 	    0
#               874000, 	1, 	    0
#               876000, 	0, 	    0
#               878000, 	1, 	    0
#               880000, 	0, 	    0
#               882000, 	1, 	    0
#               884000, 	0, 	    0
#               886000, 	1, 	    0
#               888000, 	0, 	    0
#               890000, 	1, 	    0
#               892000, 	0, 	    0
#               894000, 	1, 	    0
#               896000, 	0, 	    0
#               898000, 	1, 	    0
#               900000, 	0, 	    0
#               902000, 	1, 	    0
#               904000, 	0, 	    0
#               906000, 	1, 	    0
#               908000, 	0, 	    0
#               910000, 	1, 	   49
#               912000, 	0, 	   49
#               914000, 	1, 	   49
#               916000, 	0, 	   49
#               918000, 	1, 	   49
#               920000, 	0, 	   49
#               922000, 	1, 	    7
#               924000, 	0, 	    7
#               926000, 	1, 	    7
#               928000, 	0, 	    7
#               930000, 	1, 	    7
#               932000, 	0, 	    7
#               934000, 	1, 	    7
#               936000, 	0, 	    7
#               938000, 	1, 	    7
#               940000, 	0, 	    7
#               942000, 	1, 	    7
#               944000, 	0, 	    7
#               946000, 	1, 	    7
#               948000, 	0, 	    7
#               950000, 	1, 	    7
#               952000, 	0, 	    7
#               954000, 	1, 	    7
#               956000, 	0, 	    7
#               958000, 	1, 	    7
#               960000, 	0, 	    7
#               962000, 	1, 	    7
#               964000, 	0, 	    7
#               966000, 	1, 	    7
#               968000, 	0, 	    7
#               970000, 	1, 	    7
#               972000, 	0, 	    7
#               974000, 	1, 	    7
#               976000, 	0, 	    7
#               978000, 	1, 	    7
#               980000, 	0, 	    7
#               982000, 	1, 	    7
#               984000, 	0, 	    7
#               986000, 	1, 	    7
#               988000, 	0, 	    7
#               990000, 	1, 	    7
#               992000, 	0, 	    7
#               994000, 	1, 	    7
#               996000, 	0, 	    7
#               998000, 	1, 	    7
# Break in Module Sistema_TB at C:/Users/WyKKe/Documentos/Unifei/2018.1/Eletrônica Digital II/Trabalhos/Trabalho 3/Turma2_2017020700_2017001212_2017005113/SISTEMA_FINAL/Sistema_TB.v line 31
# Simulation Breakpoint: Break in Module Sistema_TB at C:/Users/WyKKe/Documentos/Unifei/2018.1/Eletrônica Digital II/Trabalhos/Trabalho 3/Turma2_2017020700_2017001212_2017005113/SISTEMA_FINAL/Sistema_TB.v line 31
# MACRO ./SISTEMA_FINAL_run_msim_rtl_verilog.do PAUSED at line 23
