Turma2_2017020700_2017001212_2017005113/regC/simulation/qsim/regC.msim.vcd
$comment
	File created using the following command:
		vcd file regC.msim.vcd -direction
$end
$date
	Mon Jun 25 11:21:26 2018
$end
$version
	ModelSim Version 10.1d
$end
$timescale
	1ps
$end
$scope module regC_vlg_vec_tst $end
$var reg 1 ! EnC $end
$var reg 1 " clk $end
$var reg 16 # entrada [15:0] $end
$var wire 1 $ FimC $end
$var wire 1 % saidaC [15] $end
$var wire 1 & saidaC [14] $end
$var wire 1 ' saidaC [13] $end
$var wire 1 ( saidaC [12] $end
$var wire 1 ) saidaC [11] $end
$var wire 1 * saidaC [10] $end
$var wire 1 + saidaC [9] $end
$var wire 1 , saidaC [8] $end
$var wire 1 - saidaC [7] $end
$var wire 1 . saidaC [6] $end
$var wire 1 / saidaC [5] $end
$var wire 1 0 saidaC [4] $end
$var wire 1 1 saidaC [3] $end
$var wire 1 2 saidaC [2] $end
$var wire 1 3 saidaC [1] $end
$var wire 1 4 saidaC [0] $end
$var wire 1 5 sampler $end
$scope module i1 $end
$var wire 1 6 gnd $end
$var wire 1 7 vcc $end
$var wire 1 8 unknown $end
$var tri1 1 9 devclrn $end
$var tri1 1 : devpor $end
$var tri1 1 ; devoe $end
$var wire 1 < clk~combout $end
$var wire 1 = clk~clkctrl_outclk $end
$var wire 1 > EnC~combout $end
$var wire 1 ? FimC~reg0_regout $end
$var wire 1 @ saidaC[0]~reg0feeder_combout $end
$var wire 1 A saidaC[0]~reg0_regout $end
$var wire 1 B saidaC[1]~reg0feeder_combout $end
$var wire 1 C saidaC[1]~reg0_regout $end
$var wire 1 D saidaC[2]~reg0feeder_combout $end
$var wire 1 E saidaC[2]~reg0_regout $end
$var wire 1 F saidaC[3]~reg0_regout $end
$var wire 1 G saidaC[4]~reg0_regout $end
$var wire 1 H saidaC[5]~reg0feeder_combout $end
$var wire 1 I saidaC[5]~reg0_regout $end
$var wire 1 J saidaC[6]~reg0_regout $end
$var wire 1 K saidaC[7]~reg0feeder_combout $end
$var wire 1 L saidaC[7]~reg0_regout $end
$var wire 1 M saidaC[8]~reg0feeder_combout $end
$var wire 1 N saidaC[8]~reg0_regout $end
$var wire 1 O saidaC[9]~reg0_regout $end
$var wire 1 P saidaC[10]~reg0feeder_combout $end
$var wire 1 Q saidaC[10]~reg0_regout $end
$var wire 1 R saidaC[11]~reg0feeder_combout $end
$var wire 1 S saidaC[11]~reg0_regout $end
$var wire 1 T saidaC[12]~reg0feeder_combout $end
$var wire 1 U saidaC[12]~reg0_regout $end
$var wire 1 V saidaC[13]~reg0_regout $end
$var wire 1 W saidaC[14]~reg0_regout $end
$var wire 1 X saidaC[15]~reg0_regout $end
$var wire 1 Y entrada~combout [15] $end
$var wire 1 Z entrada~combout [14] $end
$var wire 1 [ entrada~combout [13] $end
$var wire 1 \ entrada~combout [12] $end
$var wire 1 ] entrada~combout [11] $end
$var wire 1 ^ entrada~combout [10] $end
$var wire 1 _ entrada~combout [9] $end
$var wire 1 ` entrada~combout [8] $end
$var wire 1 a entrada~combout [7] $end
$var wire 1 b entrada~combout [6] $end
$var wire 1 c entrada~combout [5] $end
$var wire 1 d entrada~combout [4] $end
$var wire 1 e entrada~combout [3] $end
$var wire 1 f entrada~combout [2] $end
$var wire 1 g entrada~combout [1] $end
$var wire 1 h entrada~combout [0] $end
$upscope $end
$upscope $end
$enddefinitions $end
#0
$dumpvars
0!
0"
b1111111111111111 #
0$
04
03
02
01
00
0/
0.
0-
0,
0+
0*
0)
0(
0'
0&
0%
x5
06
17
x8
19
1:
1;
0<
0=
0>
0?
1@
0A
1B
0C
1D
0E
0F
0G
1H
0I
0J
1K
0L
1M
0N
0O
1P
0Q
1R
0S
1T
0U
0V
0W
0X
1h
1g
1f
1e
1d
1c
1b
1a
1`
1_
1^
1]
1\
1[
1Z
1Y
$end
#10000
1"
1<
1=
05
#20000
0"
0<
0=
15
#30000
1"
1<
1=
05
#40000
0"
0<
0=
15
#50000
1"
1<
1=
05
#60000
0"
0<
0=
15
#70000
1"
1<
1=
05
#80000
0"
0<
0=
15
#90000
1"
1<
1=
05
#100000
0"
0<
0=
15
#110000
1"
1<
1=
05
#120000
0"
0<
0=
15
#130000
1"
1<
1=
05
#140000
0"
0<
0=
15
#150000
1"
1<
1=
05
#160000
0"
0<
0=
15
#170000
1"
1<
1=
05
#180000
0"
0<
0=
15
#190000
1"
1<
1=
05
#200000
0"
0<
0=
15
#210000
1"
1<
1=
05
#220000
0"
0<
0=
15
#230000
1"
1<
1=
05
#240000
0"
0<
0=
15
#250000
1"
1<
1=
05
#260000
0"
0<
0=
15
#270000
1"
1<
1=
05
#280000
0"
0<
0=
15
#290000
1"
1<
1=
05
#300000
0"
0<
0=
15
#310000
1"
1<
1=
05
#320000
0"
0<
0=
15
#330000
1"
1<
1=
05
#340000
0"
0<
0=
15
#350000
1"
1<
1=
05
#360000
0"
0<
0=
15
#370000
1"
1<
1=
05
#380000
0"
0<
0=
15
#390000
1"
1<
1=
05
#400000
0"
0<
0=
15
#410000
1"
1<
1=
05
#420000
0"
0<
0=
15
#430000
1"
1<
1=
05
#440000
0"
0<
0=
15
#450000
1"
1<
1=
05
#460000
0"
0<
0=
15
#470000
1"
1<
1=
05
#480000
0"
0<
0=
15
#490000
1"
1<
1=
05
#500000
1!
0"
1>
0<
0=
15
#510000
1"
1<
1=
05
1X
1W
1V
1U
1S
1Q
1O
1N
1L
1J
1I
1G
1F
1E
1C
1A
1?
1%
1&
1'
1(
1)
1*
1+
1,
1-
1.
1/
10
11
12
13
14
1$
#520000
0"
0<
0=
15
#530000
1"
1<
1=
05
#540000
0"
0<
0=
15
#550000
1"
1<
1=
05
#560000
0"
0<
0=
15
#570000
1"
1<
1=
05
#580000
0"
0<
0=
15
#590000
1"
1<
1=
05
#600000
0"
0<
0=
15
#610000
1"
1<
1=
05
#620000
0"
0<
0=
15
#630000
1"
1<
1=
05
#640000
0"
0<
0=
15
#650000
1"
1<
1=
05
#660000
0"
0<
0=
15
#670000
1"
1<
1=
05
#680000
0"
0<
0=
15
#690000
1"
1<
1=
05
#700000
0"
0<
0=
15
#710000
1"
1<
1=
05
#720000
0"
0<
0=
15
#730000
1"
1<
1=
05
#740000
0"
0<
0=
15
#750000
1"
1<
1=
05
#760000
0"
0<
0=
15
#770000
1"
1<
1=
05
#780000
0"
0<
0=
15
#790000
1"
1<
1=
05
#800000
0"
0<
0=
15
#810000
1"
1<
1=
05
#820000
0"
0<
0=
15
#830000
1"
1<
1=
05
#840000
0"
0<
0=
15
#850000
1"
1<
1=
05
#860000
0"
0<
0=
15
#870000
1"
1<
1=
05
#880000
0"
0<
0=
15
#890000
1"
1<
1=
05
#900000
0"
0<
0=
15
#910000
1"
1<
1=
05
#920000
0"
0<
0=
15
#930000
1"
1<
1=
05
#940000
0"
0<
0=
15
#950000
1"
1<
1=
05
#960000
0"
0<
0=
15
#970000
1"
1<
1=
05
#980000
0"
0<
0=
15
#990000
1"
1<
1=
05
