Turma2_2017020700_2017001212_2017005113/SISTEMA_FINAL/simulation/qsim/SISTEMA_FINAL.msim.vcd
$comment
	File created using the following command:
		vcd file SISTEMA_FINAL.msim.vcd -direction
$end
$date
	Sun Jul 01 14:29:30 2018
$end
$version
	ModelSim Version 10.1d
$end
$timescale
	1ps
$end
$scope module SISTEMA_FINAL_vlg_vec_tst $end
$var reg 1 ! clk $end
$var wire 1 " saida [15] $end
$var wire 1 # saida [14] $end
$var wire 1 $ saida [13] $end
$var wire 1 % saida [12] $end
$var wire 1 & saida [11] $end
$var wire 1 ' saida [10] $end
$var wire 1 ( saida [9] $end
$var wire 1 ) saida [8] $end
$var wire 1 * saida [7] $end
$var wire 1 + saida [6] $end
$var wire 1 , saida [5] $end
$var wire 1 - saida [4] $end
$var wire 1 . saida [3] $end
$var wire 1 / saida [2] $end
$var wire 1 0 saida [1] $end
$var wire 1 1 saida [0] $end
$var wire 1 2 sampler $end
$scope module i1 $end
$var wire 1 3 gnd $end
$var wire 1 4 vcc $end
$var wire 1 5 unknown $end
$var tri1 1 6 devclrn $end
$var tri1 1 7 devpor $end
$var tri1 1 8 devoe $end
$var wire 1 9 alu|alu2|Add2~6_combout $end
$var wire 1 : alu|alu2|Add0~7 $end
$var wire 1 ; alu|alu2|Add2~9 $end
$var wire 1 < alu|alu2|Add0~8_combout $end
$var wire 1 = alu|alu2|Add0~9 $end
$var wire 1 > alu|alu2|Add0~10_combout $end
$var wire 1 ? alu|alu2|Add2~10_combout $end
$var wire 1 @ alu|alu3|Add2~0_combout $end
$var wire 1 A controle|contador[3]~16_combout $end
$var wire 1 B controle|contador[6]~22_combout $end
$var wire 1 C alu|alu1|Add0|auto_generated|_~0_combout $end
$var wire 1 D alu|alu1|Add0|auto_generated|_~2_combout $end
$var wire 1 E alu|alu2|Add2~12_combout $end
$var wire 1 F alu|alu4|Add1~3_combout $end
$var wire 1 G resultado[15]~10_combout $end
$var wire 1 H controle|EnC~2_combout $end
$var wire 1 I antiloop|saidaA~32_combout $end
$var wire 1 J antiloop|saidaA~33_combout $end
$var wire 1 K controle|EnB~0_combout $end
$var wire 1 L antiloop|saidaA~48_combout $end
$var wire 1 M clk~combout $end
$var wire 1 N clk~clkctrl_outclk $end
$var wire 1 O controle|contador[0]~8_combout $end
$var wire 1 P rega|FimA~regout $end
$var wire 1 Q controle|EnB~1_combout $end
$var wire 1 R controle|EnB~regout $end
$var wire 1 S regb|FimA~feeder_combout $end
$var wire 1 T regb|FimA~regout $end
$var wire 1 U controle|always1~0_combout $end
$var wire 1 V controle|EnA~0_combout $end
$var wire 1 W controle|EnA~regout $end
$var wire 1 X controle|contador[2]~15 $end
$var wire 1 Y controle|contador[3]~17 $end
$var wire 1 Z controle|contador[4]~18_combout $end
$var wire 1 [ controle|state~11_combout $end
$var wire 1 \ controle|SEL~1_combout $end
$var wire 1 ] controle|state.s3~regout $end
$var wire 1 ^ controle|state~10_combout $end
$var wire 1 _ controle|state.s4~regout $end
$var wire 1 ` controle|Endereco~2_combout $end
$var wire 1 a controle|Endereco[1]~1_combout $end
$var wire 1 b controle|state~14_combout $end
$var wire 1 c controle|state.s5~regout $end
$var wire 1 d controle|Endereco[3]~feeder_combout $end
$var wire 1 e rom|temp_rtl_0|auto_generated|ram_block1a4 $end
$var wire 1 f rom|temp_rtl_0|auto_generated|ram_block1a1 $end
$var wire 1 g rom|temp_rtl_0|auto_generated|ram_block1a2 $end
$var wire 1 h regb|saidaA[2]~feeder_combout $end
$var wire 1 i controle|Equal0~0_combout $end
$var wire 1 j rom|temp_rtl_0|auto_generated|ram_block1a7 $end
$var wire 1 k rom|temp_rtl_0|auto_generated|ram_block1a6 $end
$var wire 1 l regb|saidaA[6]~feeder_combout $end
$var wire 1 m controle|Equal0~1_combout $end
$var wire 1 n controle|multp~0_combout $end
$var wire 1 o controle|multp~1_combout $end
$var wire 1 p controle|multp~2_combout $end
$var wire 1 q controle|multp~regout $end
$var wire 1 r controle|SEL~0_combout $end
$var wire 1 s controle|SEL~regout $end
$var wire 1 t controle|contador[7]~12_combout $end
$var wire 1 u controle|contador[7]~13_combout $end
$var wire 1 v controle|contador[4]~19 $end
$var wire 1 w controle|contador[5]~21 $end
$var wire 1 x controle|contador[6]~23 $end
$var wire 1 y controle|contador[7]~24_combout $end
$var wire 1 z controle|contador[5]~20_combout $end
$var wire 1 { rom|temp_rtl_0|auto_generated|ram_block1a5 $end
$var wire 1 | antiloop|Equal0~1_combout $end
$var wire 1 } controle|EnC~0_combout $end
$var wire 1 ~ controle|EnC~1_combout $end
$var wire 1 !! controle|EnC~3_combout $end
$var wire 1 "! controle|EnC~regout $end
$var wire 1 #! regc|FimC~feeder_combout $end
$var wire 1 $! regc|FimC~regout $end
$var wire 1 %! controle|state~13_combout $end
$var wire 1 &! controle|state.s2~regout $end
$var wire 1 '! controle|Endereco~0_combout $end
$var wire 1 (! rom|temp_rtl_0|auto_generated|ram_block1a0~portadataout $end
$var wire 1 )! controle|contador[0]~9 $end
$var wire 1 *! controle|contador[1]~10_combout $end
$var wire 1 +! controle|contador[1]~11 $end
$var wire 1 ,! controle|contador[2]~14_combout $end
$var wire 1 -! antiloop|Equal0~0_combout $end
$var wire 1 .! controle|state~12_combout $end
$var wire 1 /! controle|state.s1~regout $end
$var wire 1 0! controle|Op~0_combout $end
$var wire 1 1! controle|Op~regout $end
$var wire 1 2! alu|alu1|Add0|auto_generated|result_int[0]~1_cout $end
$var wire 1 3! alu|alu1|Add0|auto_generated|result_int[1]~2_combout $end
$var wire 1 4! antiloop|saidaA~36_combout $end
$var wire 1 5! resultado[0]~4_combout $end
$var wire 1 6! alu|alu1|Add0|auto_generated|_~1_combout $end
$var wire 1 7! alu|alu1|Add0|auto_generated|result_int[1]~3 $end
$var wire 1 8! alu|alu1|Add0|auto_generated|result_int[2]~4_combout $end
$var wire 1 9! antiloop|saidaA~37_combout $end
$var wire 1 :! resultado[1]~5_combout $end
$var wire 1 ;! alu|alu1|Add0|auto_generated|result_int[2]~5 $end
$var wire 1 <! alu|alu1|Add0|auto_generated|result_int[3]~6_combout $end
$var wire 1 =! antiloop|saidaA~38_combout $end
$var wire 1 >! resultado[2]~6_combout $end
$var wire 1 ?! rom|temp_rtl_0|auto_generated|ram_block1a3 $end
$var wire 1 @! alu|alu1|Add0|auto_generated|_~3_combout $end
$var wire 1 A! alu|alu1|Add0|auto_generated|result_int[3]~7 $end
$var wire 1 B! alu|alu1|Add0|auto_generated|result_int[4]~8_combout $end
$var wire 1 C! antiloop|saidaA~39_combout $end
$var wire 1 D! resultado[3]~7_combout $end
$var wire 1 E! SaidaMux[4]~0_combout $end
$var wire 1 F! alu|alu2|Add0~1_cout $end
$var wire 1 G! alu|alu2|Add0~2_combout $end
$var wire 1 H! alu|alu1|Add0|auto_generated|result_int[4]~9 $end
$var wire 1 I! alu|alu1|Add0|auto_generated|result_int[5]~10_combout $end
$var wire 1 J! alu|alu2|Add2~1_cout $end
$var wire 1 K! alu|alu2|Add2~2_combout $end
$var wire 1 L! regc|saidaC[4]~0_combout $end
$var wire 1 M! antiloop|saidaA~40_combout $end
$var wire 1 N! SaidaMux[5]~1_combout $end
$var wire 1 O! alu|alu2|Add2~3 $end
$var wire 1 P! alu|alu2|Add2~4_combout $end
$var wire 1 Q! alu|alu2|Add0~3 $end
$var wire 1 R! alu|alu2|Add0~4_combout $end
$var wire 1 S! regc|saidaC[5]~1_combout $end
$var wire 1 T! antiloop|saidaA~41_combout $end
$var wire 1 U! antiloop|saidaA~42_combout $end
$var wire 1 V! SaidaMux[6]~2_combout $end
$var wire 1 W! alu|alu2|Add0~5 $end
$var wire 1 X! alu|alu2|Add0~6_combout $end
$var wire 1 Y! regc|saidaC[6]~2_combout $end
$var wire 1 Z! SaidaMux[7]~3_combout $end
$var wire 1 [! rega|saidaA[6]~feeder_combout $end
$var wire 1 \! alu|alu2|Add2~5 $end
$var wire 1 ]! alu|alu2|Add2~7 $end
$var wire 1 ^! alu|alu2|Add2~8_combout $end
$var wire 1 _! regc|saidaC[7]~3_combout $end
$var wire 1 `! antiloop|saidaA~43_combout $end
$var wire 1 a! antiloop|saidaA~44_combout $end
$var wire 1 b! SaidaMux[8]~4_combout $end
$var wire 1 c! alu|alu3|Add1~0_combout $end
$var wire 1 d! regc|saidaC[8]~4_combout $end
$var wire 1 e! alu|alu3|Add2~1 $end
$var wire 1 f! alu|alu3|Add2~2_combout $end
$var wire 1 g! alu|alu3|Add1~1 $end
$var wire 1 h! alu|alu3|Add1~2_combout $end
$var wire 1 i! regc|saidaC[9]~5_combout $end
$var wire 1 j! antiloop|saidaA~45_combout $end
$var wire 1 k! alu|alu3|Add1~3 $end
$var wire 1 l! alu|alu3|Add1~4_combout $end
$var wire 1 m! alu|alu3|Add2~3 $end
$var wire 1 n! alu|alu3|Add2~4_combout $end
$var wire 1 o! regc|saidaC[10]~6_combout $end
$var wire 1 p! antiloop|saidaA~46_combout $end
$var wire 1 q! alu|alu3|Add2~5 $end
$var wire 1 r! alu|alu3|Add2~6_combout $end
$var wire 1 s! alu|alu3|Add1~5 $end
$var wire 1 t! alu|alu3|Add1~6_combout $end
$var wire 1 u! regc|saidaC[11]~7_combout $end
$var wire 1 v! antiloop|saidaA~47_combout $end
$var wire 1 w! alu|alu3|Add1~7 $end
$var wire 1 x! alu|alu3|Add1~8_combout $end
$var wire 1 y! alu|alu3|Add2~7 $end
$var wire 1 z! alu|alu3|Add2~8_combout $end
$var wire 1 {! alu|alu3|Add2~10_combout $end
$var wire 1 |! resultado[12]~12_combout $end
$var wire 1 }! alu|alu4|Add1~0_combout $end
$var wire 1 ~! alu|alu4|Add1~1_combout $end
$var wire 1 !" resultado[13]~13_combout $end
$var wire 1 "" alu|alu4|Add1~2_combout $end
$var wire 1 #" antiloop|Equal0~2_combout $end
$var wire 1 $" antiloop|saidaA~34_combout $end
$var wire 1 %" resultado[14]~8_combout $end
$var wire 1 &" resultado[14]~9_combout $end
$var wire 1 '" antiloop|saidaA~35_combout $end
$var wire 1 (" alu|alu4|Add1~4_combout $end
$var wire 1 )" resultado[15]~11_combout $end
$var wire 1 *" regc|saidaC [15] $end
$var wire 1 +" regc|saidaC [14] $end
$var wire 1 ," regc|saidaC [13] $end
$var wire 1 -" regc|saidaC [12] $end
$var wire 1 ." regc|saidaC [11] $end
$var wire 1 /" regc|saidaC [10] $end
$var wire 1 0" regc|saidaC [9] $end
$var wire 1 1" regc|saidaC [8] $end
$var wire 1 2" regc|saidaC [7] $end
$var wire 1 3" regc|saidaC [6] $end
$var wire 1 4" regc|saidaC [5] $end
$var wire 1 5" regc|saidaC [4] $end
$var wire 1 6" regc|saidaC [3] $end
$var wire 1 7" regc|saidaC [2] $end
$var wire 1 8" regc|saidaC [1] $end
$var wire 1 9" regc|saidaC [0] $end
$var wire 1 :" controle|contador [7] $end
$var wire 1 ;" controle|contador [6] $end
$var wire 1 <" controle|contador [5] $end
$var wire 1 =" controle|contador [4] $end
$var wire 1 >" controle|contador [3] $end
$var wire 1 ?" controle|contador [2] $end
$var wire 1 @" controle|contador [1] $end
$var wire 1 A" controle|contador [0] $end
$var wire 1 B" controle|Endereco [8] $end
$var wire 1 C" controle|Endereco [7] $end
$var wire 1 D" controle|Endereco [6] $end
$var wire 1 E" controle|Endereco [5] $end
$var wire 1 F" controle|Endereco [4] $end
$var wire 1 G" controle|Endereco [3] $end
$var wire 1 H" controle|Endereco [2] $end
$var wire 1 I" controle|Endereco [1] $end
$var wire 1 J" controle|Endereco [0] $end
$var wire 1 K" antiloop|saidaA [15] $end
$var wire 1 L" antiloop|saidaA [14] $end
$var wire 1 M" antiloop|saidaA [13] $end
$var wire 1 N" antiloop|saidaA [12] $end
$var wire 1 O" antiloop|saidaA [11] $end
$var wire 1 P" antiloop|saidaA [10] $end
$var wire 1 Q" antiloop|saidaA [9] $end
$var wire 1 R" antiloop|saidaA [8] $end
$var wire 1 S" antiloop|saidaA [7] $end
$var wire 1 T" antiloop|saidaA [6] $end
$var wire 1 U" antiloop|saidaA [5] $end
$var wire 1 V" antiloop|saidaA [4] $end
$var wire 1 W" antiloop|saidaA [3] $end
$var wire 1 X" antiloop|saidaA [2] $end
$var wire 1 Y" antiloop|saidaA [1] $end
$var wire 1 Z" antiloop|saidaA [0] $end
$var wire 1 [" rega|saidaA [15] $end
$var wire 1 \" rega|saidaA [14] $end
$var wire 1 ]" rega|saidaA [13] $end
$var wire 1 ^" rega|saidaA [12] $end
$var wire 1 _" rega|saidaA [11] $end
$var wire 1 `" rega|saidaA [10] $end
$var wire 1 a" rega|saidaA [9] $end
$var wire 1 b" rega|saidaA [8] $end
$var wire 1 c" rega|saidaA [7] $end
$var wire 1 d" rega|saidaA [6] $end
$var wire 1 e" rega|saidaA [5] $end
$var wire 1 f" rega|saidaA [4] $end
$var wire 1 g" rega|saidaA [3] $end
$var wire 1 h" rega|saidaA [2] $end
$var wire 1 i" rega|saidaA [1] $end
$var wire 1 j" rega|saidaA [0] $end
$var wire 1 k" regb|saidaA [15] $end
$var wire 1 l" regb|saidaA [14] $end
$var wire 1 m" regb|saidaA [13] $end
$var wire 1 n" regb|saidaA [12] $end
$var wire 1 o" regb|saidaA [11] $end
$var wire 1 p" regb|saidaA [10] $end
$var wire 1 q" regb|saidaA [9] $end
$var wire 1 r" regb|saidaA [8] $end
$var wire 1 s" regb|saidaA [7] $end
$var wire 1 t" regb|saidaA [6] $end
$var wire 1 u" regb|saidaA [5] $end
$var wire 1 v" regb|saidaA [4] $end
$var wire 1 w" regb|saidaA [3] $end
$var wire 1 x" regb|saidaA [2] $end
$var wire 1 y" regb|saidaA [1] $end
$var wire 1 z" regb|saidaA [0] $end
$var wire 1 {" rom|temp_rtl_0|auto_generated|ram_block1a0_PORTADATAOUT_bus [7] $end
$var wire 1 |" rom|temp_rtl_0|auto_generated|ram_block1a0_PORTADATAOUT_bus [6] $end
$var wire 1 }" rom|temp_rtl_0|auto_generated|ram_block1a0_PORTADATAOUT_bus [5] $end
$var wire 1 ~" rom|temp_rtl_0|auto_generated|ram_block1a0_PORTADATAOUT_bus [4] $end
$var wire 1 !# rom|temp_rtl_0|auto_generated|ram_block1a0_PORTADATAOUT_bus [3] $end
$var wire 1 "# rom|temp_rtl_0|auto_generated|ram_block1a0_PORTADATAOUT_bus [2] $end
$var wire 1 ## rom|temp_rtl_0|auto_generated|ram_block1a0_PORTADATAOUT_bus [1] $end
$var wire 1 $# rom|temp_rtl_0|auto_generated|ram_block1a0_PORTADATAOUT_bus [0] $end
$upscope $end
$upscope $end
$enddefinitions $end
#0
$dumpvars
0!
01
00
0/
0.
0-
0,
0+
0*
0)
0(
0'
0&
0%
0$
0#
0"
x2
03
14
x5
16
17
18
09
1:
1;
0<
0=
0>
0?
0@
1A
1B
0C
0D
0E
1F
0G
0H
0I
0J
0K
0L
0M
0N
1O
0P
0Q
0R
0S
0T
0U
0V
0W
0X
1Y
1Z
0[
1\
0]
0^
0_
0`
0a
0b
0c
0d
0e
0f
0g
0h
1i
0j
0k
0l
1m
0n
0o
0p
0q
0r
0s
0t
0u
0v
1w
0x
1y
1z
0{
1|
0}
0~
1!!
0"!
0#!
0$!
0%!
0&!
0'!
0(!
0)!
1*!
1+!
1,!
1-!
0.!
0/!
00!
01!
12!
03!
04!
05!
06!
07!
08!
09!
0:!
1;!
0<!
0=!
0>!
0?!
0@!
0A!
0B!
0C!
0D!
0E!
0F!
0G!
1H!
0I!
1J!
0K!
0L!
0M!
0N!
0O!
0P!
1Q!
0R!
0S!
0T!
0U!
0V!
0W!
0X!
0Y!
0Z!
0[!
1\!
0]!
0^!
0_!
0`!
0a!
0b!
0c!
0d!
1e!
0f!
0g!
0h!
0i!
0j!
1k!
0l!
0m!
0n!
0o!
0p!
1q!
0r!
0s!
0t!
0u!
0v!
1w!
0x!
0y!
1z!
1{!
0|!
1}!
1~!
0!"
1""
1#"
0$"
0%"
0&"
0'"
1("
0)"
09"
08"
07"
06"
05"
04"
03"
02"
01"
00"
0/"
0."
0-"
0,"
0+"
0*"
0A"
0@"
0?"
0>"
0="
0<"
0;"
0:"
zJ"
0I"
0H"
0G"
zF"
zE"
zD"
zC"
zB"
0Z"
0Y"
0X"
0W"
0V"
0U"
0T"
0S"
0R"
0Q"
0P"
0O"
0N"
0M"
0L"
0K"
0j"
0i"
0h"
0g"
0f"
0e"
0d"
0c"
zb"
za"
z`"
z_"
z^"
z]"
z\"
z["
0z"
0y"
0x"
0w"
0v"
0u"
0t"
0s"
zr"
zq"
zp"
zo"
zn"
zm"
zl"
zk"
0$#
0##
0"#
0!#
0~"
0}"
0|"
0{"
$end
#10000
1!
1M
1N
02
#10001
1##
1f
#20000
0!
0M
0N
12
1"!
1#!
#30000
1!
1M
1N
02
1$!
1.!
1%!
1r
1a
1V
1H
0!!
#40000
0!
0M
0N
12
1W
0"!
1&!
1/!
0#!
1'!
1[
10!
0%!
#50000
1!
1M
1N
02
0$!
1P
1i"
0.!
0r
0[
0V
0H
0\
1Q
18!
1:!
#50001
1"#
1g
1h
#60000
0!
0M
0N
12
1R
0W
1I"
1S
#70000
1!
1M
1N
02
1x"
1y"
1T
0P
0i
1D
16!
0a
1U
1H
1!!
1n
1A!
1<!
08!
1~
0Q
0!!
1o
0H!
1B!
1>!
0:!
1!!
1I!
1D!
0J!
1F!
1O!
1K!
1G!
0\!
1P!
1L!
1]!
19
1S!
0;
1^!
1Y!
1?
1_!
1E
1c!
0e!
1@
1d!
1m!
1f!
0q!
1n!
1i!
1y!
1r!
1o!
0z!
1u!
0~!
0{!
1)"
1%"
1!"
1|!
1&"
#70001
1$#
1(!
#80000
0!
0M
0N
12
0R
1"!
0S
1#!
0H
#90000
1!
1M
1N
02
1*"
1+"
1,"
1-"
1."
1/"
10"
11"
12"
13"
14"
15"
16"
17"
1$!
0T
1.!
1r
1a
1[
1H
0o
1\
0U
1"
1#
1$
1%
1&
1'
1(
1)
1*
1+
1,
1-
1.
1/
0~
1V
0!!
#100000
0!
0M
0N
12
1W
1]
0"!
0&!
11!
00!
1`
1^
0#!
0'!
0[
0("
0""
0!"
0}!
0|!
0u!
0o!
0i!
0_!
0Y!
0S!
0I!
1@!
06!
02!
1L
0F
0E
0D
1C
0)"
0%"
1G
1J!
0F!
0B!
18!
17!
0c!
1e!
0@
0A!
0<!
0&"
0O!
0K!
0G!
0D!
1:!
08!
0d!
0m!
0f!
1B!
0>!
1\!
0P!
0L!
0:!
1q!
0n!
1D!
0]!
09
0y!
0r!
1;
0^!
1z!
0?
#110000
1!
1M
1N
02
1h"
1j"
0$!
1P
1<!
13!
0.!
0r
0^
0V
0H
0\
1Q
1>!
15!
#110001
0$#
0"#
0(!
0g
0h
#120000
0!
0M
0N
12
1R
0W
1H"
0I"
1S
#130000
1!
1M
1N
02
0x"
1T
0P
1D
1o
0a
1U
1H
1!!
0<!
1~
0Q
0!!
0>!
1!!
#140000
0!
0M
0N
12
0R
1"!
0S
1#!
0H
#150000
1!
1M
1N
02
0*"
0+"
0,"
0-"
0."
0/"
00"
01"
02"
03"
04"
05"
07"
19"
1$!
0T
1.!
1r
1a
1^
1H
0o
1\
0U
0"
0#
0$
0%
0&
0'
0(
0)
0*
0+
0,
0-
0/
11
0~
1V
0!!
#160000
0!
0M
0N
12
1W
0]
1_
0"!
01!
10!
0^
1'!
1b
0#!
1("
1""
1!"
1}!
1|!
1{!
1I!
0@!
16!
12!
0L
1F
0D
0C
1)"
1%"
0G
1~!
0|!
0J!
1F!
1H!
0B!
0;!
18!
07!
1<!
1&"
0)"
0%"
0!"
1O!
1K!
1G!
0I!
0D!
0<!
1:!
1;!
08!
1>!
0&"
0\!
1P!
1L!
1J!
0F!
0>!
1<!
0:!
1]!
19
1S!
0O!
0K!
0G!
1>!
0;
1^!
1Y!
1\!
0P!
0L!
1?
1_!
0]!
09
0S!
1E
1;
0^!
0Y!
1c!
0e!
1@
0?
0_!
1d!
1m!
1f!
0E
0q!
1n!
1i!
0c!
1e!
0@
1y!
1r!
1o!
0d!
0m!
0f!
0z!
1u!
1q!
0n!
0i!
0~!
0{!
0y!
0r!
0o!
1)"
1%"
1!"
1|!
1z!
0u!
1&"
1~!
1{!
0)"
0%"
0!"
0|!
0&"
#170000
1!
1M
1N
02
0h"
0j"
0$!
1P
0<!
03!
0.!
0r
0b
0V
0H
0\
1Q
0>!
05!
#170001
0##
0f
#180000
0!
0M
0N
12
1R
0W
1I"
1S
#190000
1!
1M
1N
02
0y"
1T
0P
06!
1i
1o
0a
1U
1H
1!!
18!
0n
1~
0Q
0!!
1:!
0o
1!!
#190001
1$#
1##
1"#
1!#
1~"
1}"
1|"
1{"
1(!
1f
1g
1?!
1e
1{
1k
1j
1h
1[!
1l
#200000
0!
0M
0N
12
0R
1"!
0S
1#!
0H
#210000
1!
1M
1N
02
06"
18"
09"
1$!
0T
1.!
1r
1b
1a
1H
1\
0U
0.
10
01
0~
1V
0!!
#220000
0!
0M
0N
12
1W
0_
1c
1s
0"!
11!
0'!
0b
0`
0.!
1d
0("
0""
0}!
1@!
0:!
16!
1L
0F
1D
1C
0#!
0~!
0{!
1I!
02!
0H!
1B!
08!
1A!
1<!
17!
0J!
1F!
0I!
0B!
0;!
18!
1O!
1K!
1G!
1J!
0F!
0<!
0\!
1P!
1L!
0O!
0K!
0G!
1]!
19
1\!
0P!
0L!
0;
1^!
0]!
09
1?
1;
0^!
0?
#230000
1!
1M
1N
02
1d"
1e"
1h"
1j"
0$!
1P
1c"
1f"
1g"
1X!
19
1R!
1P!
1<!
13!
0r
0V
0H
0\
1Q
1<
1^!
1K!
1G!
1B!
1Y!
1S!
1_!
1L!
#230001
0"#
0!#
0~"
0}"
0|"
0{"
0g
0?!
0e
0{
0k
0j
0h
0[!
0l
#240000
0!
0M
0N
12
1R
0W
0H"
1G"
0I"
1S
#250000
1!
1M
1N
02
1z"
1y"
1T
0P
0i
1t
0a
1U
1H
1!!
1u
1n
1~
0Q
0!!
0~
1o
1!!
0!!
1p
#250001
1"#
1!#
1~"
1}"
1|"
1{"
1g
1?!
1e
1{
1k
1j
1h
1[!
1l
#260000
0!
0M
0N
12
0R
1q
1A"
1@"
0S
0n
0#"
1`!
1U!
1T!
1M!
1C!
1=!
19!
14!
1)!
0O
0-!
0+!
0*!
1~
0o
1*!
1}
1K
1X
0,!
1!!
0p
0~
1o
0Y
0A
0!!
1p
1v
0Z
0w
0z
1x
0B
0y
#270000
1!
1M
1N
02
1S"
1T"
1U"
1V"
1W"
1X"
1Y"
1Z"
0T
1Z!
1V!
1N!
1E!
1D!
0@!
1>!
0D
1:!
06!
15!
0C
1=
0<
0^!
0:
0X!
09
1W!
0R!
0P!
0K!
0Q!
0G!
1H!
0B!
0A!
0<!
1;!
08!
07!
03!
1>
0_!
1<
0Y!
1X!
0S!
0L!
1R!
1I!
0C!
1B!
0=!
1<!
09!
18!
04!
1E
0`!
1_!
0U!
1Y!
0T!
0M!
1S!
0J!
1F!
1C!
1=!
19!
1c!
0e!
1@
1`!
1U!
1T!
1O!
1K!
1G!
1d!
1m!
1f!
0\!
1P!
1L!
1a!
0q!
1n!
1]!
19
1M!
1y!
1r!
0;
1^!
0z!
1?
#280000
0!
0M
0N
12
0A"
0)!
1O
0*!
#290000
1!
1M
1N
02
1R"
0Z"
1b!
05!
1C
1g!
0c!
0@
17!
13!
1h!
0d!
08!
14!
1i!
0a!
09!
1j!
#300000
0!
0M
0N
12
1A"
0@"
1)!
0O
1-!
1+!
1*!
0+!
0*!
0}
0K
0X
1,!
1X
0,!
1~
0o
1Y
1A
0Y
0A
1!!
0p
0v
1Z
1v
0Z
1w
1z
0w
0z
0x
1B
1x
0B
1y
0y
#310000
1!
1M
1N
02
1Q"
0R"
0Y"
1Z"
0k!
0h!
0f!
0b!
0:!
16!
15!
0C
1l!
0i!
0g!
1c!
1@
0;!
18!
07!
03!
1o!
0j!
1k!
1h!
1d!
0<!
19!
1;!
08!
04!
1p!
0l!
1i!
1a!
0=!
1<!
09!
0o!
1j!
1=!
0p!
#320000
0!
0M
0N
12
0q
1"!
0A"
0t
1n
1\
0U
0H
1#!
1#"
0j!
0a!
0`!
0U!
0T!
0M!
0C!
0=!
0)!
1O
0u
0~
1+!
1*!
0X
1,!
1Y
1A
0v
1Z
1w
1z
0x
1B
1y
#330000
1!
1M
1N
02
10"
0Q"
12"
0S"
13"
0T"
14"
0U"
15"
0V"
16"
0W"
17"
0X"
08"
19"
0Z"
1$!
0h!
1f!
0Z!
0V!
0N!
0E!
0D!
1@!
0>!
1D
05!
1C
1r
1a
1V
1H
1(
1*
1+
1,
1-
1.
1/
00
11
0i!
0<
1;
0^!
0X!
0]!
09
0R!
1\!
0P!
0O!
0K!
0G!
0B!
0<!
17!
13!
0!!
0_!
0?
0Y!
1^!
0S!
19
1P!
0L!
0;!
18!
1A!
1<!
0H!
1B!
0I!
1J!
0F!
1K!
1Q!
1G!
1L!
0W!
1R!
1:
1X!
1S!
0=
1<
1Y!
0>
1_!
0E
0c!
1e!
0@
0d!
0m!
0f!
1q!
0n!
0y!
0r!
1z!
#340000
0!
0M
0N
12
1W
0c
0s
0"!
0/!
1.!
0d
1D!
1>!
1:!
06!
15!
1G
0C
0#!
00!
1%!
1;!
08!
07!
03!
0A!
0<!
0:!
18!
05!
1H!
0B!
0>!
1:!
1I!
0D!
0J!
1F!
0K!
0Q!
0G!
0L!
1W!
0R!
0:
0X!
0S!
1=
0<
0Y!
1>
0_!
1E
1c!
0e!
1@
1d!
1m!
1f!
0q!
1n!
1y!
1r!
0z!
#350000
1!
1M
1N
02
0$!
1P
0.!
0%!
0r
0V
0H
0\
1Q
#350001
0##
0"#
0!#
0~"
0}"
0|"
0{"
0f
0g
0?!
0e
0{
0k
0j
0h
0[!
0l
#360000
0!
0M
0N
12
1R
0W
0G"
1S
#370000
1!
1M
1N
02
0y"
1T
0P
16!
1o
0a
1U
1H
1!!
08!
1~
0Q
0!!
0:!
1!!
#370001
0$#
1##
0(!
1f
#380000
0!
0M
0N
12
0R
1"!
0S
1#!
0H
#390000
1!
1M
1N
02
00"
11"
02"
03"
04"
05"
06"
07"
09"
1$!
0T
1.!
1%!
1r
1a
1H
0o
1\
0U
0(
1)
0*
0+
0,
0-
0.
0/
01
0~
1V
0!!
#400000
0!
0M
0N
12
1W
0"!
1&!
1/!
01!
0#!
1'!
1[
10!
0%!
1("
1""
1!"
1}!
1|!
1u!
1o!
1i!
1_!
1Y!
1S!
0I!
0@!
06!
12!
0L
1F
0E
0D
1C
1)"
1%"
0G
1J!
0F!
1B!
18!
0c!
1e!
0@
1<!
1&"
1K!
1Q!
1G!
1D!
1:!
0d!
0m!
0f!
1>!
1L!
0W!
1R!
1q!
0n!
0i!
1:
1X!
0y!
0r!
0o!
0=
1<
1z!
0u!
0>
1~!
1{!
0)"
0%"
0!"
0|!
0&"
#410000
1!
1M
1N
02
0d"
0e"
0h"
0j"
0$!
1P
0c"
0f"
0g"
0X!
09
0R!
0P!
0<!
17!
13!
0.!
0r
0[
0V
0H
0\
1Q
0<
0^!
0K!
0G!
0B!
0Y!
0S!
0>!
08!
15!
0_!
0L!
0D!
0:!
#410001
1"#
1g
1h
#420000
0!
0M
0N
12
1R
0W
1I"
1S
#430000
1!
1M
1N
02
0z"
1x"
1y"
1T
0P
0C
1D
16!
1o
0a
1U
1H
1!!
07!
03!
1A!
1<!
0;!
18!
1~
0Q
0!!
1;!
08!
05!
0H!
1B!
1>!
0<!
1:!
1!!
1<!
0:!
1I!
1D!
0>!
1>!
0J!
1F!
1O!
1K!
1G!
0\!
1P!
1L!
1]!
19
1S!
0;
1^!
1Y!
1?
1_!
1E
1c!
0e!
1@
1d!
1m!
1f!
0q!
1n!
1i!
1y!
1r!
1o!
0z!
1u!
0~!
0{!
1)"
1%"
1!"
1|!
1&"
#430001
1$#
1(!
#440000
0!
0M
0N
12
0R
1"!
0S
1#!
0H
#450000
1!
1M
1N
02
1*"
1+"
1,"
1-"
1."
1/"
10"
12"
13"
14"
15"
16"
17"
1$!
0T
1.!
1r
1a
1[
1H
0o
1\
0U
1"
1#
1$
1%
1&
1'
1(
1*
1+
1,
1-
1.
1/
0~
1V
0!!
#460000
0!
0M
0N
12
1W
1]
0"!
0&!
11!
00!
1`
1^
0#!
0'!
0[
0("
0""
0!"
0}!
0|!
0u!
0o!
0i!
0_!
0Y!
0S!
0I!
1@!
06!
02!
1L
0F
0E
0D
1C
0)"
0%"
1G
1J!
0F!
0B!
18!
17!
0c!
1e!
0@
0A!
0<!
0&"
0O!
0K!
0G!
0D!
1:!
08!
0d!
0m!
0f!
1B!
0>!
1\!
0P!
0L!
0:!
1q!
0n!
1D!
0]!
09
0y!
0r!
1;
0^!
1z!
0?
#470000
1!
1M
1N
02
1h"
1j"
0$!
1P
1<!
13!
0.!
0r
0^
0V
0H
0\
1Q
1>!
15!
#470001
0$#
0"#
0(!
0g
0h
#480000
0!
0M
0N
12
1R
0W
1H"
0I"
1S
#490000
1!
1M
1N
02
0x"
1T
0P
1D
1o
0a
1U
1H
1!!
0<!
1~
0Q
0!!
0>!
1!!
#500000
0!
0M
0N
12
0R
1"!
0S
1#!
0H
#510000
1!
1M
1N
02
0*"
0+"
0,"
0-"
0."
0/"
00"
01"
02"
03"
04"
05"
07"
19"
1$!
0T
1.!
1r
1a
1^
1H
0o
1\
0U
0"
0#
0$
0%
0&
0'
0(
0)
0*
0+
0,
0-
0/
11
0~
1V
0!!
