Turma2_2017020700_2017001212_2017005113/SISTEMA_FINAL/simulation/qsim/SISTEMA_FINAL.msim.vcd
$comment
	File created using the following command:
		vcd file SISTEMA_FINAL.msim.vcd -direction
$end
$date
	Mon Jul 02 15:12:42 2018
$end
$version
	ModelSim Version 10.1d
$end
$timescale
	1ps
$end
$scope module SISTEMA_FINAL_vlg_vec_tst $end
$var reg 1 ! clk $end
$var wire 1 " saida [15] $end
$var wire 1 # saida [14] $end
$var wire 1 $ saida [13] $end
$var wire 1 % saida [12] $end
$var wire 1 & saida [11] $end
$var wire 1 ' saida [10] $end
$var wire 1 ( saida [9] $end
$var wire 1 ) saida [8] $end
$var wire 1 * saida [7] $end
$var wire 1 + saida [6] $end
$var wire 1 , saida [5] $end
$var wire 1 - saida [4] $end
$var wire 1 . saida [3] $end
$var wire 1 / saida [2] $end
$var wire 1 0 saida [1] $end
$var wire 1 1 saida [0] $end
$var wire 1 2 saidaResto [15] $end
$var wire 1 3 saidaResto [14] $end
$var wire 1 4 saidaResto [13] $end
$var wire 1 5 saidaResto [12] $end
$var wire 1 6 saidaResto [11] $end
$var wire 1 7 saidaResto [10] $end
$var wire 1 8 saidaResto [9] $end
$var wire 1 9 saidaResto [8] $end
$var wire 1 : saidaResto [7] $end
$var wire 1 ; saidaResto [6] $end
$var wire 1 < saidaResto [5] $end
$var wire 1 = saidaResto [4] $end
$var wire 1 > saidaResto [3] $end
$var wire 1 ? saidaResto [2] $end
$var wire 1 @ saidaResto [1] $end
$var wire 1 A saidaResto [0] $end
$var wire 1 B sampler $end
$scope module i1 $end
$var wire 1 C gnd $end
$var wire 1 D vcc $end
$var wire 1 E unknown $end
$var tri1 1 F devclrn $end
$var tri1 1 G devpor $end
$var tri1 1 H devoe $end
$var wire 1 I alu|alu1|Add2~10_combout $end
$var wire 1 J alu|alu1|Add2~15 $end
$var wire 1 K alu|alu1|Add2~16_combout $end
$var wire 1 L controle|LessThan2~1_cout $end
$var wire 1 M controle|LessThan2~3_cout $end
$var wire 1 N controle|LessThan2~5_cout $end
$var wire 1 O controle|LessThan2~7_cout $end
$var wire 1 P controle|LessThan2~9_cout $end
$var wire 1 Q controle|LessThan2~11_cout $end
$var wire 1 R controle|LessThan2~13_cout $end
$var wire 1 S controle|LessThan2~14_combout $end
$var wire 1 T controle|Add0~8_combout $end
$var wire 1 U controle|Add0~12_combout $end
$var wire 1 V SaidaMuxM[5]~5_combout $end
$var wire 1 W alu|alu2|Add0~0_combout $end
$var wire 1 X SaidaMuxD[9]~9_combout $end
$var wire 1 Y SaidaMuxD[10]~10_combout $end
$var wire 1 Z alu|alu2|Add0~11_combout $end
$var wire 1 [ SaidaMuxD[12]~12_combout $end
$var wire 1 \ alu|alu2|Add0~17_combout $end
$var wire 1 ] alu|alu2|Add0~20_combout $end
$var wire 1 ^ controle|Equal1~1_combout $end
$var wire 1 _ controle|EnC~0_combout $end
$var wire 1 ` controle|EnC~1_combout $end
$var wire 1 a antiloop|saidaA~45_combout $end
$var wire 1 b antiloop|saidaA~46_combout $end
$var wire 1 c clk~combout $end
$var wire 1 d clk~clkctrl_outclk $end
$var wire 1 e rega|FimA~regout $end
$var wire 1 f controle|state~13_combout $end
$var wire 1 g controle|SELM~0_combout $end
$var wire 1 h controle|DIV~regout $end
$var wire 1 i controle|EnB~0_combout $end
$var wire 1 j controle|EnResto~0_combout $end
$var wire 1 k controle|Endereco~2_combout $end
$var wire 1 l controle|Endereco[2]~1_combout $end
$var wire 1 m rom|temp_rtl_0|auto_generated|ram_block1a0~portadataout $end
$var wire 1 n rom|temp_rtl_0|auto_generated|ram_block1a3 $end
$var wire 1 o controle|Equal1~0_combout $end
$var wire 1 p rom|temp_rtl_0|auto_generated|ram_block1a7 $end
$var wire 1 q rom|temp_rtl_0|auto_generated|ram_block1a5 $end
$var wire 1 r rom|temp_rtl_0|auto_generated|ram_block1a4 $end
$var wire 1 s rom|temp_rtl_0|auto_generated|ram_block1a2 $end
$var wire 1 t controle|LessThan1~1_cout $end
$var wire 1 u controle|LessThan1~3_cout $end
$var wire 1 v controle|LessThan1~5_cout $end
$var wire 1 w controle|LessThan1~7_cout $end
$var wire 1 x controle|LessThan1~9_cout $end
$var wire 1 y controle|LessThan1~11_cout $end
$var wire 1 z controle|LessThan1~13_cout $end
$var wire 1 { controle|LessThan1~14_combout $end
$var wire 1 | controle|multp~4_combout $end
$var wire 1 } controle|EnResto~1_combout $end
$var wire 1 ~ antiloop|saidaA~39_combout $end
$var wire 1 !! SaidaMuxM[7]~7_combout $end
$var wire 1 "! controle|Op~feeder_combout $end
$var wire 1 #! controle|Op~regout $end
$var wire 1 $! controle|Add0~0_combout $end
$var wire 1 %! controle|contador[0]~0_combout $end
$var wire 1 &! controle|contador~8_combout $end
$var wire 1 '! controle|Equal0~1_combout $end
$var wire 1 (! controle|Equal0~0_combout $end
$var wire 1 )! controle|Equal0~2_combout $end
$var wire 1 *! controle|SELD~2_combout $end
$var wire 1 +! controle|SELD~3_combout $end
$var wire 1 ,! controle|SELD~regout $end
$var wire 1 -! SaidaMuxD[8]~8_combout $end
$var wire 1 .! alu|alu1|Add0~15 $end
$var wire 1 /! alu|alu1|Add0~16_combout $end
$var wire 1 0! alu|alu1|Add2~18_combout $end
$var wire 1 1! alu|alu2|Add0~2_cout $end
$var wire 1 2! alu|alu2|Add0~3_combout $end
$var wire 1 3! antiloop|saidaA~41_combout $end
$var wire 1 4! alu|alu2|Add0~5_combout $end
$var wire 1 5! alu|alu2|Add0~4 $end
$var wire 1 6! alu|alu2|Add0~6_combout $end
$var wire 1 7! antiloop|saidaA~42_combout $end
$var wire 1 8! alu|alu2|Add0~8_combout $end
$var wire 1 9! alu|alu2|Add0~7 $end
$var wire 1 :! alu|alu2|Add0~9_combout $end
$var wire 1 ;! controle|LessThan3~0_combout $end
$var wire 1 <! antiloop|saidaA~44_combout $end
$var wire 1 =! alu|alu2|Add0~14_combout $end
$var wire 1 >! alu|alu2|Add0~10 $end
$var wire 1 ?! alu|alu2|Add0~12_combout $end
$var wire 1 @! SaidaMuxD[11]~11_combout $end
$var wire 1 A! alu|alu2|Add0~13 $end
$var wire 1 B! alu|alu2|Add0~15_combout $end
$var wire 1 C! SaidaMuxD[14]~14_combout $end
$var wire 1 D! alu|alu2|Add0~16 $end
$var wire 1 E! alu|alu2|Add0~18_combout $end
$var wire 1 F! SaidaMuxD[13]~13_combout $end
$var wire 1 G! alu|alu2|Add0~19 $end
$var wire 1 H! alu|alu2|Add0~21_combout $end
$var wire 1 I! antiloop|saidaA~47_combout $end
$var wire 1 J! alu|alu2|Add0~23_combout $end
$var wire 1 K! SaidaMuxD[15]~15_combout $end
$var wire 1 L! alu|alu2|Add0~22 $end
$var wire 1 M! alu|alu2|Add0~24_combout $end
$var wire 1 N! controle|LessThan3~1_combout $end
$var wire 1 O! controle|always1~1_combout $end
$var wire 1 P! controle|Add1~0_combout $end
$var wire 1 Q! controle|contador~9_combout $end
$var wire 1 R! controle|contador~10_combout $end
$var wire 1 S! controle|contador~11_combout $end
$var wire 1 T! controle|contador[0]~12_combout $end
$var wire 1 U! controle|contador[0]~13_combout $end
$var wire 1 V! antiloop|saidaA~38_combout $end
$var wire 1 W! SaidaMuxM[6]~6_combout $end
$var wire 1 X! SaidaMuxD[4]~4_combout $end
$var wire 1 Y! antiloop|saidaA~35_combout $end
$var wire 1 Z! SaidaMuxM[3]~3_combout $end
$var wire 1 [! antiloop|saidaA~34_combout $end
$var wire 1 \! SaidaMuxM[2]~2_combout $end
$var wire 1 ]! SaidaMuxD[1]~1_combout $end
$var wire 1 ^! SaidaMuxM[0]~0_combout $end
$var wire 1 _! alu|alu1|Add2~0_combout $end
$var wire 1 `! alu|alu1|Add0~0_combout $end
$var wire 1 a! regResto|saidaResto[0]~0_combout $end
$var wire 1 b! SaidaMuxD[0]~0_combout $end
$var wire 1 c! alu|alu1|Add0~1 $end
$var wire 1 d! alu|alu1|Add0~2_combout $end
$var wire 1 e! alu|alu1|Add2~1 $end
$var wire 1 f! alu|alu1|Add2~2_combout $end
$var wire 1 g! regResto|saidaResto[1]~1_combout $end
$var wire 1 h! antiloop|saidaA~33_combout $end
$var wire 1 i! SaidaMuxM[1]~1_combout $end
$var wire 1 j! alu|alu1|Add2~3 $end
$var wire 1 k! alu|alu1|Add2~4_combout $end
$var wire 1 l! alu|alu1|Add0~3 $end
$var wire 1 m! alu|alu1|Add0~4_combout $end
$var wire 1 n! regResto|saidaResto[2]~2_combout $end
$var wire 1 o! SaidaMuxD[2]~2_combout $end
$var wire 1 p! alu|alu1|Add0~5 $end
$var wire 1 q! alu|alu1|Add0~6_combout $end
$var wire 1 r! alu|alu1|Add2~5 $end
$var wire 1 s! alu|alu1|Add2~6_combout $end
$var wire 1 t! regResto|saidaResto[3]~3_combout $end
$var wire 1 u! SaidaMuxD[3]~3_combout $end
$var wire 1 v! alu|alu1|Add2~7 $end
$var wire 1 w! alu|alu1|Add2~8_combout $end
$var wire 1 x! alu|alu1|Add0~7 $end
$var wire 1 y! alu|alu1|Add0~8_combout $end
$var wire 1 z! regResto|saidaResto[4]~4_combout $end
$var wire 1 {! antiloop|saidaA~36_combout $end
$var wire 1 |! SaidaMuxM[4]~4_combout $end
$var wire 1 }! alu|alu1|Add0~9 $end
$var wire 1 ~! alu|alu1|Add0~10_combout $end
$var wire 1 !" regResto|saidaResto[5]~5_combout $end
$var wire 1 "" SaidaMuxD[5]~5_combout $end
$var wire 1 #" alu|alu1|Add2~9 $end
$var wire 1 $" alu|alu1|Add2~11 $end
$var wire 1 %" alu|alu1|Add2~12_combout $end
$var wire 1 &" alu|alu1|Add0~11 $end
$var wire 1 '" alu|alu1|Add0~12_combout $end
$var wire 1 (" regResto|saidaResto[6]~6_combout $end
$var wire 1 )" SaidaMuxD[6]~6_combout $end
$var wire 1 *" alu|alu1|Add0~13 $end
$var wire 1 +" alu|alu1|Add0~14_combout $end
$var wire 1 ," SaidaMuxD[7]~7_combout $end
$var wire 1 -" alu|alu1|Add2~13 $end
$var wire 1 ." alu|alu1|Add2~14_combout $end
$var wire 1 /" regResto|saidaResto[7]~7_combout $end
$var wire 1 0" controle|LessThan3~3_cout $end
$var wire 1 1" controle|LessThan3~5_cout $end
$var wire 1 2" controle|LessThan3~7_cout $end
$var wire 1 3" controle|LessThan3~9_cout $end
$var wire 1 4" controle|LessThan3~11_cout $end
$var wire 1 5" controle|LessThan3~13_cout $end
$var wire 1 6" controle|LessThan3~15_cout $end
$var wire 1 7" controle|LessThan3~16_combout $end
$var wire 1 8" controle|LessThan3~18_combout $end
$var wire 1 9" controle|EnResto~2_combout $end
$var wire 1 :" controle|EnResto~3_combout $end
$var wire 1 ;" controle|EnResto~regout $end
$var wire 1 <" controle|resetResto~0_combout $end
$var wire 1 =" controle|resetResto~2_combout $end
$var wire 1 >" controle|resetResto~regout $end
$var wire 1 ?" regResto|FimResto~0_combout $end
$var wire 1 @" regResto|FimResto~regout $end
$var wire 1 A" controle|SELM~1_combout $end
$var wire 1 B" controle|state.s4~regout $end
$var wire 1 C" controle|state~11_combout $end
$var wire 1 D" controle|state.s1~regout $end
$var wire 1 E" controle|Endereco~0_combout $end
$var wire 1 F" controle|Endereco[1]~3_combout $end
$var wire 1 G" rom|temp_rtl_0|auto_generated|ram_block1a1 $end
$var wire 1 H" controle|Add0~1 $end
$var wire 1 I" controle|Add0~2_combout $end
$var wire 1 J" controle|contador[1]~1_combout $end
$var wire 1 K" controle|Add1~1 $end
$var wire 1 L" controle|Add1~2_combout $end
$var wire 1 M" controle|contador~14_combout $end
$var wire 1 N" controle|contador~15_combout $end
$var wire 1 O" controle|contador[4]~4_combout $end
$var wire 1 P" controle|Add0~3 $end
$var wire 1 Q" controle|Add0~5 $end
$var wire 1 R" controle|Add0~6_combout $end
$var wire 1 S" controle|contador[3]~3_combout $end
$var wire 1 T" controle|Add1~3 $end
$var wire 1 U" controle|Add1~5 $end
$var wire 1 V" controle|Add1~6_combout $end
$var wire 1 W" controle|contador[4]~16_combout $end
$var wire 1 X" controle|contador[2]~17_combout $end
$var wire 1 Y" controle|contador[2]~18_combout $end
$var wire 1 Z" controle|contador[2]~19_combout $end
$var wire 1 [" controle|Add1~7 $end
$var wire 1 \" controle|Add1~8_combout $end
$var wire 1 ]" antiloop|Equal0~0_combout $end
$var wire 1 ^" controle|Add0~7 $end
$var wire 1 _" controle|Add0~9 $end
$var wire 1 `" controle|Add0~10_combout $end
$var wire 1 a" controle|contador[5]~5_combout $end
$var wire 1 b" controle|Add1~9 $end
$var wire 1 c" controle|Add1~10_combout $end
$var wire 1 d" antiloop|Equal0~2_combout $end
$var wire 1 e" controle|EnB~1_combout $end
$var wire 1 f" controle|EnB~2_combout $end
$var wire 1 g" controle|EnB~3_combout $end
$var wire 1 h" controle|EnB~regout $end
$var wire 1 i" regb|FimA~feeder_combout $end
$var wire 1 j" regb|FimA~regout $end
$var wire 1 k" controle|always1~0_combout $end
$var wire 1 l" controle|EnC~2_combout $end
$var wire 1 m" controle|EnC~feeder_combout $end
$var wire 1 n" controle|EnC~regout $end
$var wire 1 o" regc|FimC~feeder_combout $end
$var wire 1 p" regc|FimC~regout $end
$var wire 1 q" controle|state~12_combout $end
$var wire 1 r" controle|state.s2~regout $end
$var wire 1 s" controle|state~10_combout $end
$var wire 1 t" controle|state.s3~regout $end
$var wire 1 u" controle|SELM~regout $end
$var wire 1 v" controle|multp~9_combout $end
$var wire 1 w" controle|multp~5_combout $end
$var wire 1 x" controle|multp~8_combout $end
$var wire 1 y" controle|multp~6_combout $end
$var wire 1 z" controle|multp~7_combout $end
$var wire 1 {" controle|multp~regout $end
$var wire 1 |" controle|resetResto~1_combout $end
$var wire 1 }" controle|EnA~0_combout $end
$var wire 1 ~" controle|EnA~regout $end
$var wire 1 !# rom|temp_rtl_0|auto_generated|ram_block1a6 $end
$var wire 1 "# controle|contador[6]~6_combout $end
$var wire 1 ## controle|Add1~11 $end
$var wire 1 $# controle|Add1~12_combout $end
$var wire 1 %# controle|Add0~11 $end
$var wire 1 &# controle|Add0~13 $end
$var wire 1 '# controle|Add0~14_combout $end
$var wire 1 (# controle|contador[7]~7_combout $end
$var wire 1 )# controle|Add1~13 $end
$var wire 1 *# controle|Add1~14_combout $end
$var wire 1 +# antiloop|Equal0~1_combout $end
$var wire 1 ,# antiloop|saidaA~32_combout $end
$var wire 1 -# resultado[0]~0_combout $end
$var wire 1 .# resultado[1]~1_combout $end
$var wire 1 /# resultado[2]~2_combout $end
$var wire 1 0# controle|Add0~4_combout $end
$var wire 1 1# controle|contador[2]~2_combout $end
$var wire 1 2# controle|Add1~4_combout $end
$var wire 1 3# resultado[3]~3_combout $end
$var wire 1 4# resultado[4]~4_combout $end
$var wire 1 5# antiloop|saidaA~37_combout $end
$var wire 1 6# resultado[5]~5_combout $end
$var wire 1 7# resultado[6]~6_combout $end
$var wire 1 8# resultado[7]~7_combout $end
$var wire 1 9# antiloop|saidaA~40_combout $end
$var wire 1 :# resultado[8]~8_combout $end
$var wire 1 ;# resultado[9]~9_combout $end
$var wire 1 <# resultado[10]~10_combout $end
$var wire 1 =# antiloop|saidaA~43_combout $end
$var wire 1 ># resultado[11]~11_combout $end
$var wire 1 ?# resultado[12]~12_combout $end
$var wire 1 @# resultado[13]~13_combout $end
$var wire 1 A# resultado[14]~14_combout $end
$var wire 1 B# resultado[15]~15_combout $end
$var wire 1 C# regResto|saidaResto[0]~feeder_combout $end
$var wire 1 D# controle|menor~0_combout $end
$var wire 1 E# controle|menor~1_combout $end
$var wire 1 F# controle|menor~regout $end
$var wire 1 G# regResto|saidaResto[7]~8_combout $end
$var wire 1 H# regResto|saidaResto[1]~feeder_combout $end
$var wire 1 I# regResto|saidaResto[2]~feeder_combout $end
$var wire 1 J# regResto|saidaResto[3]~feeder_combout $end
$var wire 1 K# regResto|saidaResto[6]~feeder_combout $end
$var wire 1 L# controle|contador [7] $end
$var wire 1 M# controle|contador [6] $end
$var wire 1 N# controle|contador [5] $end
$var wire 1 O# controle|contador [4] $end
$var wire 1 P# controle|contador [3] $end
$var wire 1 Q# controle|contador [2] $end
$var wire 1 R# controle|contador [1] $end
$var wire 1 S# controle|contador [0] $end
$var wire 1 T# regc|saidaC [15] $end
$var wire 1 U# regc|saidaC [14] $end
$var wire 1 V# regc|saidaC [13] $end
$var wire 1 W# regc|saidaC [12] $end
$var wire 1 X# regc|saidaC [11] $end
$var wire 1 Y# regc|saidaC [10] $end
$var wire 1 Z# regc|saidaC [9] $end
$var wire 1 [# regc|saidaC [8] $end
$var wire 1 \# regc|saidaC [7] $end
$var wire 1 ]# regc|saidaC [6] $end
$var wire 1 ^# regc|saidaC [5] $end
$var wire 1 _# regc|saidaC [4] $end
$var wire 1 `# regc|saidaC [3] $end
$var wire 1 a# regc|saidaC [2] $end
$var wire 1 b# regc|saidaC [1] $end
$var wire 1 c# regc|saidaC [0] $end
$var wire 1 d# controle|Endereco [8] $end
$var wire 1 e# controle|Endereco [7] $end
$var wire 1 f# controle|Endereco [6] $end
$var wire 1 g# controle|Endereco [5] $end
$var wire 1 h# controle|Endereco [4] $end
$var wire 1 i# controle|Endereco [3] $end
$var wire 1 j# controle|Endereco [2] $end
$var wire 1 k# controle|Endereco [1] $end
$var wire 1 l# controle|Endereco [0] $end
$var wire 1 m# regb|saidaA [15] $end
$var wire 1 n# regb|saidaA [14] $end
$var wire 1 o# regb|saidaA [13] $end
$var wire 1 p# regb|saidaA [12] $end
$var wire 1 q# regb|saidaA [11] $end
$var wire 1 r# regb|saidaA [10] $end
$var wire 1 s# regb|saidaA [9] $end
$var wire 1 t# regb|saidaA [8] $end
$var wire 1 u# regb|saidaA [7] $end
$var wire 1 v# regb|saidaA [6] $end
$var wire 1 w# regb|saidaA [5] $end
$var wire 1 x# regb|saidaA [4] $end
$var wire 1 y# regb|saidaA [3] $end
$var wire 1 z# regb|saidaA [2] $end
$var wire 1 {# regb|saidaA [1] $end
$var wire 1 |# regb|saidaA [0] $end
$var wire 1 }# regResto|saidaResto [15] $end
$var wire 1 ~# regResto|saidaResto [14] $end
$var wire 1 !$ regResto|saidaResto [13] $end
$var wire 1 "$ regResto|saidaResto [12] $end
$var wire 1 #$ regResto|saidaResto [11] $end
$var wire 1 $$ regResto|saidaResto [10] $end
$var wire 1 %$ regResto|saidaResto [9] $end
$var wire 1 &$ regResto|saidaResto [8] $end
$var wire 1 '$ regResto|saidaResto [7] $end
$var wire 1 ($ regResto|saidaResto [6] $end
$var wire 1 )$ regResto|saidaResto [5] $end
$var wire 1 *$ regResto|saidaResto [4] $end
$var wire 1 +$ regResto|saidaResto [3] $end
$var wire 1 ,$ regResto|saidaResto [2] $end
$var wire 1 -$ regResto|saidaResto [1] $end
$var wire 1 .$ regResto|saidaResto [0] $end
$var wire 1 /$ antiloopd|saidaA [15] $end
$var wire 1 0$ antiloopd|saidaA [14] $end
$var wire 1 1$ antiloopd|saidaA [13] $end
$var wire 1 2$ antiloopd|saidaA [12] $end
$var wire 1 3$ antiloopd|saidaA [11] $end
$var wire 1 4$ antiloopd|saidaA [10] $end
$var wire 1 5$ antiloopd|saidaA [9] $end
$var wire 1 6$ antiloopd|saidaA [8] $end
$var wire 1 7$ antiloopd|saidaA [7] $end
$var wire 1 8$ antiloopd|saidaA [6] $end
$var wire 1 9$ antiloopd|saidaA [5] $end
$var wire 1 :$ antiloopd|saidaA [4] $end
$var wire 1 ;$ antiloopd|saidaA [3] $end
$var wire 1 <$ antiloopd|saidaA [2] $end
$var wire 1 =$ antiloopd|saidaA [1] $end
$var wire 1 >$ antiloopd|saidaA [0] $end
$var wire 1 ?$ rega|saidaA [15] $end
$var wire 1 @$ rega|saidaA [14] $end
$var wire 1 A$ rega|saidaA [13] $end
$var wire 1 B$ rega|saidaA [12] $end
$var wire 1 C$ rega|saidaA [11] $end
$var wire 1 D$ rega|saidaA [10] $end
$var wire 1 E$ rega|saidaA [9] $end
$var wire 1 F$ rega|saidaA [8] $end
$var wire 1 G$ rega|saidaA [7] $end
$var wire 1 H$ rega|saidaA [6] $end
$var wire 1 I$ rega|saidaA [5] $end
$var wire 1 J$ rega|saidaA [4] $end
$var wire 1 K$ rega|saidaA [3] $end
$var wire 1 L$ rega|saidaA [2] $end
$var wire 1 M$ rega|saidaA [1] $end
$var wire 1 N$ rega|saidaA [0] $end
$var wire 1 O$ antiloop|saidaA [15] $end
$var wire 1 P$ antiloop|saidaA [14] $end
$var wire 1 Q$ antiloop|saidaA [13] $end
$var wire 1 R$ antiloop|saidaA [12] $end
$var wire 1 S$ antiloop|saidaA [11] $end
$var wire 1 T$ antiloop|saidaA [10] $end
$var wire 1 U$ antiloop|saidaA [9] $end
$var wire 1 V$ antiloop|saidaA [8] $end
$var wire 1 W$ antiloop|saidaA [7] $end
$var wire 1 X$ antiloop|saidaA [6] $end
$var wire 1 Y$ antiloop|saidaA [5] $end
$var wire 1 Z$ antiloop|saidaA [4] $end
$var wire 1 [$ antiloop|saidaA [3] $end
$var wire 1 \$ antiloop|saidaA [2] $end
$var wire 1 ]$ antiloop|saidaA [1] $end
$var wire 1 ^$ antiloop|saidaA [0] $end
$var wire 1 _$ rom|temp_rtl_0|auto_generated|ram_block1a0_PORTADATAOUT_bus [7] $end
$var wire 1 `$ rom|temp_rtl_0|auto_generated|ram_block1a0_PORTADATAOUT_bus [6] $end
$var wire 1 a$ rom|temp_rtl_0|auto_generated|ram_block1a0_PORTADATAOUT_bus [5] $end
$var wire 1 b$ rom|temp_rtl_0|auto_generated|ram_block1a0_PORTADATAOUT_bus [4] $end
$var wire 1 c$ rom|temp_rtl_0|auto_generated|ram_block1a0_PORTADATAOUT_bus [3] $end
$var wire 1 d$ rom|temp_rtl_0|auto_generated|ram_block1a0_PORTADATAOUT_bus [2] $end
$var wire 1 e$ rom|temp_rtl_0|auto_generated|ram_block1a0_PORTADATAOUT_bus [1] $end
$var wire 1 f$ rom|temp_rtl_0|auto_generated|ram_block1a0_PORTADATAOUT_bus [0] $end
$upscope $end
$upscope $end
$enddefinitions $end
#0
$dumpvars
0!
01
00
0/
0.
0-
0,
0+
0*
0)
0(
0'
0&
0%
0$
0#
0"
0A
0@
0?
0>
0=
0<
0;
0:
09
08
07
06
05
04
03
02
xB
0C
1D
xE
1F
1G
1H
0I
0J
1K
0L
1M
0N
1O
0P
1Q
0R
0S
1T
1U
0V
1W
0X
0Y
1Z
0[
1\
1]
1^
0_
1`
0a
0b
0c
0d
0e
0f
0g
0h
0i
0j
0k
0l
0m
0n
1o
0p
0q
0r
0s
0t
1u
0v
1w
0x
1y
0z
0{
0|
0}
0~
0!!
1"!
0#!
1$!
0%!
0&!
1'!
1(!
1)!
0*!
0+!
0,!
0-!
1.!
0/!
10!
11!
02!
03!
14!
05!
06!
07!
18!
19!
0:!
1;!
0<!
1=!
0>!
0?!
0@!
1A!
0B!
0C!
0D!
0E!
0F!
1G!
0H!
0I!
1J!
0K!
0L!
0M!
1N!
1O!
1P!
0Q!
0R!
0S!
0T!
0U!
0V!
0W!
0X!
0Y!
0Z!
0[!
0\!
0]!
0^!
0_!
0`!
0a!
0b!
0c!
0d!
1e!
0f!
0g!
0h!
0i!
0j!
0k!
1l!
0m!
0n!
0o!
0p!
0q!
1r!
0s!
0t!
0u!
0v!
0w!
1x!
0y!
0z!
0{!
0|!
0}!
0~!
0!"
0""
1#"
0$"
0%"
1&"
0'"
0("
0)"
0*"
0+"
0,"
1-"
0."
0/"
00"
11"
02"
13"
04"
15"
06"
07"
08"
19"
0:"
0;"
1<"
0="
0>"
0?"
0@"
1A"
0B"
0C"
0D"
1E"
0F"
0G"
0H"
1I"
0J"
0K"
0L"
0M"
0N"
0O"
1P"
0Q"
1R"
0S"
1T"
0U"
0V"
1W"
0X"
0Y"
0Z"
1["
0\"
1]"
1^"
0_"
1`"
0a"
0b"
0c"
1d"
0e"
0f"
0g"
0h"
0i"
0j"
0k"
1l"
1m"
0n"
0o"
0p"
0q"
0r"
0s"
0t"
0u"
1v"
0w"
0x"
0y"
0z"
0{"
0|"
0}"
0~"
0!#
0"#
1##
0$#
1%#
0&#
1'#
0(#
0)#
0*#
1+#
0,#
0-#
0.#
0/#
10#
01#
02#
03#
04#
05#
06#
07#
08#
09#
0:#
0;#
0<#
0=#
0>#
0?#
0@#
0A#
0B#
0C#
0D#
0E#
0F#
0G#
0H#
0I#
0J#
0K#
0S#
0R#
0Q#
0P#
0O#
0N#
0M#
0L#
0c#
0b#
0a#
0`#
0_#
0^#
0]#
0\#
0[#
0Z#
0Y#
0X#
0W#
0V#
0U#
0T#
zl#
0k#
0j#
zi#
zh#
zg#
zf#
ze#
zd#
0|#
0{#
0z#
0y#
0x#
0w#
0v#
0u#
zt#
zs#
zr#
zq#
zp#
zo#
zn#
zm#
0.$
0-$
0,$
0+$
0*$
0)$
0($
0'$
z&$
z%$
z$$
z#$
z"$
z!$
z~#
z}#
0>$
0=$
0<$
0;$
0:$
09$
08$
07$
06$
05$
04$
03$
02$
01$
00$
0/$
0N$
0M$
0L$
0K$
0J$
0I$
0H$
0G$
zF$
zE$
zD$
zC$
zB$
zA$
z@$
z?$
0^$
0]$
0\$
0[$
0Z$
0Y$
0X$
0W$
0V$
0U$
0T$
0S$
0R$
0Q$
0P$
0O$
0f$
0e$
0d$
0c$
0b$
0a$
0`$
0_$
$end
#3000
1!
1c
1d
0B
#3001
1e$
1b$
1a$
1G"
1r
1q
#6000
0!
0c
0d
1B
1n"
1o"
#9000
1!
1c
1d
0B
1p"
1|"
1q"
0l"
1C"
1g
1}"
1l
0m"
#12000
0!
0c
0d
1B
1#!
1D"
0n"
1r"
1~"
0J!
0=!
08!
04!
00!
0]
0\
0Z
0W
0q"
0E"
0o"
1s"
1M!
1D!
1B!
1>!
1:!
09!
16!
01!
1L!
1H!
0G!
1E!
0A!
1?!
15!
12!
1F"
0"!
1B#
0N!
0E!
1?#
0?!
1<#
0;!
0:!
1;#
02!
0M!
1A#
0H!
1@#
0B!
1>#
06!
1:#
0@#
1N!
0>#
1;!
0<#
0:#
0B#
0A#
0?#
0;#
#15000
1!
1c
1d
0B
0p"
1J$
1I$
1M$
1e
0|"
0s"
1l"
0C"
0g
1X!
0^
1""
1]!
0o
0}"
1g"
0A"
1m"
1y!
1w!
1&!
1|
1~!
1I
1f!
1d!
1z!
1!"
1g!
14#
1P
16#
0Q
1H#
1.#
0M
1R
1N
1S
0O
#15001
1f$
1c$
0b$
1m
1n
0r
#18000
0!
0c
0d
1B
1k#
1h"
0~"
1i"
#21000
1!
1c
1d
0B
1j"
1{#
1w#
19$
1=$
1:$
1y#
1|#
0e
1x"
1k"
1J"
1i!
0(!
1M
1a"
0'!
1V
1S"
03"
1Z!
0w
1O
10"
1^!
1%!
1t
0l
0g"
1="
0f!
0l!
0d!
0v"
0)!
0N
0&"
0~!
0I
1v!
1s!
1q!
01"
1`!
0e!
1_!
0u
0g!
1m!
1y"
1X"
1S!
0O!
1'"
0!"
0w!
1t!
12"
1a!
1j!
1f!
1v
0H#
0.#
1n!
1Y"
1N"
09"
0S!
1("
06#
05"
1Q
1J#
13#
1C#
1-#
00"
0r!
1k!
1I#
1/#
02"
1N
1K#
17#
0s!
13"
0O
#21001
0e$
0c$
0G"
0n
#24000
0!
0c
0d
1B
1>"
0h"
1n"
1G#
0i"
1o"
#27000
1!
1c
1d
0B
1]#
1_#
1`#
1a#
1c#
1p"
0j"
18$
09$
1;$
1<$
1>$
0=$
1|"
1s"
1C"
0x"
0k"
1A"
1+
1-
1.
1/
11
1}"
0="
1l
0y"
0l"
1g
0m"
#30000
0!
0c
0d
1B
0#!
0>"
0n"
0r"
1t"
1~"
0("
0z!
0t!
1g!
1J!
1=!
18!
14!
10!
1]
1\
1Z
1W
0G#
0o"
0s"
1k
1E"
1f
0K#
07#
16"
0R
04#
0J#
03#
03"
1O
1H#
1.#
11"
1M!
1B!
1:!
16!
11!
1H!
1E!
1?!
12!
0F"
1"!
17"
0S
14"
0P
1B#
0N!
1?#
1<#
0;!
1;#
05!
02!
1A#
1@#
1>#
1:#
19!
06!
0:#
0>!
0:!
0;#
1A!
0?!
0<#
0D!
0B!
0>#
1;!
1G!
0E!
0?#
0L!
0H!
0@#
0M!
0A#
0B#
1N!
18"
1O!
19"
0N"
1S!
#33000
1!
1c
1d
0B
0p"
08$
0;$
1=$
0:$
0J$
0M$
1N$
1e
0|"
1l"
0C"
0g
0f
0]!
0X!
1x
1b!
0t
0}"
1g"
0A"
1m"
0f!
1l!
1d!
0y!
0#"
1w!
0y
1c!
0`!
1e!
0_!
0g!
0m!
1z!
1$"
1I
1z
0l!
0d!
0a!
1f!
0H#
0.#
01"
14#
04"
1P
0-"
1%"
1!"
1{
1m!
1g!
0C#
0-#
10"
15"
0Q
1J
1."
1("
16#
0&!
0|
1H#
1.#
06"
1R
0K
1/"
1K#
17#
0S!
07"
1S
00!
18#
08"
0O!
01!
09"
15!
12!
09!
16!
1:#
0;!
1>!
1:!
1;#
0A!
1?!
1<#
1D!
1B!
1>#
0G!
1E!
1?#
0N!
1L!
1H!
1@#
1M!
1A#
1B#
#33001
1c$
1b$
0a$
1n
1r
0q
#36000
0!
0c
0d
1B
1j#
0k#
1h"
0~"
1i"
