Turma2_2017020700_2017001212_2017005113/SISTEMA_FINAL/simulation/qsim/SISTEMA_FINAL.msim.vcd
$comment
	File created using the following command:
		vcd file SISTEMA_FINAL.msim.vcd -direction
$end
$date
	Tue Jul 03 20:36:00 2018
$end
$version
	ModelSim Version 10.1d
$end
$timescale
	1ps
$end
$scope module SISTEMA_FINAL_vlg_vec_tst $end
$var reg 1 ! clk $end
$var reg 1 " reset $end
$var wire 1 # saida [15] $end
$var wire 1 $ saida [14] $end
$var wire 1 % saida [13] $end
$var wire 1 & saida [12] $end
$var wire 1 ' saida [11] $end
$var wire 1 ( saida [10] $end
$var wire 1 ) saida [9] $end
$var wire 1 * saida [8] $end
$var wire 1 + saida [7] $end
$var wire 1 , saida [6] $end
$var wire 1 - saida [5] $end
$var wire 1 . saida [4] $end
$var wire 1 / saida [3] $end
$var wire 1 0 saida [2] $end
$var wire 1 1 saida [1] $end
$var wire 1 2 saida [0] $end
$var wire 1 3 saidaResto [15] $end
$var wire 1 4 saidaResto [14] $end
$var wire 1 5 saidaResto [13] $end
$var wire 1 6 saidaResto [12] $end
$var wire 1 7 saidaResto [11] $end
$var wire 1 8 saidaResto [10] $end
$var wire 1 9 saidaResto [9] $end
$var wire 1 : saidaResto [8] $end
$var wire 1 ; saidaResto [7] $end
$var wire 1 < saidaResto [6] $end
$var wire 1 = saidaResto [5] $end
$var wire 1 > saidaResto [4] $end
$var wire 1 ? saidaResto [3] $end
$var wire 1 @ saidaResto [2] $end
$var wire 1 A saidaResto [1] $end
$var wire 1 B saidaResto [0] $end
$var wire 1 C sampler $end
$scope module i1 $end
$var wire 1 D gnd $end
$var wire 1 E vcc $end
$var wire 1 F unknown $end
$var tri1 1 G devclrn $end
$var tri1 1 H devpor $end
$var tri1 1 I devoe $end
$var wire 1 J controle|Add0~1_combout $end
$var wire 1 K controle|Add1~2_combout $end
$var wire 1 L controle|Add0~14_combout $end
$var wire 1 M controle|Add0~16_combout $end
$var wire 1 N controle|Add0~18_combout $end
$var wire 1 O SaidaMuxD[1]~1_combout $end
$var wire 1 P SaidaMuxM[3]~3_combout $end
$var wire 1 Q SaidaMuxD[4]~4_combout $end
$var wire 1 R SaidaMuxD[5]~5_combout $end
$var wire 1 S SaidaMuxM[7]~7_combout $end
$var wire 1 T SaidaMuxD[8]~8_combout $end
$var wire 1 U SaidaMuxD[9]~9_combout $end
$var wire 1 V alu|alu2|Add0~8_combout $end
$var wire 1 W alu|alu2|Add0~11_combout $end
$var wire 1 X SaidaMuxD[12]~12_combout $end
$var wire 1 Y alu|alu2|Add0~17_combout $end
$var wire 1 Z SaidaMuxD[14]~14_combout $end
$var wire 1 [ alu|alu2|Add0~23_combout $end
$var wire 1 \ controle|Equal1~1_combout $end
$var wire 1 ] controle|SELD~0_combout $end
$var wire 1 ^ controle|Add0~7_combout $end
$var wire 1 _ controle|EnC~0_combout $end
$var wire 1 ` controle|EnC~1_combout $end
$var wire 1 a antiloopm|saidaALM~19_combout $end
$var wire 1 b controle|EnResto~1_combout $end
$var wire 1 c controle|multp~3_combout $end
$var wire 1 d controle|multp~4_combout $end
$var wire 1 e antiloopm|saidaALM~29_combout $end
$var wire 1 f antiloopm|saidaALM~31_combout $end
$var wire 1 g controle|EnB~4_combout $end
$var wire 1 h clk~combout $end
$var wire 1 i clk~clkctrl_outclk $end
$var wire 1 j reset~combout $end
$var wire 1 k regc|FimC~0_combout $end
$var wire 1 l regc|FimC~regout $end
$var wire 1 m controle|state~13_combout $end
$var wire 1 n controle|DIV~0_combout $end
$var wire 1 o rega|FimA~0_combout $end
$var wire 1 p rega|FimA~regout $end
$var wire 1 q controle|SELM~0_combout $end
$var wire 1 r controle|SELM~regout $end
$var wire 1 s controle|Endereco~0_combout $end
$var wire 1 t controle|Endereco~1_combout $end
$var wire 1 u controle|Endereco[1]~2_combout $end
$var wire 1 v controle|Endereco~3_combout $end
$var wire 1 w rom|temp_rtl_0|auto_generated|ram_block1a1 $end
$var wire 1 x rega|saidaA~2_combout $end
$var wire 1 y rega|saidaA[1]~feeder_combout $end
$var wire 1 z controle|EnA~0_combout $end
$var wire 1 { ~GND~combout $end
$var wire 1 | controle|EnA~regout $end
$var wire 1 } rega|saidaA[7]~1_combout $end
$var wire 1 ~ rom|temp_rtl_0|auto_generated|ram_block1a3 $end
$var wire 1 !! rega|saidaA~4_combout $end
$var wire 1 "! rom|temp_rtl_0|auto_generated|ram_block1a2 $end
$var wire 1 #! rega|saidaA~3_combout $end
$var wire 1 $! rega|saidaA[2]~feeder_combout $end
$var wire 1 %! controle|Equal1~0_combout $end
$var wire 1 &! rom|temp_rtl_0|auto_generated|ram_block1a7 $end
$var wire 1 '! rega|saidaA~8_combout $end
$var wire 1 (! regb|saidaA[0]~0_combout $end
$var wire 1 )! rom|temp_rtl_0|auto_generated|ram_block1a6 $end
$var wire 1 *! rega|saidaA~7_combout $end
$var wire 1 +! rom|temp_rtl_0|auto_generated|ram_block1a5 $end
$var wire 1 ,! rega|saidaA~6_combout $end
$var wire 1 -! rom|temp_rtl_0|auto_generated|ram_block1a4 $end
$var wire 1 .! rega|saidaA~5_combout $end
$var wire 1 /! rom|temp_rtl_0|auto_generated|ram_block1a0~portadataout $end
$var wire 1 0! rega|saidaA~0_combout $end
$var wire 1 1! controle|LessThan1~1_cout $end
$var wire 1 2! controle|LessThan1~3_cout $end
$var wire 1 3! controle|LessThan1~5_cout $end
$var wire 1 4! controle|LessThan1~7_cout $end
$var wire 1 5! controle|LessThan1~9_cout $end
$var wire 1 6! controle|LessThan1~11_cout $end
$var wire 1 7! controle|LessThan1~13_cout $end
$var wire 1 8! controle|LessThan1~14_combout $end
$var wire 1 9! controle|multp~0_combout $end
$var wire 1 :! controle|Add0~0_combout $end
$var wire 1 ;! controle|multp~2_combout $end
$var wire 1 <! SaidaMuxD[15]~15_combout $end
$var wire 1 =! controle|contador[4]~2_combout $end
$var wire 1 >! controle|Add0~2 $end
$var wire 1 ?! controle|Add0~9 $end
$var wire 1 @! controle|Add0~10_combout $end
$var wire 1 A! controle|contador[2]~0_combout $end
$var wire 1 B! controle|contador~18_combout $end
$var wire 1 C! controle|Equal0~1_combout $end
$var wire 1 D! controle|Equal0~0_combout $end
$var wire 1 E! controle|contador~28_combout $end
$var wire 1 F! controle|Add0~8_combout $end
$var wire 1 G! controle|contador~19_combout $end
$var wire 1 H! controle|Equal0~2_combout $end
$var wire 1 I! controle|contador~12_combout $end
$var wire 1 J! antiloopm|saidaALM~25_combout $end
$var wire 1 K! alu|alu2|Add0~5_combout $end
$var wire 1 L! SaidaMuxM[0]~0_combout $end
$var wire 1 M! alu|alu1|Add2~1 $end
$var wire 1 N! alu|alu1|Add2~3_combout $end
$var wire 1 O! alu|alu1|Add2~0_combout $end
$var wire 1 P! alu|alu1|Add0~0_combout $end
$var wire 1 Q! alu|alu1|Add2~2_combout $end
$var wire 1 R! SaidaMuxD[0]~0_combout $end
$var wire 1 S! alu|alu1|Add0~1 $end
$var wire 1 T! alu|alu1|Add0~2_combout $end
$var wire 1 U! antiloopm|saidaALM~17_combout $end
$var wire 1 V! SaidaMuxM[1]~1_combout $end
$var wire 1 W! alu|alu1|Add2~4 $end
$var wire 1 X! alu|alu1|Add2~6_combout $end
$var wire 1 Y! alu|alu1|Add2~8_combout $end
$var wire 1 Z! SaidaMuxD[2]~2_combout $end
$var wire 1 [! alu|alu1|Add0~3 $end
$var wire 1 \! alu|alu1|Add0~4_combout $end
$var wire 1 ]! antiloopm|saidaALM~18_combout $end
$var wire 1 ^! SaidaMuxM[2]~2_combout $end
$var wire 1 _! alu|alu1|Add2~7 $end
$var wire 1 `! alu|alu1|Add2~9_combout $end
$var wire 1 a! alu|alu1|Add0~5 $end
$var wire 1 b! alu|alu1|Add0~6_combout $end
$var wire 1 c! alu|alu1|Add2~11_combout $end
$var wire 1 d! SaidaMuxD[3]~3_combout $end
$var wire 1 e! alu|alu1|Add2~10 $end
$var wire 1 f! alu|alu1|Add2~13 $end
$var wire 1 g! alu|alu1|Add2~15_combout $end
$var wire 1 h! alu|alu1|Add0~7 $end
$var wire 1 i! alu|alu1|Add0~9 $end
$var wire 1 j! alu|alu1|Add0~10_combout $end
$var wire 1 k! antiloopm|saidaALM~21_combout $end
$var wire 1 l! SaidaMuxM[5]~5_combout $end
$var wire 1 m! alu|alu1|Add2~16 $end
$var wire 1 n! alu|alu1|Add2~18_combout $end
$var wire 1 o! antiloopm|saidaALM~22_combout $end
$var wire 1 p! SaidaMuxM[6]~6_combout $end
$var wire 1 q! alu|alu1|Add2~19 $end
$var wire 1 r! alu|alu1|Add2~22 $end
$var wire 1 s! alu|alu1|Add2~24_combout $end
$var wire 1 t! alu|alu1|Add0~11 $end
$var wire 1 u! alu|alu1|Add0~12_combout $end
$var wire 1 v! alu|alu1|Add2~20_combout $end
$var wire 1 w! SaidaMuxD[6]~6_combout $end
$var wire 1 x! alu|alu1|Add0~13 $end
$var wire 1 y! alu|alu1|Add0~15 $end
$var wire 1 z! alu|alu1|Add0~16_combout $end
$var wire 1 {! alu|alu1|Add2~26_combout $end
$var wire 1 |! alu|alu2|Add0~2_cout $end
$var wire 1 }! alu|alu2|Add0~3_combout $end
$var wire 1 ~! antiloopm|saidaALM~24_combout $end
$var wire 1 !" alu|alu2|Add0~0_combout $end
$var wire 1 "" alu|alu2|Add0~4 $end
$var wire 1 #" alu|alu2|Add0~6_combout $end
$var wire 1 $" SaidaMuxD[11]~11_combout $end
$var wire 1 %" alu|alu2|Add0~7 $end
$var wire 1 &" alu|alu2|Add0~9_combout $end
$var wire 1 '" SaidaMuxD[10]~10_combout $end
$var wire 1 (" alu|alu2|Add0~10 $end
$var wire 1 )" alu|alu2|Add0~12_combout $end
$var wire 1 *" controle|LessThan3~17_combout $end
$var wire 1 +" controle|contador~13_combout $end
$var wire 1 ," controle|contador~14_combout $end
$var wire 1 -" controle|Add0~3_combout $end
$var wire 1 ." controle|Add0~4_combout $end
$var wire 1 /" controle|Add1~0_combout $end
$var wire 1 0" controle|Add0~5_combout $end
$var wire 1 1" controle|Add0~6_combout $end
$var wire 1 2" controle|contador~15_combout $end
$var wire 1 3" controle|contador~17_combout $end
$var wire 1 4" controle|Add0~11 $end
$var wire 1 5" controle|Add0~12_combout $end
$var wire 1 6" controle|contador[3]~1_combout $end
$var wire 1 7" controle|Add1~6_combout $end
$var wire 1 8" controle|contador[6]~22_combout $end
$var wire 1 9" controle|contador[6]~23_combout $end
$var wire 1 :" controle|contador~16_combout $end
$var wire 1 ;" controle|menor~0_combout $end
$var wire 1 <" controle|contador[6]~29_combout $end
$var wire 1 =" controle|contador[6]~24_combout $end
$var wire 1 >" controle|contador[6]~25_combout $end
$var wire 1 ?" controle|contador[6]~26_combout $end
$var wire 1 @" controle|contador[6]~27_combout $end
$var wire 1 A" antiloopm|Equal0~0_combout $end
$var wire 1 B" antiloopm|Equal0~2_combout $end
$var wire 1 C" antiloopm|saidaALM~20_combout $end
$var wire 1 D" SaidaMuxM[4]~4_combout $end
$var wire 1 E" alu|alu1|Add0~8_combout $end
$var wire 1 F" alu|alu1|Add2~12_combout $end
$var wire 1 G" alu|alu1|Add2~14_combout $end
$var wire 1 H" alu|alu1|Add2~5_combout $end
$var wire 1 I" controle|LessThan2~1_cout $end
$var wire 1 J" controle|LessThan2~3_cout $end
$var wire 1 K" controle|LessThan2~5_cout $end
$var wire 1 L" controle|LessThan2~7_cout $end
$var wire 1 M" controle|LessThan2~9_cout $end
$var wire 1 N" controle|LessThan2~11_cout $end
$var wire 1 O" controle|LessThan2~13_cout $end
$var wire 1 P" controle|LessThan2~14_combout $end
$var wire 1 Q" controle|always1~1_combout $end
$var wire 1 R" controle|contador~20_combout $end
$var wire 1 S" controle|contador~21_combout $end
$var wire 1 T" controle|Add1~1 $end
$var wire 1 U" controle|Add1~3 $end
$var wire 1 V" controle|Add1~4_combout $end
$var wire 1 W" controle|Add1~5 $end
$var wire 1 X" controle|Add1~7 $end
$var wire 1 Y" controle|Add1~8_combout $end
$var wire 1 Z" controle|Add0~13 $end
$var wire 1 [" controle|Add0~15 $end
$var wire 1 \" controle|Add0~17 $end
$var wire 1 ]" controle|Add0~19 $end
$var wire 1 ^" controle|Add0~20_combout $end
$var wire 1 _" controle|contador[7]~5_combout $end
$var wire 1 `" controle|contador[6]~4_combout $end
$var wire 1 a" controle|contador[5]~3_combout $end
$var wire 1 b" controle|Add1~9 $end
$var wire 1 c" controle|Add1~10_combout $end
$var wire 1 d" controle|Add1~11 $end
$var wire 1 e" controle|Add1~12_combout $end
$var wire 1 f" controle|Add1~13 $end
$var wire 1 g" controle|Add1~14_combout $end
$var wire 1 h" antiloopm|Equal0~1_combout $end
$var wire 1 i" alu|alu2|Add0~13 $end
$var wire 1 j" alu|alu2|Add0~15_combout $end
$var wire 1 k" antiloopm|saidaALM~28_combout $end
$var wire 1 l" alu|alu2|Add0~14_combout $end
$var wire 1 m" alu|alu2|Add0~16 $end
$var wire 1 n" alu|alu2|Add0~18_combout $end
$var wire 1 o" SaidaMuxD[13]~13_combout $end
$var wire 1 p" alu|alu2|Add0~19 $end
$var wire 1 q" alu|alu2|Add0~21_combout $end
$var wire 1 r" antiloopm|saidaALM~30_combout $end
$var wire 1 s" alu|alu2|Add0~20_combout $end
$var wire 1 t" alu|alu2|Add0~22 $end
$var wire 1 u" alu|alu2|Add0~24_combout $end
$var wire 1 v" controle|LessThan3~0_combout $end
$var wire 1 w" controle|LessThan3~18_combout $end
$var wire 1 x" controle|EnResto~2_combout $end
$var wire 1 y" controle|multp~5_combout $end
$var wire 1 z" controle|multp~1_combout $end
$var wire 1 {" controle|multp~regout $end
$var wire 1 |" controle|always1~0_combout $end
$var wire 1 }" controle|SELD~1_combout $end
$var wire 1 ~" controle|SELD~regout $end
$var wire 1 !# SaidaMuxD[7]~7_combout $end
$var wire 1 "# alu|alu1|Add2~21_combout $end
$var wire 1 ## alu|alu1|Add0~14_combout $end
$var wire 1 $# alu|alu1|Add2~23_combout $end
$var wire 1 %# alu|alu1|Add2~17_combout $end
$var wire 1 &# controle|LessThan3~2_cout $end
$var wire 1 '# controle|LessThan3~4_cout $end
$var wire 1 (# controle|LessThan3~6_cout $end
$var wire 1 )# controle|LessThan3~8_cout $end
$var wire 1 *# controle|LessThan3~10_cout $end
$var wire 1 +# controle|LessThan3~12_cout $end
$var wire 1 ,# controle|LessThan3~14_cout $end
$var wire 1 -# controle|LessThan3~15_combout $end
$var wire 1 .# controle|EnB~2_combout $end
$var wire 1 /# controle|EnB~3_combout $end
$var wire 1 0# controle|EnB~regout $end
$var wire 1 1# regb|FimA~0_combout $end
$var wire 1 2# regb|FimA~regout $end
$var wire 1 3# controle|Op~0_combout $end
$var wire 1 4# controle|SELM~1_combout $end
$var wire 1 5# controle|DIV~regout $end
$var wire 1 6# antiloopm|Equal0~3_combout $end
$var wire 1 7# controle|resetResto~0_combout $end
$var wire 1 8# controle|Op~1_combout $end
$var wire 1 9# controle|resetResto~1_combout $end
$var wire 1 :# controle|resetResto~regout $end
$var wire 1 ;# controle|EnResto~0_combout $end
$var wire 1 <# controle|EnResto~3_combout $end
$var wire 1 =# controle|EnResto~regout $end
$var wire 1 ># regResto|FimResto~0_combout $end
$var wire 1 ?# regResto|FimResto~regout $end
$var wire 1 @# controle|state~11_combout $end
$var wire 1 A# controle|state.s2~regout $end
$var wire 1 B# controle|state~10_combout $end
$var wire 1 C# controle|state.s3~regout $end
$var wire 1 D# controle|state~14_combout $end
$var wire 1 E# controle|state.s4~regout $end
$var wire 1 F# controle|state~12_combout $end
$var wire 1 G# controle|state.s1~regout $end
$var wire 1 H# controle|Op~2_combout $end
$var wire 1 I# controle|Op~regout $end
$var wire 1 J# antiloopm|saidaALM~16_combout $end
$var wire 1 K# regc|saidaC~0_combout $end
$var wire 1 L# controle|EnC~2_combout $end
$var wire 1 M# controle|EnC~3_combout $end
$var wire 1 N# controle|EnC~regout $end
$var wire 1 O# regc|saidaC[7]~1_combout $end
$var wire 1 P# regc|saidaC~2_combout $end
$var wire 1 Q# regc|saidaC~3_combout $end
$var wire 1 R# regc|saidaC~4_combout $end
$var wire 1 S# regc|saidaC~5_combout $end
$var wire 1 T# regc|saidaC~6_combout $end
$var wire 1 U# regc|saidaC~7_combout $end
$var wire 1 V# antiloopm|saidaALM~23_combout $end
$var wire 1 W# regc|saidaC~8_combout $end
$var wire 1 X# regc|saidaC~10_combout $end
$var wire 1 Y# regc|saidaC[15]~9_combout $end
$var wire 1 Z# regc|saidaC~11_combout $end
$var wire 1 [# antiloopm|saidaALM~26_combout $end
$var wire 1 \# regc|saidaC~12_combout $end
$var wire 1 ]# antiloopm|saidaALM~27_combout $end
$var wire 1 ^# regc|saidaC~13_combout $end
$var wire 1 _# regc|saidaC~14_combout $end
$var wire 1 `# regc|saidaC~15_combout $end
$var wire 1 a# regc|saidaC~16_combout $end
$var wire 1 b# regc|saidaC~17_combout $end
$var wire 1 c# regResto|saidaResto~0_combout $end
$var wire 1 d# regResto|saidaResto[6]~1_combout $end
$var wire 1 e# regResto|saidaResto~2_combout $end
$var wire 1 f# regResto|saidaResto~3_combout $end
$var wire 1 g# controle|menor~1_combout $end
$var wire 1 h# controle|menor~regout $end
$var wire 1 i# regResto|saidaResto~4_combout $end
$var wire 1 j# regResto|saidaResto~5_combout $end
$var wire 1 k# regResto|saidaResto~6_combout $end
$var wire 1 l# regResto|saidaResto~7_combout $end
$var wire 1 m# regResto|saidaResto~8_combout $end
$var wire 1 n# regResto|saidaResto~9_combout $end
$var wire 1 o# regResto|saidaResto~10_combout $end
$var wire 1 p# regResto|saidaResto~11_combout $end
$var wire 1 q# regResto|saidaResto~12_combout $end
$var wire 1 r# regResto|saidaResto~13_combout $end
$var wire 1 s# regResto|saidaResto~14_combout $end
$var wire 1 t# regResto|saidaResto~15_combout $end
$var wire 1 u# regResto|saidaResto~16_combout $end
$var wire 1 v# controle|Endereco [8] $end
$var wire 1 w# controle|Endereco [7] $end
$var wire 1 x# controle|Endereco [6] $end
$var wire 1 y# controle|Endereco [5] $end
$var wire 1 z# controle|Endereco [4] $end
$var wire 1 {# controle|Endereco [3] $end
$var wire 1 |# controle|Endereco [2] $end
$var wire 1 }# controle|Endereco [1] $end
$var wire 1 ~# controle|Endereco [0] $end
$var wire 1 !$ regResto|saidaResto [15] $end
$var wire 1 "$ regResto|saidaResto [14] $end
$var wire 1 #$ regResto|saidaResto [13] $end
$var wire 1 $$ regResto|saidaResto [12] $end
$var wire 1 %$ regResto|saidaResto [11] $end
$var wire 1 &$ regResto|saidaResto [10] $end
$var wire 1 '$ regResto|saidaResto [9] $end
$var wire 1 ($ regResto|saidaResto [8] $end
$var wire 1 )$ regResto|saidaResto [7] $end
$var wire 1 *$ regResto|saidaResto [6] $end
$var wire 1 +$ regResto|saidaResto [5] $end
$var wire 1 ,$ regResto|saidaResto [4] $end
$var wire 1 -$ regResto|saidaResto [3] $end
$var wire 1 .$ regResto|saidaResto [2] $end
$var wire 1 /$ regResto|saidaResto [1] $end
$var wire 1 0$ regResto|saidaResto [0] $end
$var wire 1 1$ antiloopd|saidaALD [15] $end
$var wire 1 2$ antiloopd|saidaALD [14] $end
$var wire 1 3$ antiloopd|saidaALD [13] $end
$var wire 1 4$ antiloopd|saidaALD [12] $end
$var wire 1 5$ antiloopd|saidaALD [11] $end
$var wire 1 6$ antiloopd|saidaALD [10] $end
$var wire 1 7$ antiloopd|saidaALD [9] $end
$var wire 1 8$ antiloopd|saidaALD [8] $end
$var wire 1 9$ antiloopd|saidaALD [7] $end
$var wire 1 :$ antiloopd|saidaALD [6] $end
$var wire 1 ;$ antiloopd|saidaALD [5] $end
$var wire 1 <$ antiloopd|saidaALD [4] $end
$var wire 1 =$ antiloopd|saidaALD [3] $end
$var wire 1 >$ antiloopd|saidaALD [2] $end
$var wire 1 ?$ antiloopd|saidaALD [1] $end
$var wire 1 @$ antiloopd|saidaALD [0] $end
$var wire 1 A$ controle|contador [7] $end
$var wire 1 B$ controle|contador [6] $end
$var wire 1 C$ controle|contador [5] $end
$var wire 1 D$ controle|contador [4] $end
$var wire 1 E$ controle|contador [3] $end
$var wire 1 F$ controle|contador [2] $end
$var wire 1 G$ controle|contador [1] $end
$var wire 1 H$ controle|contador [0] $end
$var wire 1 I$ regb|saidaA [15] $end
$var wire 1 J$ regb|saidaA [14] $end
$var wire 1 K$ regb|saidaA [13] $end
$var wire 1 L$ regb|saidaA [12] $end
$var wire 1 M$ regb|saidaA [11] $end
$var wire 1 N$ regb|saidaA [10] $end
$var wire 1 O$ regb|saidaA [9] $end
$var wire 1 P$ regb|saidaA [8] $end
$var wire 1 Q$ regb|saidaA [7] $end
$var wire 1 R$ regb|saidaA [6] $end
$var wire 1 S$ regb|saidaA [5] $end
$var wire 1 T$ regb|saidaA [4] $end
$var wire 1 U$ regb|saidaA [3] $end
$var wire 1 V$ regb|saidaA [2] $end
$var wire 1 W$ regb|saidaA [1] $end
$var wire 1 X$ regb|saidaA [0] $end
$var wire 1 Y$ antiloopm|saidaALM [15] $end
$var wire 1 Z$ antiloopm|saidaALM [14] $end
$var wire 1 [$ antiloopm|saidaALM [13] $end
$var wire 1 \$ antiloopm|saidaALM [12] $end
$var wire 1 ]$ antiloopm|saidaALM [11] $end
$var wire 1 ^$ antiloopm|saidaALM [10] $end
$var wire 1 _$ antiloopm|saidaALM [9] $end
$var wire 1 `$ antiloopm|saidaALM [8] $end
$var wire 1 a$ antiloopm|saidaALM [7] $end
$var wire 1 b$ antiloopm|saidaALM [6] $end
$var wire 1 c$ antiloopm|saidaALM [5] $end
$var wire 1 d$ antiloopm|saidaALM [4] $end
$var wire 1 e$ antiloopm|saidaALM [3] $end
$var wire 1 f$ antiloopm|saidaALM [2] $end
$var wire 1 g$ antiloopm|saidaALM [1] $end
$var wire 1 h$ antiloopm|saidaALM [0] $end
$var wire 1 i$ rega|saidaA [15] $end
$var wire 1 j$ rega|saidaA [14] $end
$var wire 1 k$ rega|saidaA [13] $end
$var wire 1 l$ rega|saidaA [12] $end
$var wire 1 m$ rega|saidaA [11] $end
$var wire 1 n$ rega|saidaA [10] $end
$var wire 1 o$ rega|saidaA [9] $end
$var wire 1 p$ rega|saidaA [8] $end
$var wire 1 q$ rega|saidaA [7] $end
$var wire 1 r$ rega|saidaA [6] $end
$var wire 1 s$ rega|saidaA [5] $end
$var wire 1 t$ rega|saidaA [4] $end
$var wire 1 u$ rega|saidaA [3] $end
$var wire 1 v$ rega|saidaA [2] $end
$var wire 1 w$ rega|saidaA [1] $end
$var wire 1 x$ rega|saidaA [0] $end
$var wire 1 y$ regc|saidaC [15] $end
$var wire 1 z$ regc|saidaC [14] $end
$var wire 1 {$ regc|saidaC [13] $end
$var wire 1 |$ regc|saidaC [12] $end
$var wire 1 }$ regc|saidaC [11] $end
$var wire 1 ~$ regc|saidaC [10] $end
$var wire 1 !% regc|saidaC [9] $end
$var wire 1 "% regc|saidaC [8] $end
$var wire 1 #% regc|saidaC [7] $end
$var wire 1 $% regc|saidaC [6] $end
$var wire 1 %% regc|saidaC [5] $end
$var wire 1 &% regc|saidaC [4] $end
$var wire 1 '% regc|saidaC [3] $end
$var wire 1 (% regc|saidaC [2] $end
$var wire 1 )% regc|saidaC [1] $end
$var wire 1 *% regc|saidaC [0] $end
$var wire 1 +% rom|temp_rtl_0|auto_generated|ram_block1a0_PORTADATAOUT_bus [7] $end
$var wire 1 ,% rom|temp_rtl_0|auto_generated|ram_block1a0_PORTADATAOUT_bus [6] $end
$var wire 1 -% rom|temp_rtl_0|auto_generated|ram_block1a0_PORTADATAOUT_bus [5] $end
$var wire 1 .% rom|temp_rtl_0|auto_generated|ram_block1a0_PORTADATAOUT_bus [4] $end
$var wire 1 /% rom|temp_rtl_0|auto_generated|ram_block1a0_PORTADATAOUT_bus [3] $end
$var wire 1 0% rom|temp_rtl_0|auto_generated|ram_block1a0_PORTADATAOUT_bus [2] $end
$var wire 1 1% rom|temp_rtl_0|auto_generated|ram_block1a0_PORTADATAOUT_bus [1] $end
$var wire 1 2% rom|temp_rtl_0|auto_generated|ram_block1a0_PORTADATAOUT_bus [0] $end
$upscope $end
$upscope $end
$enddefinitions $end
#0
$dumpvars
0!
0"
02
01
00
0/
0.
0-
0,
0+
0*
0)
0(
0'
0&
0%
0$
0#
0B
0A
0@
0?
0>
0=
0<
0;
0:
09
08
07
06
05
04
03
xC
0D
1E
xF
1G
1H
1I
1J
0K
1L
1M
1N
0O
0P
0Q
0R
0S
0T
0U
1V
1W
0X
1Y
0Z
1[
1\
0]
0^
1_
0`
0a
0b
0c
0d
0e
0f
0g
0h
0i
0j
0k
0l
0m
1n
0o
0p
0q
0r
0s
1t
0u
1v
0w
0x
0y
0z
0{
0|
0}
0~
0!!
0"!
0#!
0$!
1%!
0&!
0'!
0(!
0)!
0*!
0+!
0,!
0-!
0.!
0/!
00!
01!
12!
03!
14!
05!
16!
07!
08!
09!
0:!
0;!
0<!
0=!
0>!
1?!
1@!
0A!
0B!
1C!
1D!
0E!
1F!
0G!
1H!
0I!
0J!
1K!
0L!
1M!
0N!
0O!
0P!
0Q!
0R!
0S!
0T!
0U!
0V!
0W!
0X!
0Y!
0Z!
1[!
0\!
0]!
0^!
1_!
0`!
0a!
0b!
0c!
0d!
0e!
1f!
0g!
1h!
0i!
0j!
0k!
0l!
0m!
0n!
0o!
0p!
1q!
0r!
1s!
1t!
0u!
0v!
0w!
0x!
1y!
0z!
1{!
1|!
0}!
0~!
1!"
0""
0#"
0$"
1%"
0&"
0'"
0("
0)"
1*"
0+"
0,"
0-"
0."
1/"
10"
01"
02"
03"
04"
15"
06"
07"
18"
19"
0:"
1;"
0<"
1="
0>"
1?"
0@"
1A"
1B"
0C"
0D"
0E"
0F"
0G"
0H"
0I"
1J"
0K"
1L"
0M"
1N"
0O"
0P"
1Q"
0R"
0S"
0T"
1U"
0V"
0W"
1X"
0Y"
1Z"
0["
1\"
0]"
1^"
0_"
0`"
0a"
0b"
0c"
1d"
0e"
0f"
0g"
1h"
1i"
0j"
0k"
1l"
0m"
0n"
0o"
1p"
0q"
0r"
1s"
0t"
0u"
1v"
0w"
1x"
0y"
1z"
0{"
0|"
0}"
0~"
0!#
0"#
0##
0$#
0%#
0&#
1'#
0(#
1)#
0*#
1+#
0,#
0-#
0.#
0/#
00#
01#
02#
03#
04#
05#
16#
17#
08#
09#
0:#
0;#
0<#
0=#
0>#
0?#
1@#
0A#
0B#
0C#
1D#
0E#
1F#
0G#
0H#
0I#
0J#
0K#
1L#
1M#
0N#
0O#
0P#
0Q#
0R#
0S#
0T#
0U#
0V#
0W#
0X#
0Y#
0Z#
0[#
0\#
0]#
0^#
0_#
0`#
0a#
0b#
0c#
0d#
0e#
0f#
0g#
0h#
0i#
0j#
0k#
0l#
0m#
0n#
0o#
0p#
0q#
0r#
0s#
0t#
0u#
0~#
0}#
0|#
z{#
zz#
zy#
zx#
zw#
zv#
00$
0/$
0.$
0-$
0,$
0+$
0*$
0)$
0($
0'$
0&$
0%$
0$$
0#$
0"$
0!$
0@$
0?$
0>$
0=$
0<$
0;$
0:$
09$
08$
07$
06$
05$
04$
03$
02$
01$
0H$
0G$
0F$
0E$
0D$
0C$
0B$
0A$
0X$
0W$
0V$
0U$
0T$
0S$
0R$
0Q$
zP$
zO$
zN$
zM$
zL$
zK$
zJ$
zI$
0h$
0g$
0f$
0e$
0d$
0c$
0b$
0a$
0`$
0_$
0^$
0]$
0\$
0[$
0Z$
0Y$
0x$
0w$
0v$
0u$
0t$
0s$
0r$
0q$
zp$
zo$
zn$
zm$
zl$
zk$
zj$
zi$
0*%
0)%
0(%
0'%
0&%
0%%
0$%
0#%
0"%
0!%
0~$
0}$
0|$
0{$
0z$
0y$
02%
01%
00%
0/%
0.%
0-%
0,%
0+%
$end
#3000
1!
1h
1i
0C
#3001
11%
1.%
1-%
1w
1-!
1+!
1x
1.!
1,!
1y
#6000
0!
0h
0i
1C
1E#
1G#
1N#
0n
0v
0t
1O#
1k
#9000
1!
1h
1i
0C
1l
0L#
0F#
13#
0="
1m
0M#
18#
14#
13"
1z
1u
1s
0?"
1H#
1@"
#12000
0!
0h
0i
1C
1~#
1|
1A#
0G#
1I#
0N#
1}
1o
1B#
0H#
1t
0m
0s"
0l"
0!"
0{!
0K!
0[
0Y
0W
0V
0O#
0k
1t"
1q"
1m"
1j"
1""
1}!
0|!
0%"
1#"
1u"
0p"
1n"
0i"
1)"
1("
1&"
0u"
1t#
1a#
0v"
0n"
1r#
1_#
0#"
1n#
1X#
0*"
0}!
0&"
1o#
1Z#
1u#
1b#
0q"
1s#
1`#
0j"
1q#
1^#
0)"
1p#
1\#
0u#
0b#
1v"
0s#
0`#
0o#
0Z#
1*"
0n#
0X#
0p#
0\#
0t#
0a#
0r#
0_#
0q#
0^#
#15000
1!
1h
1i
0C
1s$
1t$
1w$
1p
0l
0\
1R
1Q
0%!
1O
0@#
08#
04#
0z"
1?"
03"
0s
1L#
1F#
0B#
03#
1="
19!
1j!
1g!
1E"
1F"
1T!
1N!
1H#
0@"
1%#
1G"
1H"
1k#
1T#
0N"
1j#
1S#
1M"
1e#
1P#
0J"
1O"
1K"
1P"
0L"
#15001
12%
1/%
0.%
1/!
1~
0-!
10!
1!!
0.!
#18000
0!
0h
0i
1C
0~#
1}#
0|
10#
0}
0z
0o
11#
1/#
1(!
