Turma2_2017020700_2017001212_2017005113/SISTEMA_FINAL/simulation/qsim/SISTEMA_FINAL.msim.vcd
$comment
	File created using the following command:
		vcd file SISTEMA_FINAL.msim.vcd -direction
$end
$date
	Wed Jul 04 00:52:26 2018
$end
$version
	ModelSim Version 10.1d
$end
$timescale
	1ps
$end
$scope module SISTEMA_FINAL_vlg_vec_tst $end
$var reg 1 ! clk $end
$var wire 1 " saida [15] $end
$var wire 1 # saida [14] $end
$var wire 1 $ saida [13] $end
$var wire 1 % saida [12] $end
$var wire 1 & saida [11] $end
$var wire 1 ' saida [10] $end
$var wire 1 ( saida [9] $end
$var wire 1 ) saida [8] $end
$var wire 1 * saida [7] $end
$var wire 1 + saida [6] $end
$var wire 1 , saida [5] $end
$var wire 1 - saida [4] $end
$var wire 1 . saida [3] $end
$var wire 1 / saida [2] $end
$var wire 1 0 saida [1] $end
$var wire 1 1 saida [0] $end
$var wire 1 2 saidaResto [15] $end
$var wire 1 3 saidaResto [14] $end
$var wire 1 4 saidaResto [13] $end
$var wire 1 5 saidaResto [12] $end
$var wire 1 6 saidaResto [11] $end
$var wire 1 7 saidaResto [10] $end
$var wire 1 8 saidaResto [9] $end
$var wire 1 9 saidaResto [8] $end
$var wire 1 : saidaResto [7] $end
$var wire 1 ; saidaResto [6] $end
$var wire 1 < saidaResto [5] $end
$var wire 1 = saidaResto [4] $end
$var wire 1 > saidaResto [3] $end
$var wire 1 ? saidaResto [2] $end
$var wire 1 @ saidaResto [1] $end
$var wire 1 A saidaResto [0] $end
$var wire 1 B sampler $end
$scope module i1 $end
$var wire 1 C gnd $end
$var wire 1 D vcc $end
$var wire 1 E unknown $end
$var tri1 1 F devclrn $end
$var tri1 1 G devpor $end
$var tri1 1 H devoe $end
$var wire 1 I alu|alu1|Add2~9_combout $end
$var wire 1 J controle|Add0~2_combout $end
$var wire 1 K controle|Add0~13 $end
$var wire 1 L controle|Add0~14_combout $end
$var wire 1 M SaidaMuxM[1]~1_combout $end
$var wire 1 N SaidaMuxM[2]~2_combout $end
$var wire 1 O SaidaMuxM[3]~3_combout $end
$var wire 1 P SaidaMuxD[4]~4_combout $end
$var wire 1 Q SaidaMuxM[5]~5_combout $end
$var wire 1 R SaidaMuxD[6]~6_combout $end
$var wire 1 S alu|alu2|Add0~0_combout $end
$var wire 1 T alu|alu2|Add0~5_combout $end
$var wire 1 U alu|alu2|Add0~8_combout $end
$var wire 1 V SaidaMuxD[11]~11_combout $end
$var wire 1 W alu|alu2|Add0~14_combout $end
$var wire 1 X alu|alu2|Add0~17_combout $end
$var wire 1 Y alu|alu2|Add0~20_combout $end
$var wire 1 Z controle|EnResto~regout $end
$var wire 1 [ controle|contador~4_combout $end
$var wire 1 \ controle|contador[1]~11_combout $end
$var wire 1 ] controle|contador[1]~12_combout $end
$var wire 1 ^ controle|contador[2]~20_combout $end
$var wire 1 _ antiloopm|saidaALM~11_combout $end
$var wire 1 ` antiloopm|saidaALM~13_combout $end
$var wire 1 a controle|menor~1_combout $end
$var wire 1 b controle|resetResto~0_combout $end
$var wire 1 c controle|EnResto~0_combout $end
$var wire 1 d controle|EnResto~1_combout $end
$var wire 1 e clk~combout $end
$var wire 1 f clk~clkctrl_outclk $end
$var wire 1 g controle|always1~0_combout $end
$var wire 1 h controle|SELM~0_combout $end
$var wire 1 i controle|resetResto~1_combout $end
$var wire 1 j controle|EnA~0_combout $end
$var wire 1 k controle|EnA~regout $end
$var wire 1 l rega|FimA~regout $end
$var wire 1 m controle|resetResto~regout $end
$var wire 1 n regResto|FimResto~0_combout $end
$var wire 1 o regResto|FimResto~regout $end
$var wire 1 p controle|state~12_combout $end
$var wire 1 q controle|state~11_combout $end
$var wire 1 r controle|state.s1~regout $end
$var wire 1 s controle|state~13_combout $end
$var wire 1 t controle|state.s2~regout $end
$var wire 1 u controle|state~10_combout $end
$var wire 1 v controle|state.s3~regout $end
$var wire 1 w controle|SELM~1_combout $end
$var wire 1 x controle|SELM~regout $end
$var wire 1 y controle|Endereco~0_combout $end
$var wire 1 z controle|Endereco[1]~3_combout $end
$var wire 1 { controle|Endereco[1]~1_combout $end
$var wire 1 | controle|Endereco~2_combout $end
$var wire 1 } rom|temp_rtl_0|auto_generated|ram_block1a1 $end
$var wire 1 ~ rom|temp_rtl_0|auto_generated|ram_block1a0~portadataout $end
$var wire 1 !! rom|temp_rtl_0|auto_generated|ram_block1a3 $end
$var wire 1 "! controle|Equal0~0_combout $end
$var wire 1 #! rom|temp_rtl_0|auto_generated|ram_block1a6 $end
$var wire 1 $! rom|temp_rtl_0|auto_generated|ram_block1a4 $end
$var wire 1 %! rom|temp_rtl_0|auto_generated|ram_block1a5 $end
$var wire 1 &! controle|Equal0~1_combout $end
$var wire 1 '! controle|Equal0~2_combout $end
$var wire 1 (! controle|EnC~0_combout $end
$var wire 1 )! controle|EnC~1_combout $end
$var wire 1 *! controle|EnC~2_combout $end
$var wire 1 +! controle|EnC~regout $end
$var wire 1 ,! regc|FimC~regout $end
$var wire 1 -! controle|state~14_combout $end
$var wire 1 .! controle|state.s4~regout $end
$var wire 1 /! controle|DIV~regout $end
$var wire 1 0! controle|multp~7_combout $end
$var wire 1 1! rom|temp_rtl_0|auto_generated|ram_block1a7 $end
$var wire 1 2! controle|contador~10_combout $end
$var wire 1 3! controle|contador~31_combout $end
$var wire 1 4! controle|Add0~1 $end
$var wire 1 5! controle|Add0~3 $end
$var wire 1 6! controle|Add0~4_combout $end
$var wire 1 7! controle|contador~17_combout $end
$var wire 1 8! controle|contador[1]~13_combout $end
$var wire 1 9! rega|saidaA[6]~feeder_combout $end
$var wire 1 :! rom|temp_rtl_0|auto_generated|ram_block1a2 $end
$var wire 1 ;! controle|LessThan1~1_cout $end
$var wire 1 <! controle|LessThan1~3_cout $end
$var wire 1 =! controle|LessThan1~5_cout $end
$var wire 1 >! controle|LessThan1~7_cout $end
$var wire 1 ?! controle|LessThan1~9_cout $end
$var wire 1 @! controle|LessThan1~11_cout $end
$var wire 1 A! controle|LessThan1~13_cout $end
$var wire 1 B! controle|LessThan1~14_combout $end
$var wire 1 C! controle|Equal1~1_combout $end
$var wire 1 D! controle|always1~1_combout $end
$var wire 1 E! antiloopm|saidaALM~7_combout $end
$var wire 1 F! SaidaMuxM[7]~7_combout $end
$var wire 1 G! controle|SELD~1_combout $end
$var wire 1 H! controle|SELD~0_combout $end
$var wire 1 I! controle|SELD~2_combout $end
$var wire 1 J! controle|SELD~regout $end
$var wire 1 K! controle|Op~regout $end
$var wire 1 L! SaidaMuxM[0]~0_combout $end
$var wire 1 M! alu|alu1|Add0~1 $end
$var wire 1 N! alu|alu1|Add0~2_combout $end
$var wire 1 O! alu|alu1|Add0~0_combout $end
$var wire 1 P! alu|alu1|Add2~0_combout $end
$var wire 1 Q! alu|alu1|Add2~2_combout $end
$var wire 1 R! controle|ENALD~0_combout $end
$var wire 1 S! controle|ENALD~1_combout $end
$var wire 1 T! controle|ENALD~regout $end
$var wire 1 U! SaidaMuxD[0]~0_combout $end
$var wire 1 V! alu|alu1|Add2~1 $end
$var wire 1 W! alu|alu1|Add2~3_combout $end
$var wire 1 X! alu|alu1|Add2~5_combout $end
$var wire 1 Y! rega|saidaA[1]~feeder_combout $end
$var wire 1 Z! SaidaMuxD[1]~1_combout $end
$var wire 1 [! alu|alu1|Add0~3 $end
$var wire 1 \! alu|alu1|Add0~4_combout $end
$var wire 1 ]! alu|alu1|Add2~4 $end
$var wire 1 ^! alu|alu1|Add2~6_combout $end
$var wire 1 _! alu|alu1|Add2~8_combout $end
$var wire 1 `! SaidaMuxD[2]~2_combout $end
$var wire 1 a! alu|alu1|Add0~5 $end
$var wire 1 b! alu|alu1|Add0~6_combout $end
$var wire 1 c! alu|alu1|Add2~11_combout $end
$var wire 1 d! rega|saidaA[3]~feeder_combout $end
$var wire 1 e! SaidaMuxD[3]~3_combout $end
$var wire 1 f! alu|alu1|Add2~7 $end
$var wire 1 g! alu|alu1|Add2~10 $end
$var wire 1 h! alu|alu1|Add2~12_combout $end
$var wire 1 i! alu|alu1|Add0~7 $end
$var wire 1 j! alu|alu1|Add0~8_combout $end
$var wire 1 k! alu|alu1|Add2~14_combout $end
$var wire 1 l! antiloopm|saidaALM~4_combout $end
$var wire 1 m! SaidaMuxM[4]~4_combout $end
$var wire 1 n! alu|alu1|Add2~13 $end
$var wire 1 o! alu|alu1|Add2~15_combout $end
$var wire 1 p! alu|alu1|Add0~9 $end
$var wire 1 q! alu|alu1|Add0~10_combout $end
$var wire 1 r! alu|alu1|Add2~17_combout $end
$var wire 1 s! SaidaMuxD[5]~5_combout $end
$var wire 1 t! alu|alu1|Add2~16 $end
$var wire 1 u! alu|alu1|Add2~18_combout $end
$var wire 1 v! alu|alu1|Add0~11 $end
$var wire 1 w! alu|alu1|Add0~12_combout $end
$var wire 1 x! alu|alu1|Add2~20_combout $end
$var wire 1 y! antiloopm|saidaALM~6_combout $end
$var wire 1 z! SaidaMuxM[6]~6_combout $end
$var wire 1 {! alu|alu1|Add0~13 $end
$var wire 1 |! alu|alu1|Add0~14_combout $end
$var wire 1 }! SaidaMuxD[7]~7_combout $end
$var wire 1 ~! alu|alu1|Add2~19 $end
$var wire 1 !" alu|alu1|Add2~21_combout $end
$var wire 1 "" alu|alu1|Add2~23_combout $end
$var wire 1 #" controle|LessThan3~1_cout $end
$var wire 1 $" controle|LessThan3~3_cout $end
$var wire 1 %" controle|LessThan3~5_cout $end
$var wire 1 &" controle|LessThan3~7_cout $end
$var wire 1 '" controle|LessThan3~9_cout $end
$var wire 1 (" controle|LessThan3~11_cout $end
$var wire 1 )" controle|LessThan3~13_cout $end
$var wire 1 *" controle|LessThan3~14_combout $end
$var wire 1 +" SaidaMuxD[9]~9_combout $end
$var wire 1 ," alu|alu1|Add0~15 $end
$var wire 1 -" alu|alu1|Add0~16_combout $end
$var wire 1 ." alu|alu1|Add2~22 $end
$var wire 1 /" alu|alu1|Add2~24_combout $end
$var wire 1 0" alu|alu1|Add2~26_combout $end
$var wire 1 1" alu|alu2|Add0~2_cout $end
$var wire 1 2" alu|alu2|Add0~3_combout $end
$var wire 1 3" SaidaMuxD[8]~8_combout $end
$var wire 1 4" alu|alu2|Add0~4 $end
$var wire 1 5" alu|alu2|Add0~6_combout $end
$var wire 1 6" alu|alu2|Add0~11_combout $end
$var wire 1 7" SaidaMuxD[10]~10_combout $end
$var wire 1 8" alu|alu2|Add0~7 $end
$var wire 1 9" alu|alu2|Add0~10 $end
$var wire 1 :" alu|alu2|Add0~12_combout $end
$var wire 1 ;" controle|LessThan3~16_combout $end
$var wire 1 <" SaidaMuxD[13]~13_combout $end
$var wire 1 =" alu|alu2|Add0~13 $end
$var wire 1 >" alu|alu2|Add0~15_combout $end
$var wire 1 ?" SaidaMuxD[12]~12_combout $end
$var wire 1 @" alu|alu2|Add0~16 $end
$var wire 1 A" alu|alu2|Add0~18_combout $end
$var wire 1 B" antiloopm|saidaALM~15_combout $end
$var wire 1 C" alu|alu2|Add0~23_combout $end
$var wire 1 D" SaidaMuxD[15]~15_combout $end
$var wire 1 E" alu|alu2|Add0~19 $end
$var wire 1 F" alu|alu2|Add0~21_combout $end
$var wire 1 G" SaidaMuxD[14]~14_combout $end
$var wire 1 H" alu|alu2|Add0~22 $end
$var wire 1 I" alu|alu2|Add0~24_combout $end
$var wire 1 J" controle|LessThan3~17_combout $end
$var wire 1 K" controle|LessThan3~18_combout $end
$var wire 1 L" controle|Add1~1 $end
$var wire 1 M" controle|Add1~2_combout $end
$var wire 1 N" controle|LessThan2~1_cout $end
$var wire 1 O" controle|LessThan2~3_cout $end
$var wire 1 P" controle|LessThan2~5_cout $end
$var wire 1 Q" controle|LessThan2~7_cout $end
$var wire 1 R" controle|LessThan2~9_cout $end
$var wire 1 S" controle|LessThan2~11_cout $end
$var wire 1 T" controle|LessThan2~13_cout $end
$var wire 1 U" controle|LessThan2~14_combout $end
$var wire 1 V" controle|multp~2_combout $end
$var wire 1 W" controle|contador[1]~14_combout $end
$var wire 1 X" controle|contador[1]~15_combout $end
$var wire 1 Y" controle|contador[1]~16_combout $end
$var wire 1 Z" controle|contador[0]~8_combout $end
$var wire 1 [" controle|contador[0]~9_combout $end
$var wire 1 \" controle|Add1~3 $end
$var wire 1 ]" controle|Add1~4_combout $end
$var wire 1 ^" controle|contador~18_combout $end
$var wire 1 _" controle|contador[2]~19_combout $end
$var wire 1 `" controle|contador[2]~21_combout $end
$var wire 1 a" controle|contador[2]~22_combout $end
$var wire 1 b" controle|Add0~5 $end
$var wire 1 c" controle|Add0~7 $end
$var wire 1 d" controle|Add0~8_combout $end
$var wire 1 e" controle|contador~25_combout $end
$var wire 1 f" controle|Add1~5 $end
$var wire 1 g" controle|Add1~6_combout $end
$var wire 1 h" controle|Add0~6_combout $end
$var wire 1 i" controle|contador~23_combout $end
$var wire 1 j" controle|contador~24_combout $end
$var wire 1 k" controle|Add1~7 $end
$var wire 1 l" controle|Add1~8_combout $end
$var wire 1 m" controle|contador~26_combout $end
$var wire 1 n" controle|Add0~9 $end
$var wire 1 o" controle|Add0~10_combout $end
$var wire 1 p" controle|contador~27_combout $end
$var wire 1 q" controle|Add1~9 $end
$var wire 1 r" controle|Add1~10_combout $end
$var wire 1 s" controle|contador~28_combout $end
$var wire 1 t" controle|Add0~11 $end
$var wire 1 u" controle|Add0~12_combout $end
$var wire 1 v" controle|contador~29_combout $end
$var wire 1 w" controle|Add1~11 $end
$var wire 1 x" controle|Add1~12_combout $end
$var wire 1 y" controle|contador~30_combout $end
$var wire 1 z" controle|Add1~13 $end
$var wire 1 {" controle|Add1~14_combout $end
$var wire 1 |" controle|contador~32_combout $end
$var wire 1 }" antiloopm|Equal0~0_combout $end
$var wire 1 ~" antiloopm|Equal0~1_combout $end
$var wire 1 !# controle|Equal1~0_combout $end
$var wire 1 "# controle|multp~3_combout $end
$var wire 1 ## controle|multp~4_combout $end
$var wire 1 $# controle|multp~5_combout $end
$var wire 1 %# controle|multp~6_combout $end
$var wire 1 &# controle|multp~8_combout $end
$var wire 1 '# controle|multp~regout $end
$var wire 1 (# controle|EnB~2_combout $end
$var wire 1 )# controle|EnB~3_combout $end
$var wire 1 *# controle|EnB~regout $end
$var wire 1 +# regb|FimA~regout $end
$var wire 1 ,# controle|Add0~0_combout $end
$var wire 1 -# controle|contador~3_combout $end
$var wire 1 .# controle|contador~5_combout $end
$var wire 1 /# controle|contador~6_combout $end
$var wire 1 0# controle|Add1~0_combout $end
$var wire 1 1# controle|contador~2_combout $end
$var wire 1 2# controle|contador~7_combout $end
$var wire 1 3# controle|contador[0]~33_combout $end
$var wire 1 4# antiloopm|saidaALM~0_combout $end
$var wire 1 5# resultado[0]~0_combout $end
$var wire 1 6# antiloopm|saidaALM~1_combout $end
$var wire 1 7# resultado[1]~1_combout $end
$var wire 1 8# antiloopm|saidaALM~2_combout $end
$var wire 1 9# resultado[2]~2_combout $end
$var wire 1 :# antiloopm|saidaALM~3_combout $end
$var wire 1 ;# resultado[3]~3_combout $end
$var wire 1 <# resultado[4]~4_combout $end
$var wire 1 =# antiloopm|saidaALM~5_combout $end
$var wire 1 ># resultado[5]~5_combout $end
$var wire 1 ?# resultado[6]~6_combout $end
$var wire 1 @# resultado[7]~7_combout $end
$var wire 1 A# antiloopm|saidaALM~8_combout $end
$var wire 1 B# resultado[8]~8_combout $end
$var wire 1 C# antiloopm|saidaALM~9_combout $end
$var wire 1 D# resultado[9]~9_combout $end
$var wire 1 E# alu|alu2|Add0~9_combout $end
$var wire 1 F# antiloopm|saidaALM~10_combout $end
$var wire 1 G# resultado[10]~10_combout $end
$var wire 1 H# resultado[11]~11_combout $end
$var wire 1 I# antiloopm|saidaALM~12_combout $end
$var wire 1 J# resultado[12]~12_combout $end
$var wire 1 K# resultado[13]~13_combout $end
$var wire 1 L# antiloopm|saidaALM~14_combout $end
$var wire 1 M# resultado[14]~14_combout $end
$var wire 1 N# resultado[15]~15_combout $end
$var wire 1 O# controle|menor~0_combout $end
$var wire 1 P# controle|menor~2_combout $end
$var wire 1 Q# controle|menor~regout $end
$var wire 1 R# regResto|saidaResto~0_combout $end
$var wire 1 S# regResto|saidaResto[3]~1_combout $end
$var wire 1 T# regResto|saidaResto~2_combout $end
$var wire 1 U# regResto|saidaResto~3_combout $end
$var wire 1 V# regResto|saidaResto~4_combout $end
$var wire 1 W# regResto|saidaResto~5_combout $end
$var wire 1 X# regResto|saidaResto~6_combout $end
$var wire 1 Y# regResto|saidaResto~7_combout $end
$var wire 1 Z# regResto|saidaResto~8_combout $end
$var wire 1 [# regResto|saidaResto~9_combout $end
$var wire 1 \# regResto|saidaResto~10_combout $end
$var wire 1 ]# regResto|saidaResto~11_combout $end
$var wire 1 ^# regResto|saidaResto~12_combout $end
$var wire 1 _# regResto|saidaResto~13_combout $end
$var wire 1 `# regResto|saidaResto~14_combout $end
$var wire 1 a# regResto|saidaResto~15_combout $end
$var wire 1 b# regResto|saidaResto~16_combout $end
$var wire 1 c# controle|contador [7] $end
$var wire 1 d# controle|contador [6] $end
$var wire 1 e# controle|contador [5] $end
$var wire 1 f# controle|contador [4] $end
$var wire 1 g# controle|contador [3] $end
$var wire 1 h# controle|contador [2] $end
$var wire 1 i# controle|contador [1] $end
$var wire 1 j# controle|contador [0] $end
$var wire 1 k# regc|saidaC [15] $end
$var wire 1 l# regc|saidaC [14] $end
$var wire 1 m# regc|saidaC [13] $end
$var wire 1 n# regc|saidaC [12] $end
$var wire 1 o# regc|saidaC [11] $end
$var wire 1 p# regc|saidaC [10] $end
$var wire 1 q# regc|saidaC [9] $end
$var wire 1 r# regc|saidaC [8] $end
$var wire 1 s# regc|saidaC [7] $end
$var wire 1 t# regc|saidaC [6] $end
$var wire 1 u# regc|saidaC [5] $end
$var wire 1 v# regc|saidaC [4] $end
$var wire 1 w# regc|saidaC [3] $end
$var wire 1 x# regc|saidaC [2] $end
$var wire 1 y# regc|saidaC [1] $end
$var wire 1 z# regc|saidaC [0] $end
$var wire 1 {# antiloopd|saidaALD [15] $end
$var wire 1 |# antiloopd|saidaALD [14] $end
$var wire 1 }# antiloopd|saidaALD [13] $end
$var wire 1 ~# antiloopd|saidaALD [12] $end
$var wire 1 !$ antiloopd|saidaALD [11] $end
$var wire 1 "$ antiloopd|saidaALD [10] $end
$var wire 1 #$ antiloopd|saidaALD [9] $end
$var wire 1 $$ antiloopd|saidaALD [8] $end
$var wire 1 %$ antiloopd|saidaALD [7] $end
$var wire 1 &$ antiloopd|saidaALD [6] $end
$var wire 1 '$ antiloopd|saidaALD [5] $end
$var wire 1 ($ antiloopd|saidaALD [4] $end
$var wire 1 )$ antiloopd|saidaALD [3] $end
$var wire 1 *$ antiloopd|saidaALD [2] $end
$var wire 1 +$ antiloopd|saidaALD [1] $end
$var wire 1 ,$ antiloopd|saidaALD [0] $end
$var wire 1 -$ controle|Endereco [8] $end
$var wire 1 .$ controle|Endereco [7] $end
$var wire 1 /$ controle|Endereco [6] $end
$var wire 1 0$ controle|Endereco [5] $end
$var wire 1 1$ controle|Endereco [4] $end
$var wire 1 2$ controle|Endereco [3] $end
$var wire 1 3$ controle|Endereco [2] $end
$var wire 1 4$ controle|Endereco [1] $end
$var wire 1 5$ controle|Endereco [0] $end
$var wire 1 6$ antiloopm|saidaALM [15] $end
$var wire 1 7$ antiloopm|saidaALM [14] $end
$var wire 1 8$ antiloopm|saidaALM [13] $end
$var wire 1 9$ antiloopm|saidaALM [12] $end
$var wire 1 :$ antiloopm|saidaALM [11] $end
$var wire 1 ;$ antiloopm|saidaALM [10] $end
$var wire 1 <$ antiloopm|saidaALM [9] $end
$var wire 1 =$ antiloopm|saidaALM [8] $end
$var wire 1 >$ antiloopm|saidaALM [7] $end
$var wire 1 ?$ antiloopm|saidaALM [6] $end
$var wire 1 @$ antiloopm|saidaALM [5] $end
$var wire 1 A$ antiloopm|saidaALM [4] $end
$var wire 1 B$ antiloopm|saidaALM [3] $end
$var wire 1 C$ antiloopm|saidaALM [2] $end
$var wire 1 D$ antiloopm|saidaALM [1] $end
$var wire 1 E$ antiloopm|saidaALM [0] $end
$var wire 1 F$ rega|saidaA [15] $end
$var wire 1 G$ rega|saidaA [14] $end
$var wire 1 H$ rega|saidaA [13] $end
$var wire 1 I$ rega|saidaA [12] $end
$var wire 1 J$ rega|saidaA [11] $end
$var wire 1 K$ rega|saidaA [10] $end
$var wire 1 L$ rega|saidaA [9] $end
$var wire 1 M$ rega|saidaA [8] $end
$var wire 1 N$ rega|saidaA [7] $end
$var wire 1 O$ rega|saidaA [6] $end
$var wire 1 P$ rega|saidaA [5] $end
$var wire 1 Q$ rega|saidaA [4] $end
$var wire 1 R$ rega|saidaA [3] $end
$var wire 1 S$ rega|saidaA [2] $end
$var wire 1 T$ rega|saidaA [1] $end
$var wire 1 U$ rega|saidaA [0] $end
$var wire 1 V$ regResto|saidaResto [15] $end
$var wire 1 W$ regResto|saidaResto [14] $end
$var wire 1 X$ regResto|saidaResto [13] $end
$var wire 1 Y$ regResto|saidaResto [12] $end
$var wire 1 Z$ regResto|saidaResto [11] $end
$var wire 1 [$ regResto|saidaResto [10] $end
$var wire 1 \$ regResto|saidaResto [9] $end
$var wire 1 ]$ regResto|saidaResto [8] $end
$var wire 1 ^$ regResto|saidaResto [7] $end
$var wire 1 _$ regResto|saidaResto [6] $end
$var wire 1 `$ regResto|saidaResto [5] $end
$var wire 1 a$ regResto|saidaResto [4] $end
$var wire 1 b$ regResto|saidaResto [3] $end
$var wire 1 c$ regResto|saidaResto [2] $end
$var wire 1 d$ regResto|saidaResto [1] $end
$var wire 1 e$ regResto|saidaResto [0] $end
$var wire 1 f$ regb|saidaA [15] $end
$var wire 1 g$ regb|saidaA [14] $end
$var wire 1 h$ regb|saidaA [13] $end
$var wire 1 i$ regb|saidaA [12] $end
$var wire 1 j$ regb|saidaA [11] $end
$var wire 1 k$ regb|saidaA [10] $end
$var wire 1 l$ regb|saidaA [9] $end
$var wire 1 m$ regb|saidaA [8] $end
$var wire 1 n$ regb|saidaA [7] $end
$var wire 1 o$ regb|saidaA [6] $end
$var wire 1 p$ regb|saidaA [5] $end
$var wire 1 q$ regb|saidaA [4] $end
$var wire 1 r$ regb|saidaA [3] $end
$var wire 1 s$ regb|saidaA [2] $end
$var wire 1 t$ regb|saidaA [1] $end
$var wire 1 u$ regb|saidaA [0] $end
$var wire 1 v$ rom|temp_rtl_0|auto_generated|ram_block1a0_PORTADATAOUT_bus [7] $end
$var wire 1 w$ rom|temp_rtl_0|auto_generated|ram_block1a0_PORTADATAOUT_bus [6] $end
$var wire 1 x$ rom|temp_rtl_0|auto_generated|ram_block1a0_PORTADATAOUT_bus [5] $end
$var wire 1 y$ rom|temp_rtl_0|auto_generated|ram_block1a0_PORTADATAOUT_bus [4] $end
$var wire 1 z$ rom|temp_rtl_0|auto_generated|ram_block1a0_PORTADATAOUT_bus [3] $end
$var wire 1 {$ rom|temp_rtl_0|auto_generated|ram_block1a0_PORTADATAOUT_bus [2] $end
$var wire 1 |$ rom|temp_rtl_0|auto_generated|ram_block1a0_PORTADATAOUT_bus [1] $end
$var wire 1 }$ rom|temp_rtl_0|auto_generated|ram_block1a0_PORTADATAOUT_bus [0] $end
$upscope $end
$upscope $end
$enddefinitions $end
#0
$dumpvars
0!
01
00
0/
0.
0-
0,
0+
0*
0)
0(
0'
0&
0%
0$
0#
0"
0A
0@
0?
0>
0=
0<
0;
0:
09
08
07
06
05
04
03
02
xB
0C
1D
xE
1F
1G
1H
0I
1J
0K
1L
0M
0N
0O
0P
0Q
0R
1S
1T
1U
0V
1W
1X
1Y
0Z
1[
0\
0]
0^
0_
0`
0a
1b
0c
0d
0e
0f
0g
0h
0i
0j
0k
0l
0m
0n
0o
0p
1q
0r
0s
0t
0u
0v
0w
0x
1y
0z
0{
0|
0}
0~
0!!
1"!
0#!
0$!
0%!
1&!
1'!
0(!
1)!
1*!
0+!
0,!
0-!
0.!
0/!
00!
01!
02!
03!
04!
15!
16!
07!
08!
09!
0:!
0;!
1<!
0=!
1>!
0?!
1@!
0A!
0B!
1C!
1D!
0E!
0F!
1G!
0H!
0I!
0J!
0K!
0L!
0M!
0N!
0O!
0P!
0Q!
1R!
1S!
0T!
0U!
1V!
0W!
0X!
0Y!
0Z!
1[!
0\!
0]!
0^!
0_!
0`!
0a!
0b!
0c!
0d!
0e!
1f!
0g!
0h!
1i!
0j!
0k!
0l!
0m!
1n!
0o!
0p!
0q!
0r!
0s!
0t!
0u!
1v!
0w!
0x!
0y!
0z!
0{!
0|!
0}!
1~!
0!"
0""
0#"
1$"
0%"
1&"
0'"
1("
0)"
0*"
0+"
1,"
0-"
0."
1/"
10"
11"
02"
03"
04"
05"
16"
07"
18"
09"
0:"
1;"
0<"
1="
0>"
0?"
0@"
0A"
0B"
1C"
0D"
1E"
0F"
0G"
0H"
0I"
1J"
0K"
0L"
0M"
0N"
1O"
0P"
1Q"
0R"
1S"
0T"
0U"
0V"
0W"
0X"
0Y"
0Z"
0["
1\"
0]"
0^"
1_"
1`"
0a"
0b"
1c"
1d"
0e"
0f"
0g"
1h"
0i"
0j"
1k"
0l"
0m"
0n"
1o"
0p"
0q"
0r"
0s"
1t"
1u"
0v"
1w"
0x"
0y"
0z"
0{"
0|"
1}"
1~"
1!#
0"#
0##
0$#
0%#
0&#
0'#
0(#
0)#
0*#
0+#
1,#
0-#
1.#
0/#
10#
11#
02#
03#
04#
05#
06#
07#
08#
09#
0:#
0;#
0<#
0=#
0>#
0?#
0@#
0A#
0B#
0C#
0D#
0E#
0F#
0G#
0H#
0I#
0J#
0K#
0L#
0M#
0N#
0O#
0P#
0Q#
0R#
0S#
0T#
0U#
0V#
0W#
0X#
0Y#
0Z#
0[#
0\#
0]#
0^#
0_#
0`#
0a#
0b#
0j#
0i#
0h#
0g#
0f#
0e#
0d#
0c#
0z#
0y#
0x#
0w#
0v#
0u#
0t#
0s#
0r#
0q#
0p#
0o#
0n#
0m#
0l#
0k#
0,$
0+$
0*$
0)$
0($
0'$
0&$
0%$
0$$
0#$
0"$
0!$
0~#
0}#
0|#
0{#
z5$
04$
03$
z2$
z1$
z0$
z/$
z.$
z-$
0E$
0D$
0C$
0B$
0A$
0@$
0?$
0>$
0=$
0<$
0;$
0:$
09$
08$
07$
06$
0U$
0T$
0S$
0R$
0Q$
0P$
0O$
0N$
zM$
zL$
zK$
zJ$
zI$
zH$
zG$
zF$
0e$
0d$
0c$
0b$
0a$
0`$
0_$
0^$
0]$
0\$
0[$
0Z$
0Y$
0X$
0W$
0V$
0u$
0t$
0s$
0r$
0q$
0p$
0o$
0n$
zm$
zl$
zk$
zj$
zi$
zh$
zg$
zf$
0}$
0|$
0{$
0z$
0y$
0x$
0w$
0v$
$end
#3000
1!
1e
1f
0B
#3001
1|$
1y$
1x$
1}
1$!
1%!
1Y!
#6000
0!
0e
0f
1B
1+!
1T!
#9000
1!
1e
1f
0B
1,!
0_"
0*!
1s
1p
1h
1a"
1["
1{
1w
1j
#12000
0!
0e
0f
1B
1k
1r
1t
0+!
1K!
0y
0s
1u
0C"
06"
00"
0Y
0X
0W
0U
0T
0S
1z
1I"
0="
1:"
01"
1H"
1F"
0E"
1A"
1@"
1>"
19"
1E#
08"
15"
14"
12"
1b#
1N#
0J"
0>"
1^#
1H#
0;"
02"
0I"
1a#
1M#
0F"
1`#
1K#
0A"
1_#
1J#
0:"
1]#
1G#
0E#
1\#
1D#
05"
1[#
1B#
0_#
0J#
1J"
0[#
0B#
1;"
0b#
0N#
0a#
0M#
0`#
0K#
0^#
0H#
0]#
0G#
0\#
0D#
#15000
1!
1e
1f
0B
1T$
1Q$
1P$
0,!
1l
0!#
1Z!
0C!
1P
1s!
1_"
1*!
0u
0p
0h
0["
0w
0q
0j
0G!
0D!
1W!
1N!
1j!
1h!
1q!
1o!
0a"
1X!
1k!
1r!
1T#
17#
0O"
1W#
1<#
1R"
1X#
1>#
0S"
1P"
1T"
0Q"
1U"
#15001
1}$
1z$
0y$
1~
1!!
0$!
1d!
#18000
0!
0e
0f
1B
0k
14$
1*#
1)#
#21000
1!
1e
1f
0B
1+#
1'$
1+$
1p$
1r$
1u$
1t$
0l
1($
0)#
18!
1g
0&!
1Q
1Q"
0&"
0>!
0"!
1O
1-#
1#"
1L!
1;!
1O"
1\
1M
0{
0_"
1i
0'!
0v!
0q!
0o!
1b!
1g!
1I
0$"
0V!
1P!
1O!
0<!
0P"
0W!
0[!
0N!
1"#
1V"
0[
1w!
0r!
1c!
0h!
1%"
1]!
1W!
1Q!
1=!
0X!
1\!
1##
1W"
1x!
0X#
0>#
1S"
0("
1V#
1;#
0f!
1^!
1R#
15#
0#"
0T#
07#
1_!
1$#
1X"
1Y#
1?#
0I
1U#
19#
1P"
0%"
1%#
1Y"
0Q"
1&"
#21001
0|$
0z$
0}
0!!
0Y!
0d!
#24000
0!
0e
0f
1B
1m
1+!
0*#
1S#
#27000
1!
1e
1f
0B
1t#
1v#
1w#
1x#
1z#
0+#
0'$
1)$
1*$
0+$
1,$
1,!
1&$
08!
1q
1h
0g
1u
1p
1+
1-
1.
1/
11
0Y"
1["
1{
1w
1j
0i
1a"
0*!
