Turma2_2017020700_2017001212_2017005113/SISTEMA_FINAL/simulation/qsim/SISTEMA_FINAL.msim.vcd
$comment
	File created using the following command:
		vcd file SISTEMA_FINAL.msim.vcd -direction
$end
$date
	Mon Jul 02 00:06:04 2018
$end
$version
	ModelSim Version 10.1d
$end
$timescale
	1ps
$end
$scope module SISTEMA_FINAL_vlg_vec_tst $end
$var reg 1 ! clk $end
$var wire 1 " SaidaAlu [15] $end
$var wire 1 # SaidaAlu [14] $end
$var wire 1 $ SaidaAlu [13] $end
$var wire 1 % SaidaAlu [12] $end
$var wire 1 & SaidaAlu [11] $end
$var wire 1 ' SaidaAlu [10] $end
$var wire 1 ( SaidaAlu [9] $end
$var wire 1 ) SaidaAlu [8] $end
$var wire 1 * SaidaAlu [7] $end
$var wire 1 + SaidaAlu [6] $end
$var wire 1 , SaidaAlu [5] $end
$var wire 1 - SaidaAlu [4] $end
$var wire 1 . SaidaAlu [3] $end
$var wire 1 / SaidaAlu [2] $end
$var wire 1 0 SaidaAlu [1] $end
$var wire 1 1 SaidaAlu [0] $end
$var wire 1 2 contador [7] $end
$var wire 1 3 contador [6] $end
$var wire 1 4 contador [5] $end
$var wire 1 5 contador [4] $end
$var wire 1 6 contador [3] $end
$var wire 1 7 contador [2] $end
$var wire 1 8 contador [1] $end
$var wire 1 9 contador [0] $end
$var wire 1 : ffald [15] $end
$var wire 1 ; ffald [14] $end
$var wire 1 < ffald [13] $end
$var wire 1 = ffald [12] $end
$var wire 1 > ffald [11] $end
$var wire 1 ? ffald [10] $end
$var wire 1 @ ffald [9] $end
$var wire 1 A ffald [8] $end
$var wire 1 B ffald [7] $end
$var wire 1 C ffald [6] $end
$var wire 1 D ffald [5] $end
$var wire 1 E ffald [4] $end
$var wire 1 F ffald [3] $end
$var wire 1 G ffald [2] $end
$var wire 1 H ffald [1] $end
$var wire 1 I ffald [0] $end
$var wire 1 J saida [15] $end
$var wire 1 K saida [14] $end
$var wire 1 L saida [13] $end
$var wire 1 M saida [12] $end
$var wire 1 N saida [11] $end
$var wire 1 O saida [10] $end
$var wire 1 P saida [9] $end
$var wire 1 Q saida [8] $end
$var wire 1 R saida [7] $end
$var wire 1 S saida [6] $end
$var wire 1 T saida [5] $end
$var wire 1 U saida [4] $end
$var wire 1 V saida [3] $end
$var wire 1 W saida [2] $end
$var wire 1 X saida [1] $end
$var wire 1 Y saida [0] $end
$var wire 1 Z saidaResto [15] $end
$var wire 1 [ saidaResto [14] $end
$var wire 1 \ saidaResto [13] $end
$var wire 1 ] saidaResto [12] $end
$var wire 1 ^ saidaResto [11] $end
$var wire 1 _ saidaResto [10] $end
$var wire 1 ` saidaResto [9] $end
$var wire 1 a saidaResto [8] $end
$var wire 1 b saidaResto [7] $end
$var wire 1 c saidaResto [6] $end
$var wire 1 d saidaResto [5] $end
$var wire 1 e saidaResto [4] $end
$var wire 1 f saidaResto [3] $end
$var wire 1 g saidaResto [2] $end
$var wire 1 h saidaResto [1] $end
$var wire 1 i saidaResto [0] $end
$var wire 1 j sampler $end
$scope module i1 $end
$var wire 1 k gnd $end
$var wire 1 l vcc $end
$var wire 1 m unknown $end
$var tri1 1 n devclrn $end
$var tri1 1 o devpor $end
$var tri1 1 p devoe $end
$var wire 1 q alu|alu1|Add0~0_combout $end
$var wire 1 r alu|alu1|Add2~6_combout $end
$var wire 1 s alu|alu1|Add0~6_combout $end
$var wire 1 t alu|alu1|Add2~16 $end
$var wire 1 u alu|alu1|Add2~18_combout $end
$var wire 1 v alu|alu1|Add2~19 $end
$var wire 1 w alu|alu1|Add2~21_combout $end
$var wire 1 x alu|alu1|Add2~22 $end
$var wire 1 y alu|alu1|Add2~24_combout $end
$var wire 1 z controle|Add0~0_combout $end
$var wire 1 { controle|Add0~4_combout $end
$var wire 1 | controle|Add1~4_combout $end
$var wire 1 } controle|Add0~6_combout $end
$var wire 1 ~ controle|Add1~8_combout $end
$var wire 1 !! controle|Add0~10_combout $end
$var wire 1 "! SaidaMuxD[0]~0_combout $end
$var wire 1 #! SaidaMuxD[1]~1_combout $end
$var wire 1 $! SaidaMuxM[3]~3_combout $end
$var wire 1 %! SaidaMuxM[6]~6_combout $end
$var wire 1 &! SaidaMuxD[7]~7_combout $end
$var wire 1 '! SaidaMuxD[8]~8_combout $end
$var wire 1 (! SaidaMuxD[9]~9_combout $end
$var wire 1 )! alu|alu2|Add0~8_combout $end
$var wire 1 *! SaidaMuxD[11]~11_combout $end
$var wire 1 +! SaidaMuxD[12]~12_combout $end
$var wire 1 ,! SaidaMuxD[13]~13_combout $end
$var wire 1 -! SaidaMuxD[14]~14_combout $end
$var wire 1 .! controle|contador~8_combout $end
$var wire 1 /! antiloop|saidaA~19_combout $end
$var wire 1 0! antiloop|saidaA~22_combout $end
$var wire 1 1! controle|multp~1_combout $end
$var wire 1 2! controle|state.s2~regout $end
$var wire 1 3! controle|state~13_combout $end
$var wire 1 4! clk~combout $end
$var wire 1 5! clk~clkctrl_outclk $end
$var wire 1 6! controle|state~12_combout $end
$var wire 1 7! rega|FimA~regout $end
$var wire 1 8! controle|state~11_combout $end
$var wire 1 9! controle|state.s1~regout $end
$var wire 1 :! controle|Endereco~0_combout $end
$var wire 1 ;! controle|Endereco[1]~3_combout $end
$var wire 1 <! controle|Endereco[1]~1_combout $end
$var wire 1 =! controle|Endereco~2_combout $end
$var wire 1 >! rom|temp_rtl_0|auto_generated|ram_block1a0~portadataout $end
$var wire 1 ?! rom|temp_rtl_0|auto_generated|ram_block1a1 $end
$var wire 1 @! controle|Equal0~0_combout $end
$var wire 1 A! controle|always1~0_combout $end
$var wire 1 B! controle|multp~0_combout $end
$var wire 1 C! rom|temp_rtl_0|auto_generated|ram_block1a5 $end
$var wire 1 D! rom|temp_rtl_0|auto_generated|ram_block1a4 $end
$var wire 1 E! rom|temp_rtl_0|auto_generated|ram_block1a6 $end
$var wire 1 F! controle|Equal0~1_combout $end
$var wire 1 G! controle|multp~2_combout $end
$var wire 1 H! rom|temp_rtl_0|auto_generated|ram_block1a7 $end
$var wire 1 I! controle|SELM~1_combout $end
$var wire 1 J! controle|Op~regout $end
$var wire 1 K! controle|Add1~11 $end
$var wire 1 L! controle|Add1~13 $end
$var wire 1 M! controle|Add1~14_combout $end
$var wire 1 N! controle|Add1~0_combout $end
$var wire 1 O! controle|contador~2_combout $end
$var wire 1 P! controle|contador~3_combout $end
$var wire 1 Q! antiloop|saidaA~25_combout $end
$var wire 1 R! alu|alu2|Add0~5_combout $end
$var wire 1 S! controle|contador[6]~4_combout $end
$var wire 1 T! controle|SELD~0_combout $end
$var wire 1 U! controle|SELD~regout $end
$var wire 1 V! rom|temp_rtl_0|auto_generated|ram_block1a3 $end
$var wire 1 W! SaidaMuxD[2]~2_combout $end
$var wire 1 X! alu|alu1|Add2~0_combout $end
$var wire 1 Y! antiloop|saidaA~16_combout $end
$var wire 1 Z! SaidaMuxM[0]~0_combout $end
$var wire 1 [! alu|alu1|Add0~1 $end
$var wire 1 \! alu|alu1|Add0~2_combout $end
$var wire 1 ]! antiloop|saidaA~17_combout $end
$var wire 1 ^! SaidaMuxM[1]~1_combout $end
$var wire 1 _! alu|alu1|Add2~1 $end
$var wire 1 `! alu|alu1|Add2~4 $end
$var wire 1 a! alu|alu1|Add2~7 $end
$var wire 1 b! alu|alu1|Add2~9_combout $end
$var wire 1 c! alu|alu1|Add2~11_combout $end
$var wire 1 d! SaidaMuxD[3]~3_combout $end
$var wire 1 e! alu|alu1|Add0~3 $end
$var wire 1 f! alu|alu1|Add0~4_combout $end
$var wire 1 g! antiloop|saidaA~18_combout $end
$var wire 1 h! SaidaMuxM[2]~2_combout $end
$var wire 1 i! alu|alu1|Add0~5 $end
$var wire 1 j! alu|alu1|Add0~7 $end
$var wire 1 k! alu|alu1|Add0~8_combout $end
$var wire 1 l! antiloop|saidaA~20_combout $end
$var wire 1 m! SaidaMuxM[4]~4_combout $end
$var wire 1 n! alu|alu1|Add0~9 $end
$var wire 1 o! alu|alu1|Add0~10_combout $end
$var wire 1 p! antiloop|saidaA~21_combout $end
$var wire 1 q! SaidaMuxM[5]~5_combout $end
$var wire 1 r! alu|alu1|Add2~10 $end
$var wire 1 s! alu|alu1|Add2~12_combout $end
$var wire 1 t! alu|alu1|Add2~14_combout $end
$var wire 1 u! SaidaMuxD[4]~4_combout $end
$var wire 1 v! alu|alu1|Add2~13 $end
$var wire 1 w! alu|alu1|Add2~15_combout $end
$var wire 1 x! alu|alu1|Add2~17_combout $end
$var wire 1 y! antiloopd|saidaA[5]~feeder_combout $end
$var wire 1 z! SaidaMuxD[5]~5_combout $end
$var wire 1 {! alu|alu1|Add0~11 $end
$var wire 1 |! alu|alu1|Add0~12_combout $end
$var wire 1 }! alu|alu1|Add2~20_combout $end
$var wire 1 ~! SaidaMuxD[6]~6_combout $end
$var wire 1 !" alu|alu1|Add0~13 $end
$var wire 1 "" alu|alu1|Add0~15 $end
$var wire 1 #" alu|alu1|Add0~16_combout $end
$var wire 1 $" alu|alu1|Add2~26_combout $end
$var wire 1 %" alu|alu2|Add0~2_cout $end
$var wire 1 &" alu|alu2|Add0~3_combout $end
$var wire 1 '" antiloop|saidaA~24_combout $end
$var wire 1 (" alu|alu2|Add0~0_combout $end
$var wire 1 )" alu|alu2|Add0~4 $end
$var wire 1 *" alu|alu2|Add0~6_combout $end
$var wire 1 +" antiloop|saidaA~27_combout $end
$var wire 1 ," alu|alu2|Add0~11_combout $end
$var wire 1 -" alu|alu2|Add0~7 $end
$var wire 1 ." alu|alu2|Add0~9_combout $end
$var wire 1 /" SaidaMuxD[10]~10_combout $end
$var wire 1 0" alu|alu2|Add0~10 $end
$var wire 1 1" alu|alu2|Add0~12_combout $end
$var wire 1 2" controle|LessThan1~16_combout $end
$var wire 1 3" controle|Add1~1 $end
$var wire 1 4" controle|Add1~2_combout $end
$var wire 1 5" controle|Add0~2_combout $end
$var wire 1 6" controle|contador~6_combout $end
$var wire 1 7" controle|contador~7_combout $end
$var wire 1 8" antiloop|Equal0~0_combout $end
$var wire 1 9" antiloop|saidaA~29_combout $end
$var wire 1 :" alu|alu2|Add0~17_combout $end
$var wire 1 ;" alu|alu2|Add0~13 $end
$var wire 1 <" alu|alu2|Add0~15_combout $end
$var wire 1 =" antiloop|saidaA~28_combout $end
$var wire 1 >" alu|alu2|Add0~14_combout $end
$var wire 1 ?" alu|alu2|Add0~16 $end
$var wire 1 @" alu|alu2|Add0~18_combout $end
$var wire 1 A" antiloop|saidaA~30_combout $end
$var wire 1 B" alu|alu2|Add0~20_combout $end
$var wire 1 C" alu|alu2|Add0~19 $end
$var wire 1 D" alu|alu2|Add0~21_combout $end
$var wire 1 E" antiloop|saidaA~31_combout $end
$var wire 1 F" alu|alu2|Add0~23_combout $end
$var wire 1 G" SaidaMuxD[15]~15_combout $end
$var wire 1 H" alu|alu2|Add0~22 $end
$var wire 1 I" alu|alu2|Add0~24_combout $end
$var wire 1 J" controle|LessThan1~17_combout $end
$var wire 1 K" controle|contador[0]~20_combout $end
$var wire 1 L" controle|contador[0]~5_combout $end
$var wire 1 M" controle|Add0~1 $end
$var wire 1 N" controle|Add0~3 $end
$var wire 1 O" controle|Add0~5 $end
$var wire 1 P" controle|Add0~7 $end
$var wire 1 Q" controle|Add0~8_combout $end
$var wire 1 R" controle|contador~12_combout $end
$var wire 1 S" controle|contador~13_combout $end
$var wire 1 T" controle|Add0~9 $end
$var wire 1 U" controle|Add0~11 $end
$var wire 1 V" controle|Add0~13 $end
$var wire 1 W" controle|Add0~14_combout $end
$var wire 1 X" controle|contador~18_combout $end
$var wire 1 Y" controle|contador~19_combout $end
$var wire 1 Z" antiloop|Equal0~1_combout $end
$var wire 1 [" antiloop|Equal0~2_combout $end
$var wire 1 \" antiloop|saidaA~23_combout $end
$var wire 1 ]" SaidaMuxM[7]~7_combout $end
$var wire 1 ^" alu|alu1|Add0~14_combout $end
$var wire 1 _" alu|alu1|Add2~23_combout $end
$var wire 1 `" controle|LessThan1~1_cout $end
$var wire 1 a" controle|LessThan1~3_cout $end
$var wire 1 b" controle|LessThan1~5_cout $end
$var wire 1 c" controle|LessThan1~7_cout $end
$var wire 1 d" controle|LessThan1~9_cout $end
$var wire 1 e" controle|LessThan1~11_cout $end
$var wire 1 f" controle|LessThan1~13_cout $end
$var wire 1 g" controle|LessThan1~14_combout $end
$var wire 1 h" controle|multp~3_combout $end
$var wire 1 i" controle|multp~4_combout $end
$var wire 1 j" controle|multp~regout $end
$var wire 1 k" controle|EnB~0_combout $end
$var wire 1 l" controle|EnB~1_combout $end
$var wire 1 m" controle|EnB~2_combout $end
$var wire 1 n" controle|EnB~3_combout $end
$var wire 1 o" controle|EnB~regout $end
$var wire 1 p" regb|FimA~regout $end
$var wire 1 q" controle|SELM~2_combout $end
$var wire 1 r" controle|state.s4~regout $end
$var wire 1 s" controle|DIV~regout $end
$var wire 1 t" controle|EnResto~3_combout $end
$var wire 1 u" controle|EnResto~4_combout $end
$var wire 1 v" controle|EnResto~6_combout $end
$var wire 1 w" controle|EnResto~5_combout $end
$var wire 1 x" controle|EnResto~regout $end
$var wire 1 y" regResto|FimResto~feeder_combout $end
$var wire 1 z" regResto|FimResto~regout $end
$var wire 1 {" controle|SELM~0_combout $end
$var wire 1 |" controle|EnA~0_combout $end
$var wire 1 }" controle|EnA~regout $end
$var wire 1 ~" rom|temp_rtl_0|auto_generated|ram_block1a2 $end
$var wire 1 !# controle|contador~9_combout $end
$var wire 1 "# controle|Add1~3 $end
$var wire 1 ## controle|Add1~5 $end
$var wire 1 $# controle|Add1~6_combout $end
$var wire 1 %# controle|contador~10_combout $end
$var wire 1 &# controle|contador~11_combout $end
$var wire 1 '# controle|Add1~7 $end
$var wire 1 (# controle|Add1~9 $end
$var wire 1 )# controle|Add1~10_combout $end
$var wire 1 *# controle|contador~14_combout $end
$var wire 1 +# controle|contador~15_combout $end
$var wire 1 ,# antiloop|Equal0~3_combout $end
$var wire 1 -# controle|EnResto~2_combout $end
$var wire 1 .# controle|EnC~0_combout $end
$var wire 1 /# controle|EnC~1_combout $end
$var wire 1 0# controle|EnC~2_combout $end
$var wire 1 1# controle|EnC~regout $end
$var wire 1 2# regc|FimC~feeder_combout $end
$var wire 1 3# regc|FimC~regout $end
$var wire 1 4# controle|state~10_combout $end
$var wire 1 5# controle|state.s3~regout $end
$var wire 1 6# controle|SELM~regout $end
$var wire 1 7# alu|alu1|Add2~2_combout $end
$var wire 1 8# resultado[0]~0_combout $end
$var wire 1 9# alu|alu1|Add2~3_combout $end
$var wire 1 :# alu|alu1|Add2~5_combout $end
$var wire 1 ;# resultado[1]~1_combout $end
$var wire 1 <# alu|alu1|Add2~8_combout $end
$var wire 1 =# resultado[2]~2_combout $end
$var wire 1 ># resultado[3]~3_combout $end
$var wire 1 ?# resultado[4]~4_combout $end
$var wire 1 @# resultado[5]~5_combout $end
$var wire 1 A# resultado[6]~6_combout $end
$var wire 1 B# controle|Add1~12_combout $end
$var wire 1 C# controle|Add0~12_combout $end
$var wire 1 D# controle|contador~16_combout $end
$var wire 1 E# controle|contador~17_combout $end
$var wire 1 F# resultado[7]~7_combout $end
$var wire 1 G# resultado[8]~8_combout $end
$var wire 1 H# resultado[9]~9_combout $end
$var wire 1 I# antiloop|saidaA~26_combout $end
$var wire 1 J# resultado[10]~10_combout $end
$var wire 1 K# resultado[11]~11_combout $end
$var wire 1 L# resultado[12]~12_combout $end
$var wire 1 M# resultado[13]~13_combout $end
$var wire 1 N# resultado[14]~14_combout $end
$var wire 1 O# resultado[15]~15_combout $end
$var wire 1 P# regResto|saidaResto[3]~feeder_combout $end
$var wire 1 Q# regResto|saidaResto[4]~feeder_combout $end
$var wire 1 R# regResto|saidaResto[6]~feeder_combout $end
$var wire 1 S# regResto|saidaResto[7]~feeder_combout $end
$var wire 1 T# antiloopd|saidaA [15] $end
$var wire 1 U# antiloopd|saidaA [14] $end
$var wire 1 V# antiloopd|saidaA [13] $end
$var wire 1 W# antiloopd|saidaA [12] $end
$var wire 1 X# antiloopd|saidaA [11] $end
$var wire 1 Y# antiloopd|saidaA [10] $end
$var wire 1 Z# antiloopd|saidaA [9] $end
$var wire 1 [# antiloopd|saidaA [8] $end
$var wire 1 \# antiloopd|saidaA [7] $end
$var wire 1 ]# antiloopd|saidaA [6] $end
$var wire 1 ^# antiloopd|saidaA [5] $end
$var wire 1 _# antiloopd|saidaA [4] $end
$var wire 1 `# antiloopd|saidaA [3] $end
$var wire 1 a# antiloopd|saidaA [2] $end
$var wire 1 b# antiloopd|saidaA [1] $end
$var wire 1 c# antiloopd|saidaA [0] $end
$var wire 1 d# regb|saidaA [15] $end
$var wire 1 e# regb|saidaA [14] $end
$var wire 1 f# regb|saidaA [13] $end
$var wire 1 g# regb|saidaA [12] $end
$var wire 1 h# regb|saidaA [11] $end
$var wire 1 i# regb|saidaA [10] $end
$var wire 1 j# regb|saidaA [9] $end
$var wire 1 k# regb|saidaA [8] $end
$var wire 1 l# regb|saidaA [7] $end
$var wire 1 m# regb|saidaA [6] $end
$var wire 1 n# regb|saidaA [5] $end
$var wire 1 o# regb|saidaA [4] $end
$var wire 1 p# regb|saidaA [3] $end
$var wire 1 q# regb|saidaA [2] $end
$var wire 1 r# regb|saidaA [1] $end
$var wire 1 s# regb|saidaA [0] $end
$var wire 1 t# regc|saidaC [15] $end
$var wire 1 u# regc|saidaC [14] $end
$var wire 1 v# regc|saidaC [13] $end
$var wire 1 w# regc|saidaC [12] $end
$var wire 1 x# regc|saidaC [11] $end
$var wire 1 y# regc|saidaC [10] $end
$var wire 1 z# regc|saidaC [9] $end
$var wire 1 {# regc|saidaC [8] $end
$var wire 1 |# regc|saidaC [7] $end
$var wire 1 }# regc|saidaC [6] $end
$var wire 1 ~# regc|saidaC [5] $end
$var wire 1 !$ regc|saidaC [4] $end
$var wire 1 "$ regc|saidaC [3] $end
$var wire 1 #$ regc|saidaC [2] $end
$var wire 1 $$ regc|saidaC [1] $end
$var wire 1 %$ regc|saidaC [0] $end
$var wire 1 &$ controle|contador [7] $end
$var wire 1 '$ controle|contador [6] $end
$var wire 1 ($ controle|contador [5] $end
$var wire 1 )$ controle|contador [4] $end
$var wire 1 *$ controle|contador [3] $end
$var wire 1 +$ controle|contador [2] $end
$var wire 1 ,$ controle|contador [1] $end
$var wire 1 -$ controle|contador [0] $end
$var wire 1 .$ antiloop|saidaA [15] $end
$var wire 1 /$ antiloop|saidaA [14] $end
$var wire 1 0$ antiloop|saidaA [13] $end
$var wire 1 1$ antiloop|saidaA [12] $end
$var wire 1 2$ antiloop|saidaA [11] $end
$var wire 1 3$ antiloop|saidaA [10] $end
$var wire 1 4$ antiloop|saidaA [9] $end
$var wire 1 5$ antiloop|saidaA [8] $end
$var wire 1 6$ antiloop|saidaA [7] $end
$var wire 1 7$ antiloop|saidaA [6] $end
$var wire 1 8$ antiloop|saidaA [5] $end
$var wire 1 9$ antiloop|saidaA [4] $end
$var wire 1 :$ antiloop|saidaA [3] $end
$var wire 1 ;$ antiloop|saidaA [2] $end
$var wire 1 <$ antiloop|saidaA [1] $end
$var wire 1 =$ antiloop|saidaA [0] $end
$var wire 1 >$ regResto|saidaResto [15] $end
$var wire 1 ?$ regResto|saidaResto [14] $end
$var wire 1 @$ regResto|saidaResto [13] $end
$var wire 1 A$ regResto|saidaResto [12] $end
$var wire 1 B$ regResto|saidaResto [11] $end
$var wire 1 C$ regResto|saidaResto [10] $end
$var wire 1 D$ regResto|saidaResto [9] $end
$var wire 1 E$ regResto|saidaResto [8] $end
$var wire 1 F$ regResto|saidaResto [7] $end
$var wire 1 G$ regResto|saidaResto [6] $end
$var wire 1 H$ regResto|saidaResto [5] $end
$var wire 1 I$ regResto|saidaResto [4] $end
$var wire 1 J$ regResto|saidaResto [3] $end
$var wire 1 K$ regResto|saidaResto [2] $end
$var wire 1 L$ regResto|saidaResto [1] $end
$var wire 1 M$ regResto|saidaResto [0] $end
$var wire 1 N$ controle|Endereco [8] $end
$var wire 1 O$ controle|Endereco [7] $end
$var wire 1 P$ controle|Endereco [6] $end
$var wire 1 Q$ controle|Endereco [5] $end
$var wire 1 R$ controle|Endereco [4] $end
$var wire 1 S$ controle|Endereco [3] $end
$var wire 1 T$ controle|Endereco [2] $end
$var wire 1 U$ controle|Endereco [1] $end
$var wire 1 V$ controle|Endereco [0] $end
$var wire 1 W$ rega|saidaA [15] $end
$var wire 1 X$ rega|saidaA [14] $end
$var wire 1 Y$ rega|saidaA [13] $end
$var wire 1 Z$ rega|saidaA [12] $end
$var wire 1 [$ rega|saidaA [11] $end
$var wire 1 \$ rega|saidaA [10] $end
$var wire 1 ]$ rega|saidaA [9] $end
$var wire 1 ^$ rega|saidaA [8] $end
$var wire 1 _$ rega|saidaA [7] $end
$var wire 1 `$ rega|saidaA [6] $end
$var wire 1 a$ rega|saidaA [5] $end
$var wire 1 b$ rega|saidaA [4] $end
$var wire 1 c$ rega|saidaA [3] $end
$var wire 1 d$ rega|saidaA [2] $end
$var wire 1 e$ rega|saidaA [1] $end
$var wire 1 f$ rega|saidaA [0] $end
$var wire 1 g$ rom|temp_rtl_0|auto_generated|ram_block1a0_PORTADATAOUT_bus [7] $end
$var wire 1 h$ rom|temp_rtl_0|auto_generated|ram_block1a0_PORTADATAOUT_bus [6] $end
$var wire 1 i$ rom|temp_rtl_0|auto_generated|ram_block1a0_PORTADATAOUT_bus [5] $end
$var wire 1 j$ rom|temp_rtl_0|auto_generated|ram_block1a0_PORTADATAOUT_bus [4] $end
$var wire 1 k$ rom|temp_rtl_0|auto_generated|ram_block1a0_PORTADATAOUT_bus [3] $end
$var wire 1 l$ rom|temp_rtl_0|auto_generated|ram_block1a0_PORTADATAOUT_bus [2] $end
$var wire 1 m$ rom|temp_rtl_0|auto_generated|ram_block1a0_PORTADATAOUT_bus [1] $end
$var wire 1 n$ rom|temp_rtl_0|auto_generated|ram_block1a0_PORTADATAOUT_bus [0] $end
$upscope $end
$upscope $end
$enddefinitions $end
#0
$dumpvars
0!
01
00
0/
0.
0-
0,
0+
0*
0)
0(
0'
0&
0%
0$
0#
0"
09
08
07
06
05
04
03
02
0I
0H
0G
0F
0E
0D
0C
0B
0A
0@
0?
0>
0=
0<
0;
0:
0Y
0X
0W
0V
0U
0T
0S
0R
0Q
0P
0O
0N
0M
0L
0K
0J
0i
0h
0g
0f
0e
0d
0c
0b
0a
0`
0_
0^
0]
0\
0[
0Z
xj
0k
1l
xm
1n
1o
1p
0q
0r
0s
0t
0u
1v
0w
0x
1y
1z
1{
0|
1}
0~
1!!
0"!
0#!
0$!
0%!
0&!
0'!
0(!
1)!
0*!
0+!
0,!
0-!
0.!
0/!
00!
11!
02!
03!
04!
05!
06!
07!
08!
09!
1:!
0;!
0<!
0=!
0>!
0?!
1@!
0A!
0B!
0C!
0D!
0E!
1F!
0G!
0H!
0I!
0J!
1K!
0L!
0M!
1N!
0O!
0P!
0Q!
1R!
0S!
0T!
0U!
0V!
0W!
0X!
0Y!
0Z!
0[!
0\!
0]!
0^!
1_!
0`!
1a!
0b!
0c!
0d!
1e!
0f!
0g!
0h!
0i!
1j!
0k!
0l!
0m!
0n!
0o!
0p!
0q!
0r!
0s!
0t!
0u!
1v!
0w!
0x!
0y!
0z!
1{!
0|!
0}!
0~!
0!"
1""
0#"
1$"
1%"
0&"
0'"
1("
0)"
0*"
0+"
1,"
1-"
0."
0/"
00"
01"
12"
03"
04"
15"
16"
17"
18"
09"
1:"
1;"
0<"
0="
1>"
0?"
0@"
0A"
1B"
1C"
0D"
0E"
1F"
0G"
0H"
0I"
1J"
0K"
0L"
0M"
1N"
0O"
1P"
1Q"
0R"
0S"
0T"
1U"
0V"
1W"
0X"
0Y"
1Z"
1["
0\"
0]"
0^"
0_"
0`"
1a"
0b"
1c"
0d"
1e"
0f"
0g"
0h"
0i"
0j"
0k"
0l"
0m"
0n"
0o"
0p"
1q"
0r"
0s"
0t"
0u"
0v"
0w"
0x"
0y"
0z"
1{"
0|"
0}"
0~"
0!#
1"#
0##
0$#
0%#
0&#
1'#
0(#
0)#
0*#
0+#
1,#
1-#
0.#
1/#
10#
01#
02#
03#
04#
05#
06#
07#
08#
09#
0:#
0;#
0<#
0=#
0>#
0?#
0@#
0A#
0B#
1C#
0D#
0E#
0F#
0G#
0H#
0I#
0J#
0K#
0L#
0M#
0N#
0O#
0P#
0Q#
0R#
0S#
0c#
0b#
0a#
0`#
0_#
0^#
0]#
0\#
0[#
0Z#
0Y#
0X#
0W#
0V#
0U#
0T#
0s#
0r#
0q#
0p#
0o#
0n#
0m#
0l#
zk#
zj#
zi#
zh#
zg#
zf#
ze#
zd#
0%$
0$$
0#$
0"$
0!$
0~#
0}#
0|#
0{#
0z#
0y#
0x#
0w#
0v#
0u#
0t#
0-$
0,$
0+$
0*$
0)$
0($
0'$
0&$
0=$
0<$
0;$
0:$
09$
08$
07$
06$
05$
04$
03$
02$
01$
00$
0/$
0.$
0M$
0L$
0K$
0J$
0I$
0H$
0G$
0F$
0E$
0D$
0C$
0B$
0A$
0@$
0?$
0>$
zV$
0U$
0T$
zS$
zR$
zQ$
zP$
zO$
zN$
0f$
0e$
0d$
0c$
0b$
0a$
0`$
0_$
z^$
z]$
z\$
z[$
zZ$
zY$
zX$
zW$
0n$
0m$
0l$
0k$
0j$
0i$
0h$
0g$
$end
#5000
1!
14!
15!
0j
#5001
1m$
1k$
1?!
1V!
#10000
0!
04!
05!
1j
11#
12#
#15000
1!
14!
15!
0j
13#
00#
1|"
1I!
1<!
18!
13!
#20000
0!
04!
05!
1j
12!
19!
1J!
1}"
01#
14#
0:!
03!
0F"
0B"
0>"
0:"
0,"
0("
0$"
0R!
0)!
02#
1;!
1I"
1H"
1D"
1?"
1<"
0C"
1@"
0;"
11"
1)"
1&"
0%"
0-"
1*"
10"
1."
1O#
0J"
0I"
1N#
0@"
1L#
0D"
1M#
0<"
1K#
02"
0*"
1G#
0&"
0."
1H#
01"
1J#
1"
1#
1%
1$
1&
1)
1(
1'
0O#
1J"
0M#
0N#
0L#
0H#
12"
0G#
0J#
0K#
0"
0$
0#
0%
0(
0)
0'
0&
#25000
1!
14!
15!
0j
03#
1c$
17!
1e$
04#
10#
0|"
0I!
08!
1d!
0q"
1n"
1#!
1b!
1s
19#
1\!
1c!
1:#
1P#
1>#
1;#
1.
10
#25001
0k$
0V!
#30000
0!
04!
05!
1j
1U$
1o"
0}"
#35000
1!
14!
15!
0j
1b#
1p"
1`#
1r#
07!
0{"
1m"
1A!
1^!
0@!
0<!
1H
1F
0n"
1t"
09#
0e!
0\!
0-#
0:#
1f!
0;#
0a"
1<#
00
1=#
1/
#35001
1n$
1l$
1>!
1~"
#40000
0!
04!
05!
1j
0o"
11#
12#
#45000
1!
14!
15!
0j
1a#
0b#
1"$
1#$
13#
0p"
14#
18!
1{"
1q"
0m"
0A!
1G
0H
1V
1W
1|"
1I!
1<!
00#
0t"
#50000
0!
04!
05!
1j
02!
0J!
1}"
01#
15#
04#
1=!
0<#
1F"
1B"
1>"
1:"
1,"
1("
1$"
1R!
1)!
02#
1:!
16!
0=#
1b"
1I"
1D"
1<"
1@"
11"
1&"
1%"
1*"
1."
0;!
0/
1O#
0J"
1N#
1L#
1M#
1K#
02"
1G#
0)"
0&"
1H#
1J#
1"
1#
1%
1$
1&
1)
1(
1'
1-"
0*"
0G#
0)
00"
0."
0H#
0(
1;"
01"
0J#
0'
0?"
0<"
0K#
12"
0&
1C"
0@"
0L#
0%
0H"
0D"
0M#
0$
0I"
0N#
0#
0O#
1J"
0"
#55000
1!
14!
15!
0j
0a#
03#
1d$
0c$
17!
1f$
1W!
10#
0|"
0I!
08!
06!
0d!
0q"
1n"
1"!
0G
1i!
0f!
1r
0b!
0s
1X!
1q
1s
1<#
0c!
17#
1=#
0b"
0P#
0>#
0c"
18#
1/
0.
11
1c"
1d"
0d"
0e"
1e"
1f"
0f"
1g"
0g"
1k"
0k"
#55001
0n$
0m$
1k$
0>!
0?!
1V!
#60000
0!
04!
05!
1j
0U$
1T$
1o"
0}"
#65000
1!
14!
15!
0j
1a#
1c#
1q#
1p"
0`#
0r#
07!
1p#
1b"
1h!
0{"
1m"
1A!
1a"
0^!
0<!
0c"
1$!
1G
1I
0F
1f!
0r
0n"
1t"
0b"
19#
1e!
1\!
1d"
1r!
1b!
0j!
0s
0<#
1:#
0f!
0e"
0v!
1s!
1c!
1k!
0=#
1b"
1;#
1f"
1t
1w!
1t!
1P#
1>#
1c"
0/
10
1.
0c"
1g"
0v
1u
1x!
1Q#
1?#
0d"
1-
1k"
1x
1w
1}!
1@#
1e"
1y!
1,
0y
1_"
1R#
1A#
0f"
1+
0$"
1S#
1F#
0g"
1*
0%"
0k"
1)"
1&"
0-"
1*"
1G#
02"
1)
10"
1."
1H#
1(
0;"
11"
1J#
1'
1?"
1<"
1K#
1&
0C"
1@"
1L#
0J"
1%
1H"
1D"
1M#
1$
1I"
1N#
1#
1O#
1"
#65001
1n$
0l$
1j$
1>!
0~"
1D!
#70000
0!
04!
05!
1j
0o"
11#
12#
#75000
1!
14!
15!
0j
1U#
1V#
1W#
1X#
1Z#
1[#
1\#
0a#
1b#
1t#
1u#
1v#
1w#
1x#
1y#
1z#
1{#
1|#
1}#
1~#
1!$
0#$
1$$
1%$
13#
0p"
1T#
1Y#
1]#
1^#
1_#
1`#
18!
16!
1{"
1q"
0m"
0A!
1;
1<
1=
1>
1@
1A
1B
0G
1H
1J
1K
1L
1M
1N
1O
1P
1Q
1R
1S
1T
1U
0W
1X
1Y
1:
1?
1C
1D
1E
1F
1|"
1I!
1<!
00#
0t"
