Turma2_2017020700_2017001212_2017005113/SISTEMA_FINAL/simulation/qsim/SISTEMA_FINAL.msim.vcd
$comment
	File created using the following command:
		vcd file SISTEMA_FINAL.msim.vcd -direction
$end
$date
	Mon Jul 02 15:22:24 2018
$end
$version
	ModelSim Version 10.1d
$end
$timescale
	1ps
$end
$scope module SISTEMA_FINAL_vlg_vec_tst $end
$var reg 1 ! clk $end
$var wire 1 " saida [15] $end
$var wire 1 # saida [14] $end
$var wire 1 $ saida [13] $end
$var wire 1 % saida [12] $end
$var wire 1 & saida [11] $end
$var wire 1 ' saida [10] $end
$var wire 1 ( saida [9] $end
$var wire 1 ) saida [8] $end
$var wire 1 * saida [7] $end
$var wire 1 + saida [6] $end
$var wire 1 , saida [5] $end
$var wire 1 - saida [4] $end
$var wire 1 . saida [3] $end
$var wire 1 / saida [2] $end
$var wire 1 0 saida [1] $end
$var wire 1 1 saida [0] $end
$var wire 1 2 saidaResto [15] $end
$var wire 1 3 saidaResto [14] $end
$var wire 1 4 saidaResto [13] $end
$var wire 1 5 saidaResto [12] $end
$var wire 1 6 saidaResto [11] $end
$var wire 1 7 saidaResto [10] $end
$var wire 1 8 saidaResto [9] $end
$var wire 1 9 saidaResto [8] $end
$var wire 1 : saidaResto [7] $end
$var wire 1 ; saidaResto [6] $end
$var wire 1 < saidaResto [5] $end
$var wire 1 = saidaResto [4] $end
$var wire 1 > saidaResto [3] $end
$var wire 1 ? saidaResto [2] $end
$var wire 1 @ saidaResto [1] $end
$var wire 1 A saidaResto [0] $end
$var wire 1 B sampler $end
$scope module i1 $end
$var wire 1 C gnd $end
$var wire 1 D vcc $end
$var wire 1 E unknown $end
$var tri1 1 F devclrn $end
$var tri1 1 G devpor $end
$var tri1 1 H devoe $end
$var wire 1 I alu|alu1|Add0~14_combout $end
$var wire 1 J controle|Add0~0_combout $end
$var wire 1 K controle|Add1~0_combout $end
$var wire 1 L controle|Add0~2_combout $end
$var wire 1 M controle|Add0~4_combout $end
$var wire 1 N controle|Add0~6_combout $end
$var wire 1 O controle|Add0~8_combout $end
$var wire 1 P controle|Add0~10_combout $end
$var wire 1 Q controle|Add0~13 $end
$var wire 1 R controle|Add0~14_combout $end
$var wire 1 S SaidaMuxM[0]~0_combout $end
$var wire 1 T SaidaMuxM[3]~3_combout $end
$var wire 1 U SaidaMuxM[5]~5_combout $end
$var wire 1 V SaidaMuxD[7]~7_combout $end
$var wire 1 W alu|alu2|Add0~0_combout $end
$var wire 1 X SaidaMuxD[9]~9_combout $end
$var wire 1 Y alu|alu2|Add0~8_combout $end
$var wire 1 Z SaidaMuxD[11]~11_combout $end
$var wire 1 [ SaidaMuxD[12]~12_combout $end
$var wire 1 \ alu|alu2|Add0~17_combout $end
$var wire 1 ] alu|alu2|Add0~20_combout $end
$var wire 1 ^ SaidaMuxD[15]~15_combout $end
$var wire 1 _ controle|resetResto~regout $end
$var wire 1 ` controle|EnC~0_combout $end
$var wire 1 a controle|contador[1]~23_combout $end
$var wire 1 b controle|contador[1]~24_combout $end
$var wire 1 c controle|contador[2]~26_combout $end
$var wire 1 d controle|EnResto~0_combout $end
$var wire 1 e controle|resetResto~2_combout $end
$var wire 1 f controle|EnB~0_combout $end
$var wire 1 g controle|EnB~1_combout $end
$var wire 1 h controle|multp~1_combout $end
$var wire 1 i antiloop|saidaA~32_combout $end
$var wire 1 j antiloop|saidaA~35_combout $end
$var wire 1 k antiloop|saidaA~37_combout $end
$var wire 1 l antiloop|saidaA~45_combout $end
$var wire 1 m antiloop|saidaA~46_combout $end
$var wire 1 n controle|resetResto~3_combout $end
$var wire 1 o antiloop|saidaA[3]~feeder_combout $end
$var wire 1 p clk~combout $end
$var wire 1 q clk~clkctrl_outclk $end
$var wire 1 r controle|state~14_combout $end
$var wire 1 s rega|FimA~regout $end
$var wire 1 t controle|state~11_combout $end
$var wire 1 u controle|state.s4~regout $end
$var wire 1 v controle|state~12_combout $end
$var wire 1 w controle|state.s1~regout $end
$var wire 1 x controle|Endereco~0_combout $end
$var wire 1 y controle|Endereco[1]~3_combout $end
$var wire 1 z controle|Endereco[1]~1_combout $end
$var wire 1 { controle|state~13_combout $end
$var wire 1 | controle|state.s2~regout $end
$var wire 1 } controle|Endereco~2_combout $end
$var wire 1 ~ rom|temp_rtl_0|auto_generated|ram_block1a6 $end
$var wire 1 !! rom|temp_rtl_0|auto_generated|ram_block1a4 $end
$var wire 1 "! rega|saidaA[4]~feeder_combout $end
$var wire 1 #! rom|temp_rtl_0|auto_generated|ram_block1a5 $end
$var wire 1 $! controle|Equal1~1_combout $end
$var wire 1 %! rom|temp_rtl_0|auto_generated|ram_block1a1 $end
$var wire 1 &! rom|temp_rtl_0|auto_generated|ram_block1a2 $end
$var wire 1 '! controle|Equal1~0_combout $end
$var wire 1 (! rom|temp_rtl_0|auto_generated|ram_block1a7 $end
$var wire 1 )! controle|DIV~feeder_combout $end
$var wire 1 *! controle|SELM~1_combout $end
$var wire 1 +! controle|DIV~regout $end
$var wire 1 ,! controle|Op~feeder_combout $end
$var wire 1 -! controle|Op~regout $end
$var wire 1 .! controle|Equal0~1_combout $end
$var wire 1 /! rom|temp_rtl_0|auto_generated|ram_block1a0~portadataout $end
$var wire 1 0! controle|Equal0~0_combout $end
$var wire 1 1! controle|Equal0~2_combout $end
$var wire 1 2! controle|contador[0]~16_combout $end
$var wire 1 3! regb|FimA~feeder_combout $end
$var wire 1 4! regb|FimA~regout $end
$var wire 1 5! controle|contador[0]~15_combout $end
$var wire 1 6! controle|contador[0]~17_combout $end
$var wire 1 7! controle|contador[0]~12_combout $end
$var wire 1 8! controle|contador[0]~13_combout $end
$var wire 1 9! controle|menor~0_combout $end
$var wire 1 :! controle|SELD~2_combout $end
$var wire 1 ;! controle|SELD~3_combout $end
$var wire 1 <! controle|SELD~regout $end
$var wire 1 =! SaidaMuxD[3]~3_combout $end
$var wire 1 >! SaidaMuxD[2]~2_combout $end
$var wire 1 ?! alu|alu1|Add2~0_combout $end
$var wire 1 @! alu|alu1|Add0~0_combout $end
$var wire 1 A! regResto|saidaResto[0]~0_combout $end
$var wire 1 B! SaidaMuxD[0]~0_combout $end
$var wire 1 C! alu|alu1|Add2~1 $end
$var wire 1 D! alu|alu1|Add2~2_combout $end
$var wire 1 E! SaidaMuxD[1]~1_combout $end
$var wire 1 F! alu|alu1|Add0~1 $end
$var wire 1 G! alu|alu1|Add0~2_combout $end
$var wire 1 H! regResto|saidaResto[1]~1_combout $end
$var wire 1 I! antiloop|saidaA~33_combout $end
$var wire 1 J! SaidaMuxM[1]~1_combout $end
$var wire 1 K! alu|alu1|Add2~3 $end
$var wire 1 L! alu|alu1|Add2~4_combout $end
$var wire 1 M! alu|alu1|Add0~3 $end
$var wire 1 N! alu|alu1|Add0~4_combout $end
$var wire 1 O! regResto|saidaResto[2]~2_combout $end
$var wire 1 P! antiloop|saidaA~34_combout $end
$var wire 1 Q! SaidaMuxM[2]~2_combout $end
$var wire 1 R! alu|alu1|Add0~5 $end
$var wire 1 S! alu|alu1|Add0~6_combout $end
$var wire 1 T! alu|alu1|Add2~5 $end
$var wire 1 U! alu|alu1|Add2~6_combout $end
$var wire 1 V! regResto|saidaResto[3]~3_combout $end
$var wire 1 W! controle|LessThan2~1_cout $end
$var wire 1 X! controle|LessThan2~3_cout $end
$var wire 1 Y! controle|LessThan2~5_cout $end
$var wire 1 Z! controle|LessThan2~7_cout $end
$var wire 1 [! controle|LessThan2~9_cout $end
$var wire 1 \! controle|LessThan2~11_cout $end
$var wire 1 ]! controle|LessThan2~13_cout $end
$var wire 1 ^! controle|LessThan2~14_combout $end
$var wire 1 _! controle|contador[0]~31_combout $end
$var wire 1 `! controle|contador[0]~32_combout $end
$var wire 1 a! SaidaMuxD[14]~14_combout $end
$var wire 1 b! controle|contador[4]~2_combout $end
$var wire 1 c! controle|Add1~1 $end
$var wire 1 d! controle|Add1~3 $end
$var wire 1 e! controle|Add1~5 $end
$var wire 1 f! controle|Add1~7 $end
$var wire 1 g! controle|Add1~8_combout $end
$var wire 1 h! controle|contador[5]~33_combout $end
$var wire 1 i! controle|contador[0]~20_combout $end
$var wire 1 j! controle|contador[2]~27_combout $end
$var wire 1 k! antiloop|saidaA~43_combout $end
$var wire 1 l! alu|alu2|Add0~11_combout $end
$var wire 1 m! SaidaMuxD[6]~6_combout $end
$var wire 1 n! SaidaMuxD[4]~4_combout $end
$var wire 1 o! alu|alu1|Add2~7 $end
$var wire 1 p! alu|alu1|Add2~8_combout $end
$var wire 1 q! alu|alu1|Add0~7 $end
$var wire 1 r! alu|alu1|Add0~8_combout $end
$var wire 1 s! regResto|saidaResto[4]~4_combout $end
$var wire 1 t! antiloop|saidaA~36_combout $end
$var wire 1 u! SaidaMuxM[4]~4_combout $end
$var wire 1 v! alu|alu1|Add0~9 $end
$var wire 1 w! alu|alu1|Add0~10_combout $end
$var wire 1 x! alu|alu1|Add2~9 $end
$var wire 1 y! alu|alu1|Add2~10_combout $end
$var wire 1 z! regResto|saidaResto[5]~5_combout $end
$var wire 1 {! SaidaMuxD[5]~5_combout $end
$var wire 1 |! alu|alu1|Add0~11 $end
$var wire 1 }! alu|alu1|Add0~12_combout $end
$var wire 1 ~! alu|alu1|Add2~11 $end
$var wire 1 !" alu|alu1|Add2~12_combout $end
$var wire 1 "" regResto|saidaResto[6]~6_combout $end
$var wire 1 #" antiloop|saidaA~38_combout $end
$var wire 1 $" SaidaMuxM[6]~6_combout $end
$var wire 1 %" alu|alu1|Add2~13 $end
$var wire 1 &" alu|alu1|Add2~15 $end
$var wire 1 '" alu|alu1|Add2~16_combout $end
$var wire 1 (" alu|alu1|Add0~13 $end
$var wire 1 )" alu|alu1|Add0~15 $end
$var wire 1 *" alu|alu1|Add0~16_combout $end
$var wire 1 +" alu|alu1|Add2~18_combout $end
$var wire 1 ," alu|alu2|Add0~2_cout $end
$var wire 1 -" alu|alu2|Add0~3_combout $end
$var wire 1 ." SaidaMuxD[8]~8_combout $end
$var wire 1 /" alu|alu2|Add0~4 $end
$var wire 1 0" alu|alu2|Add0~6_combout $end
$var wire 1 1" antiloop|saidaA~41_combout $end
$var wire 1 2" alu|alu2|Add0~5_combout $end
$var wire 1 3" alu|alu2|Add0~7 $end
$var wire 1 4" alu|alu2|Add0~9_combout $end
$var wire 1 5" SaidaMuxD[10]~10_combout $end
$var wire 1 6" alu|alu2|Add0~10 $end
$var wire 1 7" alu|alu2|Add0~12_combout $end
$var wire 1 8" controle|LessThan3~0_combout $end
$var wire 1 9" controle|contador[2]~28_combout $end
$var wire 1 :" controle|contador[2]~29_combout $end
$var wire 1 ;" controle|contador[2]~30_combout $end
$var wire 1 <" controle|contador[2]~0_combout $end
$var wire 1 =" controle|Add1~4_combout $end
$var wire 1 >" controle|Add0~1 $end
$var wire 1 ?" controle|Add0~3 $end
$var wire 1 @" controle|Add0~5 $end
$var wire 1 A" controle|Add0~7 $end
$var wire 1 B" controle|Add0~9 $end
$var wire 1 C" controle|Add0~11 $end
$var wire 1 D" controle|Add0~12_combout $end
$var wire 1 E" controle|contador[6]~4_combout $end
$var wire 1 F" controle|contador[5]~3_combout $end
$var wire 1 G" controle|Add1~9 $end
$var wire 1 H" controle|Add1~10_combout $end
$var wire 1 I" controle|Add1~11 $end
$var wire 1 J" controle|Add1~12_combout $end
$var wire 1 K" controle|contador[7]~5_combout $end
$var wire 1 L" controle|Add1~13 $end
$var wire 1 M" controle|Add1~14_combout $end
$var wire 1 N" antiloop|Equal0~1_combout $end
$var wire 1 O" alu|alu2|Add0~13 $end
$var wire 1 P" alu|alu2|Add0~15_combout $end
$var wire 1 Q" antiloop|saidaA~44_combout $end
$var wire 1 R" alu|alu2|Add0~14_combout $end
$var wire 1 S" alu|alu2|Add0~16 $end
$var wire 1 T" alu|alu2|Add0~18_combout $end
$var wire 1 U" SaidaMuxD[13]~13_combout $end
$var wire 1 V" alu|alu2|Add0~19 $end
$var wire 1 W" alu|alu2|Add0~21_combout $end
$var wire 1 X" antiloop|saidaA~47_combout $end
$var wire 1 Y" alu|alu2|Add0~23_combout $end
$var wire 1 Z" alu|alu2|Add0~22 $end
$var wire 1 [" alu|alu2|Add0~24_combout $end
$var wire 1 \" controle|LessThan3~1_combout $end
$var wire 1 ]" controle|contador[0]~14_combout $end
$var wire 1 ^" controle|contador[0]~19_combout $end
$var wire 1 _" controle|contador[0]~21_combout $end
$var wire 1 `" antiloop|saidaA~39_combout $end
$var wire 1 a" SaidaMuxM[7]~7_combout $end
$var wire 1 b" alu|alu1|Add2~14_combout $end
$var wire 1 c" regResto|saidaResto[7]~7_combout $end
$var wire 1 d" controle|LessThan3~3_cout $end
$var wire 1 e" controle|LessThan3~5_cout $end
$var wire 1 f" controle|LessThan3~7_cout $end
$var wire 1 g" controle|LessThan3~9_cout $end
$var wire 1 h" controle|LessThan3~11_cout $end
$var wire 1 i" controle|LessThan3~13_cout $end
$var wire 1 j" controle|LessThan3~15_cout $end
$var wire 1 k" controle|LessThan3~16_combout $end
$var wire 1 l" controle|contador[0]~18_combout $end
$var wire 1 m" controle|EnB~2_combout $end
$var wire 1 n" controle|EnB~regout $end
$var wire 1 o" controle|LessThan1~1_cout $end
$var wire 1 p" controle|LessThan1~3_cout $end
$var wire 1 q" controle|LessThan1~5_cout $end
$var wire 1 r" controle|LessThan1~7_cout $end
$var wire 1 s" controle|LessThan1~9_cout $end
$var wire 1 t" controle|LessThan1~11_cout $end
$var wire 1 u" controle|LessThan1~13_cout $end
$var wire 1 v" controle|LessThan1~14_combout $end
$var wire 1 w" controle|multp~0_combout $end
$var wire 1 x" controle|EnResto~1_combout $end
$var wire 1 y" controle|always1~1_combout $end
$var wire 1 z" controle|LessThan3~18_combout $end
$var wire 1 {" controle|EnResto~2_combout $end
$var wire 1 |" controle|EnResto~3_combout $end
$var wire 1 }" controle|EnResto~regout $end
$var wire 1 ~" regResto|FimResto~0_combout $end
$var wire 1 !# regResto|FimResto~regout $end
$var wire 1 "# controle|SELM~0_combout $end
$var wire 1 ## controle|EnA~0_combout $end
$var wire 1 $# controle|EnA~regout $end
$var wire 1 %# rom|temp_rtl_0|auto_generated|ram_block1a3 $end
$var wire 1 &# regb|saidaA[3]~feeder_combout $end
$var wire 1 '# controle|contador[3]~1_combout $end
$var wire 1 (# controle|Add1~6_combout $end
$var wire 1 )# antiloop|Equal0~0_combout $end
$var wire 1 *# antiloop|Equal0~2_combout $end
$var wire 1 +# controle|multp~2_combout $end
$var wire 1 ,# controle|multp~3_combout $end
$var wire 1 -# controle|multp~4_combout $end
$var wire 1 .# controle|multp~5_combout $end
$var wire 1 /# controle|multp~regout $end
$var wire 1 0# controle|always1~0_combout $end
$var wire 1 1# controle|EnC~1_combout $end
$var wire 1 2# controle|EnC~2_combout $end
$var wire 1 3# controle|EnC~regout $end
$var wire 1 4# regc|FimC~regout $end
$var wire 1 5# controle|state~10_combout $end
$var wire 1 6# controle|state.s3~regout $end
$var wire 1 7# controle|SELM~feeder_combout $end
$var wire 1 8# controle|SELM~regout $end
$var wire 1 9# resultado[0]~0_combout $end
$var wire 1 :# resultado[1]~1_combout $end
$var wire 1 ;# controle|Add1~2_combout $end
$var wire 1 <# controle|contador[1]~22_combout $end
$var wire 1 =# controle|contador[1]~25_combout $end
$var wire 1 ># resultado[2]~2_combout $end
$var wire 1 ?# resultado[3]~3_combout $end
$var wire 1 @# resultado[4]~4_combout $end
$var wire 1 A# resultado[5]~5_combout $end
$var wire 1 B# resultado[6]~6_combout $end
$var wire 1 C# resultado[7]~7_combout $end
$var wire 1 D# antiloop|saidaA~40_combout $end
$var wire 1 E# resultado[8]~8_combout $end
$var wire 1 F# resultado[9]~9_combout $end
$var wire 1 G# antiloop|saidaA~42_combout $end
$var wire 1 H# resultado[10]~10_combout $end
$var wire 1 I# resultado[11]~11_combout $end
$var wire 1 J# resultado[12]~12_combout $end
$var wire 1 K# resultado[13]~13_combout $end
$var wire 1 L# resultado[14]~14_combout $end
$var wire 1 M# resultado[15]~15_combout $end
$var wire 1 N# regResto|saidaResto[0]~feeder_combout $end
$var wire 1 O# controle|menor~1_combout $end
$var wire 1 P# controle|menor~2_combout $end
$var wire 1 Q# controle|menor~regout $end
$var wire 1 R# regResto|saidaResto[6]~8_combout $end
$var wire 1 S# regResto|saidaResto[1]~feeder_combout $end
$var wire 1 T# regResto|saidaResto[2]~feeder_combout $end
$var wire 1 U# regResto|saidaResto[3]~feeder_combout $end
$var wire 1 V# regResto|saidaResto[4]~feeder_combout $end
$var wire 1 W# regResto|saidaResto[5]~feeder_combout $end
$var wire 1 X# regResto|saidaResto[6]~feeder_combout $end
$var wire 1 Y# controle|contador [7] $end
$var wire 1 Z# controle|contador [6] $end
$var wire 1 [# controle|contador [5] $end
$var wire 1 \# controle|contador [4] $end
$var wire 1 ]# controle|contador [3] $end
$var wire 1 ^# controle|contador [2] $end
$var wire 1 _# controle|contador [1] $end
$var wire 1 `# controle|contador [0] $end
$var wire 1 a# regc|saidaC [15] $end
$var wire 1 b# regc|saidaC [14] $end
$var wire 1 c# regc|saidaC [13] $end
$var wire 1 d# regc|saidaC [12] $end
$var wire 1 e# regc|saidaC [11] $end
$var wire 1 f# regc|saidaC [10] $end
$var wire 1 g# regc|saidaC [9] $end
$var wire 1 h# regc|saidaC [8] $end
$var wire 1 i# regc|saidaC [7] $end
$var wire 1 j# regc|saidaC [6] $end
$var wire 1 k# regc|saidaC [5] $end
$var wire 1 l# regc|saidaC [4] $end
$var wire 1 m# regc|saidaC [3] $end
$var wire 1 n# regc|saidaC [2] $end
$var wire 1 o# regc|saidaC [1] $end
$var wire 1 p# regc|saidaC [0] $end
$var wire 1 q# controle|Endereco [8] $end
$var wire 1 r# controle|Endereco [7] $end
$var wire 1 s# controle|Endereco [6] $end
$var wire 1 t# controle|Endereco [5] $end
$var wire 1 u# controle|Endereco [4] $end
$var wire 1 v# controle|Endereco [3] $end
$var wire 1 w# controle|Endereco [2] $end
$var wire 1 x# controle|Endereco [1] $end
$var wire 1 y# controle|Endereco [0] $end
$var wire 1 z# regb|saidaA [15] $end
$var wire 1 {# regb|saidaA [14] $end
$var wire 1 |# regb|saidaA [13] $end
$var wire 1 }# regb|saidaA [12] $end
$var wire 1 ~# regb|saidaA [11] $end
$var wire 1 !$ regb|saidaA [10] $end
$var wire 1 "$ regb|saidaA [9] $end
$var wire 1 #$ regb|saidaA [8] $end
$var wire 1 $$ regb|saidaA [7] $end
$var wire 1 %$ regb|saidaA [6] $end
$var wire 1 &$ regb|saidaA [5] $end
$var wire 1 '$ regb|saidaA [4] $end
$var wire 1 ($ regb|saidaA [3] $end
$var wire 1 )$ regb|saidaA [2] $end
$var wire 1 *$ regb|saidaA [1] $end
$var wire 1 +$ regb|saidaA [0] $end
$var wire 1 ,$ regResto|saidaResto [15] $end
$var wire 1 -$ regResto|saidaResto [14] $end
$var wire 1 .$ regResto|saidaResto [13] $end
$var wire 1 /$ regResto|saidaResto [12] $end
$var wire 1 0$ regResto|saidaResto [11] $end
$var wire 1 1$ regResto|saidaResto [10] $end
$var wire 1 2$ regResto|saidaResto [9] $end
$var wire 1 3$ regResto|saidaResto [8] $end
$var wire 1 4$ regResto|saidaResto [7] $end
$var wire 1 5$ regResto|saidaResto [6] $end
$var wire 1 6$ regResto|saidaResto [5] $end
$var wire 1 7$ regResto|saidaResto [4] $end
$var wire 1 8$ regResto|saidaResto [3] $end
$var wire 1 9$ regResto|saidaResto [2] $end
$var wire 1 :$ regResto|saidaResto [1] $end
$var wire 1 ;$ regResto|saidaResto [0] $end
$var wire 1 <$ antiloopd|saidaA [15] $end
$var wire 1 =$ antiloopd|saidaA [14] $end
$var wire 1 >$ antiloopd|saidaA [13] $end
$var wire 1 ?$ antiloopd|saidaA [12] $end
$var wire 1 @$ antiloopd|saidaA [11] $end
$var wire 1 A$ antiloopd|saidaA [10] $end
$var wire 1 B$ antiloopd|saidaA [9] $end
$var wire 1 C$ antiloopd|saidaA [8] $end
$var wire 1 D$ antiloopd|saidaA [7] $end
$var wire 1 E$ antiloopd|saidaA [6] $end
$var wire 1 F$ antiloopd|saidaA [5] $end
$var wire 1 G$ antiloopd|saidaA [4] $end
$var wire 1 H$ antiloopd|saidaA [3] $end
$var wire 1 I$ antiloopd|saidaA [2] $end
$var wire 1 J$ antiloopd|saidaA [1] $end
$var wire 1 K$ antiloopd|saidaA [0] $end
$var wire 1 L$ rega|saidaA [15] $end
$var wire 1 M$ rega|saidaA [14] $end
$var wire 1 N$ rega|saidaA [13] $end
$var wire 1 O$ rega|saidaA [12] $end
$var wire 1 P$ rega|saidaA [11] $end
$var wire 1 Q$ rega|saidaA [10] $end
$var wire 1 R$ rega|saidaA [9] $end
$var wire 1 S$ rega|saidaA [8] $end
$var wire 1 T$ rega|saidaA [7] $end
$var wire 1 U$ rega|saidaA [6] $end
$var wire 1 V$ rega|saidaA [5] $end
$var wire 1 W$ rega|saidaA [4] $end
$var wire 1 X$ rega|saidaA [3] $end
$var wire 1 Y$ rega|saidaA [2] $end
$var wire 1 Z$ rega|saidaA [1] $end
$var wire 1 [$ rega|saidaA [0] $end
$var wire 1 \$ antiloop|saidaA [15] $end
$var wire 1 ]$ antiloop|saidaA [14] $end
$var wire 1 ^$ antiloop|saidaA [13] $end
$var wire 1 _$ antiloop|saidaA [12] $end
$var wire 1 `$ antiloop|saidaA [11] $end
$var wire 1 a$ antiloop|saidaA [10] $end
$var wire 1 b$ antiloop|saidaA [9] $end
$var wire 1 c$ antiloop|saidaA [8] $end
$var wire 1 d$ antiloop|saidaA [7] $end
$var wire 1 e$ antiloop|saidaA [6] $end
$var wire 1 f$ antiloop|saidaA [5] $end
$var wire 1 g$ antiloop|saidaA [4] $end
$var wire 1 h$ antiloop|saidaA [3] $end
$var wire 1 i$ antiloop|saidaA [2] $end
$var wire 1 j$ antiloop|saidaA [1] $end
$var wire 1 k$ antiloop|saidaA [0] $end
$var wire 1 l$ rom|temp_rtl_0|auto_generated|ram_block1a0_PORTADATAOUT_bus [7] $end
$var wire 1 m$ rom|temp_rtl_0|auto_generated|ram_block1a0_PORTADATAOUT_bus [6] $end
$var wire 1 n$ rom|temp_rtl_0|auto_generated|ram_block1a0_PORTADATAOUT_bus [5] $end
$var wire 1 o$ rom|temp_rtl_0|auto_generated|ram_block1a0_PORTADATAOUT_bus [4] $end
$var wire 1 p$ rom|temp_rtl_0|auto_generated|ram_block1a0_PORTADATAOUT_bus [3] $end
$var wire 1 q$ rom|temp_rtl_0|auto_generated|ram_block1a0_PORTADATAOUT_bus [2] $end
$var wire 1 r$ rom|temp_rtl_0|auto_generated|ram_block1a0_PORTADATAOUT_bus [1] $end
$var wire 1 s$ rom|temp_rtl_0|auto_generated|ram_block1a0_PORTADATAOUT_bus [0] $end
$upscope $end
$upscope $end
$enddefinitions $end
#0
$dumpvars
0!
01
00
0/
0.
0-
0,
0+
0*
0)
0(
0'
0&
0%
0$
0#
0"
0A
0@
0?
0>
0=
0<
0;
0:
09
08
07
06
05
04
03
02
xB
0C
1D
xE
1F
1G
1H
0I
1J
1K
1L
1M
1N
1O
1P
0Q
1R
0S
0T
0U
0V
1W
0X
1Y
0Z
0[
1\
1]
0^
0_
0`
0a
0b
1c
0d
0e
0f
0g
0h
0i
0j
0k
0l
0m
1n
0o
0p
0q
0r
0s
1t
0u
0v
0w
1x
0y
0z
0{
0|
0}
0~
0!!
0"!
0#!
1$!
0%!
0&!
1'!
0(!
0)!
0*!
0+!
1,!
0-!
1.!
0/!
10!
11!
02!
03!
04!
05!
06!
07!
08!
09!
0:!
0;!
0<!
0=!
0>!
0?!
0@!
0A!
0B!
1C!
0D!
0E!
0F!
0G!
0H!
0I!
0J!
0K!
0L!
1M!
0N!
0O!
0P!
0Q!
0R!
0S!
1T!
0U!
0V!
0W!
1X!
0Y!
1Z!
0[!
1\!
0]!
0^!
0_!
0`!
0a!
0b!
0c!
1d!
0e!
1f!
0g!
1h!
0i!
1j!
0k!
1l!
0m!
0n!
0o!
0p!
1q!
0r!
0s!
0t!
0u!
0v!
0w!
1x!
0y!
0z!
0{!
1|!
0}!
0~!
0!"
0""
0#"
0$"
1%"
0&"
1'"
0("
1)"
0*"
1+"
1,"
0-"
0."
0/"
00"
01"
12"
13"
04"
05"
06"
07"
18"
09"
0:"
0;"
0<"
0="
0>"
1?"
0@"
1A"
0B"
1C"
1D"
0E"
0F"
0G"
0H"
1I"
0J"
0K"
0L"
0M"
1N"
1O"
0P"
0Q"
1R"
0S"
0T"
0U"
1V"
0W"
0X"
1Y"
0Z"
0["
1\"
0]"
0^"
0_"
0`"
0a"
0b"
0c"
0d"
1e"
0f"
1g"
0h"
1i"
0j"
0k"
0l"
0m"
0n"
0o"
1p"
0q"
1r"
0s"
1t"
0u"
0v"
0w"
0x"
1y"
0z"
1{"
0|"
0}"
0~"
0!#
0"#
0##
0$#
0%#
0&#
0'#
0(#
1)#
1*#
0+#
0,#
0-#
0.#
0/#
00#
01#
12#
03#
04#
05#
06#
07#
08#
09#
0:#
0;#
0<#
0=#
0>#
0?#
0@#
0A#
0B#
0C#
0D#
0E#
0F#
0G#
0H#
0I#
0J#
0K#
0L#
0M#
0N#
0O#
0P#
0Q#
0R#
0S#
0T#
0U#
0V#
0W#
0X#
0`#
0_#
0^#
0]#
0\#
0[#
0Z#
0Y#
0p#
0o#
0n#
0m#
0l#
0k#
0j#
0i#
0h#
0g#
0f#
0e#
0d#
0c#
0b#
0a#
zy#
0x#
0w#
zv#
zu#
zt#
zs#
zr#
zq#
0+$
0*$
0)$
0($
0'$
0&$
0%$
0$$
z#$
z"$
z!$
z~#
z}#
z|#
z{#
zz#
0;$
0:$
09$
08$
07$
06$
05$
04$
z3$
z2$
z1$
z0$
z/$
z.$
z-$
z,$
0K$
0J$
0I$
0H$
0G$
0F$
0E$
0D$
0C$
0B$
0A$
0@$
0?$
0>$
0=$
0<$
0[$
0Z$
0Y$
0X$
0W$
0V$
0U$
0T$
zS$
zR$
zQ$
zP$
zO$
zN$
zM$
zL$
0k$
0j$
0i$
0h$
0g$
0f$
0e$
0d$
0c$
0b$
0a$
0`$
0_$
0^$
0]$
0\$
0s$
0r$
0q$
0p$
0o$
0n$
0m$
0l$
$end
#3000
1!
1p
1q
0B
#3001
1r$
1o$
1n$
1%!
1!!
1#!
1"!
#6000
0!
0p
0q
1B
13#
#9000
1!
1p
1q
0B
14#
02#
1"#
1{
1v
0c
1##
1_"
1*!
1z
0j!
1;"
#12000
0!
0p
0q
1B
1w
1|
1-!
1$#
03#
0{
0x
15#
0Y"
0R"
02"
0+"
0l!
0]
0\
0Y
0W
0,!
1y
1["
1S"
1P"
03"
10"
0,"
0O"
17"
1Z"
1W"
0V"
1T"
16"
14"
1/"
1-"
1M#
0\"
0T"
1J#
04"
1F#
08"
0-"
0P"
1I#
0["
1L#
0W"
1K#
07"
1H#
00"
1E#
0K#
1\"
0H#
18"
0E#
0J#
0M#
0L#
0I#
0F#
#15000
1!
1p
1q
0B
04#
1Z$
1V$
1W$
1s
05#
12#
0"#
0v
1c
1E!
0'!
1{!
0$!
1n!
0##
0_"
0*!
0t
1j!
1G!
1D!
1w"
1y!
1w!
1r!
1p!
0;"
1H!
1z!
1s!
1S#
1:#
0X!
1W#
1A#
0\!
1V#
1@#
1[!
1Y!
1]!
0Z!
1^!
#15001
1s$
1p$
0o$
1/!
1%#
0!!
1&#
0"!
#18000
0!
0p
0q
1B
1x#
1n"
0$#
13!
1g
1m"
#21000
1!
1p
1q
0B
1($
1F$
1G$
1J$
14!
1+$
1*$
1&$
0s
1'#
0r"
0g"
1Z!
00!
1T
10#
1_!
0c
1o"
1d"
12!
1S
1X!
1J!
1a
1F"
0.!
1U
0z
01!
1o!
1U!
1S!
02#
11#
0j!
0g
1e
0p"
0e"
1@!
0C!
1?!
0Y!
0M!
0G!
0D!
0y!
0|!
0w!
0y"
0p!
1V!
12#
0m"
1q"
1f"
1A!
1K!
1D!
1N!
0H!
0z!
1}!
1=#
0{"
1U#
1?#
1N#
19#
0d"
0T!
1L!
1O!
0S#
0:#
0W#
0A#
0i"
1\!
1""
0U!
1T#
1>#
0f"
1Y!
1X#
1B#
1g"
0Z!
#21001
0r$
0p$
0%!
0%#
0&#
#24000
0!
0p
0q
1B
1_
0n"
13#
1R#
03!
#27000
1!
1p
1q
0B
1j#
1l#
1m#
1n#
1p#
14#
0F$
1E$
0J$
1K$
1I$
1H$
04!
15#
1"#
1v
00#
0_!
1t
1+
1-
1.
1/
11
1##
1_"
1*!
1z
0e
01#
1;"
0=#
02#
#30000
0!
0p
0q
1B
0_
0|
0-!
1$#
03#
16#
0R#
05#
1}
1Y"
1R"
12"
1+"
0""
0s!
1l!
0V!
1H!
1]
1\
1Y
1W
17#
1x
1r
1["
1P"
10"
1,"
0X#
0B#
1j"
0]!
0V#
0@#
17"
0U#
0?#
0g"
1Z!
1S#
1:#
1e"
1W"
1T"
14"
1-"
1,!
0y
1M#
0\"
1J#
1F#
08"
0/"
0-"
1k"
0^!
1I#
1h"
0[!
1L#
1K#
1H#
1E#
13"
00"
0E#
06"
04"
0F#
1O"
07"
0H#
0S"
0P"
0I#
18"
1V"
0T"
0J#
0Z"
0W"
0K#
0["
0L#
0M#
1\"
1z"
1y"
1{"
