Turma2_2017020700_2017001212_2017005113/SISTEMA_FINAL/simulation/qsim/SISTEMA_FINAL.msim.vcd
$comment
	File created using the following command:
		vcd file SISTEMA_FINAL.msim.vcd -direction
$end
$date
	Mon Jul 02 16:06:14 2018
$end
$version
	ModelSim Version 10.1d
$end
$timescale
	1ps
$end
$scope module SISTEMA_FINAL_vlg_vec_tst $end
$var reg 1 ! clk $end
$var wire 1 " saida [15] $end
$var wire 1 # saida [14] $end
$var wire 1 $ saida [13] $end
$var wire 1 % saida [12] $end
$var wire 1 & saida [11] $end
$var wire 1 ' saida [10] $end
$var wire 1 ( saida [9] $end
$var wire 1 ) saida [8] $end
$var wire 1 * saida [7] $end
$var wire 1 + saida [6] $end
$var wire 1 , saida [5] $end
$var wire 1 - saida [4] $end
$var wire 1 . saida [3] $end
$var wire 1 / saida [2] $end
$var wire 1 0 saida [1] $end
$var wire 1 1 saida [0] $end
$var wire 1 2 saidaResto [15] $end
$var wire 1 3 saidaResto [14] $end
$var wire 1 4 saidaResto [13] $end
$var wire 1 5 saidaResto [12] $end
$var wire 1 6 saidaResto [11] $end
$var wire 1 7 saidaResto [10] $end
$var wire 1 8 saidaResto [9] $end
$var wire 1 9 saidaResto [8] $end
$var wire 1 : saidaResto [7] $end
$var wire 1 ; saidaResto [6] $end
$var wire 1 < saidaResto [5] $end
$var wire 1 = saidaResto [4] $end
$var wire 1 > saidaResto [3] $end
$var wire 1 ? saidaResto [2] $end
$var wire 1 @ saidaResto [1] $end
$var wire 1 A saidaResto [0] $end
$var wire 1 B sampler $end
$scope module i1 $end
$var wire 1 C gnd $end
$var wire 1 D vcc $end
$var wire 1 E unknown $end
$var tri1 1 F devclrn $end
$var tri1 1 G devpor $end
$var tri1 1 H devoe $end
$var wire 1 I controle|Add1~0_combout $end
$var wire 1 J controle|Add1~2_combout $end
$var wire 1 K controle|Add0~2_combout $end
$var wire 1 L controle|Add0~8_combout $end
$var wire 1 M SaidaMuxD[1]~1_combout $end
$var wire 1 N SaidaMuxM[3]~3_combout $end
$var wire 1 O SaidaMuxM[4]~4_combout $end
$var wire 1 P alu|alu2|Add0~0_combout $end
$var wire 1 Q alu|alu2|Add0~5_combout $end
$var wire 1 R alu|alu2|Add0~8_combout $end
$var wire 1 S alu|alu2|Add0~11_combout $end
$var wire 1 T SaidaMuxD[12]~12_combout $end
$var wire 1 U alu|alu2|Add0~17_combout $end
$var wire 1 V SaidaMuxD[14]~14_combout $end
$var wire 1 W controle|Equal1~0_combout $end
$var wire 1 X controle|EnC~0_combout $end
$var wire 1 Y controle|contador[1]~23_combout $end
$var wire 1 Z controle|contador[1]~24_combout $end
$var wire 1 [ controle|contador[2]~26_combout $end
$var wire 1 \ controle|contador[2]~27_combout $end
$var wire 1 ] antiloopm|saidaALM~19_combout $end
$var wire 1 ^ antiloopm|saidaALM~20_combout $end
$var wire 1 _ antiloopm|saidaALM~21_combout $end
$var wire 1 ` controle|EnResto~0_combout $end
$var wire 1 a antiloopm|saidaALM~25_combout $end
$var wire 1 b controle|resetResto~3_combout $end
$var wire 1 c clk~combout $end
$var wire 1 d clk~clkctrl_outclk $end
$var wire 1 e rega|FimA~feeder_combout $end
$var wire 1 f rega|FimA~regout $end
$var wire 1 g controle|resetResto~2_combout $end
$var wire 1 h controle|resetResto~regout $end
$var wire 1 i regResto|FimResto~0_combout $end
$var wire 1 j regResto|FimResto~regout $end
$var wire 1 k controle|Endereco~0_combout $end
$var wire 1 l controle|Endereco[1]~3_combout $end
$var wire 1 m controle|Endereco[1]~1_combout $end
$var wire 1 n controle|Endereco~2_combout $end
$var wire 1 o rom|temp_rtl_0|auto_generated|ram_block1a6 $end
$var wire 1 p regb|saidaA[6]~feeder_combout $end
$var wire 1 q controle|contador[0]~31_combout $end
$var wire 1 r controle|SELM~1_combout $end
$var wire 1 s controle|Op~regout $end
$var wire 1 t controle|contador[4]~2_combout $end
$var wire 1 u controle|contador[0]~15_combout $end
$var wire 1 v controle|Add0~0_combout $end
$var wire 1 w rom|temp_rtl_0|auto_generated|ram_block1a0~portadataout $end
$var wire 1 x rom|temp_rtl_0|auto_generated|ram_block1a3 $end
$var wire 1 y rom|temp_rtl_0|auto_generated|ram_block1a2 $end
$var wire 1 z controle|Equal0~0_combout $end
$var wire 1 { rom|temp_rtl_0|auto_generated|ram_block1a7 $end
$var wire 1 | rom|temp_rtl_0|auto_generated|ram_block1a5 $end
$var wire 1 } controle|Equal0~1_combout $end
$var wire 1 ~ controle|Equal0~2_combout $end
$var wire 1 !! controle|contador[0]~16_combout $end
$var wire 1 "! controle|contador[0]~17_combout $end
$var wire 1 #! SaidaMuxD[7]~7_combout $end
$var wire 1 $! SaidaMuxM[5]~5_combout $end
$var wire 1 %! alu|alu1|Add2~0_combout $end
$var wire 1 &! antiloopm|Equal0~2_combout $end
$var wire 1 '! antiloopm|saidaALM~16_combout $end
$var wire 1 (! SaidaMuxM[0]~0_combout $end
$var wire 1 )! alu|alu1|Add2~1 $end
$var wire 1 *! alu|alu1|Add2~3_combout $end
$var wire 1 +! alu|alu1|Add0~0_combout $end
$var wire 1 ,! alu|alu1|Add2~2_combout $end
$var wire 1 -! SaidaMuxD[0]~0_combout $end
$var wire 1 .! alu|alu1|Add0~1 $end
$var wire 1 /! alu|alu1|Add0~2_combout $end
$var wire 1 0! antiloopm|saidaALM~17_combout $end
$var wire 1 1! rom|temp_rtl_0|auto_generated|ram_block1a1 $end
$var wire 1 2! SaidaMuxM[1]~1_combout $end
$var wire 1 3! alu|alu1|Add0~3 $end
$var wire 1 4! alu|alu1|Add0~4_combout $end
$var wire 1 5! antiloopm|saidaALM~18_combout $end
$var wire 1 6! SaidaMuxM[2]~2_combout $end
$var wire 1 7! alu|alu1|Add2~4 $end
$var wire 1 8! alu|alu1|Add2~6_combout $end
$var wire 1 9! alu|alu1|Add2~8_combout $end
$var wire 1 :! controle|state~14_combout $end
$var wire 1 ;! controle|state~11_combout $end
$var wire 1 <! controle|state.s4~regout $end
$var wire 1 =! controle|DIV~feeder_combout $end
$var wire 1 >! controle|DIV~regout $end
$var wire 1 ?! controle|menor~0_combout $end
$var wire 1 @! controle|SELD~2_combout $end
$var wire 1 A! controle|SELD~3_combout $end
$var wire 1 B! controle|SELD~regout $end
$var wire 1 C! SaidaMuxD[2]~2_combout $end
$var wire 1 D! alu|alu1|Add0~5 $end
$var wire 1 E! alu|alu1|Add0~6_combout $end
$var wire 1 F! alu|alu1|Add2~7 $end
$var wire 1 G! alu|alu1|Add2~9_combout $end
$var wire 1 H! alu|alu1|Add2~11_combout $end
$var wire 1 I! SaidaMuxD[3]~3_combout $end
$var wire 1 J! alu|alu1|Add2~10 $end
$var wire 1 K! alu|alu1|Add2~12_combout $end
$var wire 1 L! alu|alu1|Add0~7 $end
$var wire 1 M! alu|alu1|Add0~8_combout $end
$var wire 1 N! alu|alu1|Add2~14_combout $end
$var wire 1 O! SaidaMuxD[4]~4_combout $end
$var wire 1 P! alu|alu1|Add2~13 $end
$var wire 1 Q! alu|alu1|Add2~16 $end
$var wire 1 R! alu|alu1|Add2~18_combout $end
$var wire 1 S! antiloopm|saidaALM~22_combout $end
$var wire 1 T! SaidaMuxM[6]~6_combout $end
$var wire 1 U! alu|alu1|Add2~15_combout $end
$var wire 1 V! alu|alu1|Add0~9 $end
$var wire 1 W! alu|alu1|Add0~10_combout $end
$var wire 1 X! alu|alu1|Add2~17_combout $end
$var wire 1 Y! SaidaMuxD[5]~5_combout $end
$var wire 1 Z! alu|alu1|Add0~11 $end
$var wire 1 [! alu|alu1|Add0~12_combout $end
$var wire 1 \! alu|alu1|Add2~20_combout $end
$var wire 1 ]! SaidaMuxD[6]~6_combout $end
$var wire 1 ^! alu|alu1|Add2~19 $end
$var wire 1 _! alu|alu1|Add2~21_combout $end
$var wire 1 `! antiloopm|saidaALM~23_combout $end
$var wire 1 a! SaidaMuxM[7]~7_combout $end
$var wire 1 b! alu|alu1|Add0~13 $end
$var wire 1 c! alu|alu1|Add0~14_combout $end
$var wire 1 d! alu|alu1|Add2~23_combout $end
$var wire 1 e! alu|alu1|Add2~5_combout $end
$var wire 1 f! controle|LessThan3~3_cout $end
$var wire 1 g! controle|LessThan3~5_cout $end
$var wire 1 h! controle|LessThan3~7_cout $end
$var wire 1 i! controle|LessThan3~9_cout $end
$var wire 1 j! controle|LessThan3~11_cout $end
$var wire 1 k! controle|LessThan3~13_cout $end
$var wire 1 l! controle|LessThan3~15_cout $end
$var wire 1 m! controle|LessThan3~16_combout $end
$var wire 1 n! controle|contador[0]~12_combout $end
$var wire 1 o! controle|contador[0]~13_combout $end
$var wire 1 p! controle|LessThan2~1_cout $end
$var wire 1 q! controle|LessThan2~3_cout $end
$var wire 1 r! controle|LessThan2~5_cout $end
$var wire 1 s! controle|LessThan2~7_cout $end
$var wire 1 t! controle|LessThan2~9_cout $end
$var wire 1 u! controle|LessThan2~11_cout $end
$var wire 1 v! controle|LessThan2~13_cout $end
$var wire 1 w! controle|LessThan2~14_combout $end
$var wire 1 x! controle|contador[0]~32_combout $end
$var wire 1 y! controle|contador[0]~14_combout $end
$var wire 1 z! SaidaMuxD[9]~9_combout $end
$var wire 1 {! alu|alu1|Add2~22 $end
$var wire 1 |! alu|alu1|Add2~24_combout $end
$var wire 1 }! alu|alu1|Add0~15 $end
$var wire 1 ~! alu|alu1|Add0~16_combout $end
$var wire 1 !" alu|alu1|Add2~26_combout $end
$var wire 1 "" alu|alu2|Add0~2_cout $end
$var wire 1 #" alu|alu2|Add0~3_combout $end
$var wire 1 $" SaidaMuxD[8]~8_combout $end
$var wire 1 %" alu|alu2|Add0~4 $end
$var wire 1 &" alu|alu2|Add0~6_combout $end
$var wire 1 '" SaidaMuxD[10]~10_combout $end
$var wire 1 (" alu|alu2|Add0~7 $end
$var wire 1 )" alu|alu2|Add0~9_combout $end
$var wire 1 *" SaidaMuxD[11]~11_combout $end
$var wire 1 +" alu|alu2|Add0~10 $end
$var wire 1 ," alu|alu2|Add0~12_combout $end
$var wire 1 -" controle|LessThan3~0_combout $end
$var wire 1 ." controle|contador[0]~18_combout $end
$var wire 1 /" controle|contador[0]~19_combout $end
$var wire 1 0" controle|contador[0]~21_combout $end
$var wire 1 1" controle|Add1~1 $end
$var wire 1 2" controle|Add1~3 $end
$var wire 1 3" controle|Add1~5 $end
$var wire 1 4" controle|Add1~7 $end
$var wire 1 5" controle|Add1~8_combout $end
$var wire 1 6" controle|contador[2]~33_combout $end
$var wire 1 7" controle|contador[0]~20_combout $end
$var wire 1 8" controle|contador[2]~28_combout $end
$var wire 1 9" controle|contador[2]~29_combout $end
$var wire 1 :" controle|contador[2]~30_combout $end
$var wire 1 ;" antiloopm|Equal0~0_combout $end
$var wire 1 <" antiloopm|saidaALM~28_combout $end
$var wire 1 =" alu|alu2|Add0~14_combout $end
$var wire 1 >" alu|alu2|Add0~13 $end
$var wire 1 ?" alu|alu2|Add0~15_combout $end
$var wire 1 @" antiloopm|saidaALM~31_combout $end
$var wire 1 A" alu|alu2|Add0~23_combout $end
$var wire 1 B" SaidaMuxD[15]~15_combout $end
$var wire 1 C" alu|alu2|Add0~16 $end
$var wire 1 D" alu|alu2|Add0~18_combout $end
$var wire 1 E" SaidaMuxD[13]~13_combout $end
$var wire 1 F" alu|alu2|Add0~19 $end
$var wire 1 G" alu|alu2|Add0~21_combout $end
$var wire 1 H" antiloopm|saidaALM~30_combout $end
$var wire 1 I" alu|alu2|Add0~20_combout $end
$var wire 1 J" alu|alu2|Add0~22 $end
$var wire 1 K" alu|alu2|Add0~24_combout $end
$var wire 1 L" controle|LessThan3~1_combout $end
$var wire 1 M" controle|always1~1_combout $end
$var wire 1 N" controle|LessThan3~18_combout $end
$var wire 1 O" controle|contador[1]~22_combout $end
$var wire 1 P" controle|contador[1]~25_combout $end
$var wire 1 Q" controle|Add0~1 $end
$var wire 1 R" controle|Add0~3 $end
$var wire 1 S" controle|Add0~4_combout $end
$var wire 1 T" controle|contador[2]~0_combout $end
$var wire 1 U" controle|Add1~4_combout $end
$var wire 1 V" controle|Add0~5 $end
$var wire 1 W" controle|Add0~6_combout $end
$var wire 1 X" controle|contador[3]~1_combout $end
$var wire 1 Y" controle|Add1~6_combout $end
$var wire 1 Z" controle|Add0~7 $end
$var wire 1 [" controle|Add0~9 $end
$var wire 1 \" controle|Add0~11 $end
$var wire 1 ]" controle|Add0~12_combout $end
$var wire 1 ^" controle|contador[6]~4_combout $end
$var wire 1 _" controle|Add0~10_combout $end
$var wire 1 `" controle|contador[5]~3_combout $end
$var wire 1 a" controle|Add1~9 $end
$var wire 1 b" controle|Add1~10_combout $end
$var wire 1 c" controle|Add1~11 $end
$var wire 1 d" controle|Add1~12_combout $end
$var wire 1 e" controle|Add0~13 $end
$var wire 1 f" controle|Add0~14_combout $end
$var wire 1 g" controle|contador[7]~5_combout $end
$var wire 1 h" controle|Add1~13 $end
$var wire 1 i" controle|Add1~14_combout $end
$var wire 1 j" antiloopm|Equal0~1_combout $end
$var wire 1 k" controle|EnB~0_combout $end
$var wire 1 l" controle|EnB~1_combout $end
$var wire 1 m" controle|EnB~2_combout $end
$var wire 1 n" controle|EnB~regout $end
$var wire 1 o" regb|FimA~feeder_combout $end
$var wire 1 p" regb|FimA~regout $end
$var wire 1 q" controle|SELM~0_combout $end
$var wire 1 r" controle|EnA~0_combout $end
$var wire 1 s" controle|EnA~regout $end
$var wire 1 t" rom|temp_rtl_0|auto_generated|ram_block1a4 $end
$var wire 1 u" controle|Equal1~1_combout $end
$var wire 1 v" controle|LessThan1~1_cout $end
$var wire 1 w" controle|LessThan1~3_cout $end
$var wire 1 x" controle|LessThan1~5_cout $end
$var wire 1 y" controle|LessThan1~7_cout $end
$var wire 1 z" controle|LessThan1~9_cout $end
$var wire 1 {" controle|LessThan1~11_cout $end
$var wire 1 |" controle|LessThan1~13_cout $end
$var wire 1 }" controle|LessThan1~14_combout $end
$var wire 1 ~" controle|multp~0_combout $end
$var wire 1 !# controle|multp~1_combout $end
$var wire 1 "# controle|multp~4_combout $end
$var wire 1 ## antiloopm|Equal0~3_combout $end
$var wire 1 $# controle|multp~2_combout $end
$var wire 1 %# controle|multp~3_combout $end
$var wire 1 &# controle|EnResto~2_combout $end
$var wire 1 '# controle|multp~5_combout $end
$var wire 1 (# controle|multp~regout $end
$var wire 1 )# controle|always1~0_combout $end
$var wire 1 *# controle|EnC~1_combout $end
$var wire 1 +# controle|EnC~2_combout $end
$var wire 1 ,# controle|EnC~regout $end
$var wire 1 -# regc|FimC~regout $end
$var wire 1 .# controle|state~12_combout $end
$var wire 1 /# controle|state.s1~regout $end
$var wire 1 0# controle|state~13_combout $end
$var wire 1 1# controle|state.s2~regout $end
$var wire 1 2# controle|state~10_combout $end
$var wire 1 3# controle|state.s3~regout $end
$var wire 1 4# controle|SELM~feeder_combout $end
$var wire 1 5# controle|SELM~regout $end
$var wire 1 6# resultado[0]~0_combout $end
$var wire 1 7# resultado[1]~1_combout $end
$var wire 1 8# resultado[2]~2_combout $end
$var wire 1 9# resultado[3]~3_combout $end
$var wire 1 :# resultado[4]~4_combout $end
$var wire 1 ;# resultado[5]~5_combout $end
$var wire 1 <# resultado[6]~6_combout $end
$var wire 1 =# resultado[7]~7_combout $end
$var wire 1 ># antiloopm|saidaALM~24_combout $end
$var wire 1 ?# resultado[8]~8_combout $end
$var wire 1 @# resultado[9]~9_combout $end
$var wire 1 A# antiloopm|saidaALM~26_combout $end
$var wire 1 B# resultado[10]~10_combout $end
$var wire 1 C# antiloopm|saidaALM~27_combout $end
$var wire 1 D# resultado[11]~11_combout $end
$var wire 1 E# resultado[12]~12_combout $end
$var wire 1 F# antiloopm|saidaALM~29_combout $end
$var wire 1 G# resultado[13]~13_combout $end
$var wire 1 H# resultado[14]~14_combout $end
$var wire 1 I# resultado[15]~15_combout $end
$var wire 1 J# regResto|saidaResto~0_combout $end
$var wire 1 K# controle|EnResto~1_combout $end
$var wire 1 L# controle|EnResto~3_combout $end
$var wire 1 M# controle|EnResto~regout $end
$var wire 1 N# regResto|saidaResto[7]~1_combout $end
$var wire 1 O# controle|menor~1_combout $end
$var wire 1 P# controle|menor~2_combout $end
$var wire 1 Q# controle|menor~regout $end
$var wire 1 R# regResto|saidaResto~2_combout $end
$var wire 1 S# regResto|saidaResto~3_combout $end
$var wire 1 T# regResto|saidaResto~4_combout $end
$var wire 1 U# regResto|saidaResto~5_combout $end
$var wire 1 V# regResto|saidaResto~6_combout $end
$var wire 1 W# regResto|saidaResto~7_combout $end
$var wire 1 X# regResto|saidaResto~8_combout $end
$var wire 1 Y# regResto|saidaResto~9_combout $end
$var wire 1 Z# regResto|saidaResto~10_combout $end
$var wire 1 [# regResto|saidaResto~11_combout $end
$var wire 1 \# regResto|saidaResto~12_combout $end
$var wire 1 ]# regResto|saidaResto~13_combout $end
$var wire 1 ^# regResto|saidaResto~14_combout $end
$var wire 1 _# regResto|saidaResto~15_combout $end
$var wire 1 `# regResto|saidaResto~16_combout $end
$var wire 1 a# controle|contador [7] $end
$var wire 1 b# controle|contador [6] $end
$var wire 1 c# controle|contador [5] $end
$var wire 1 d# controle|contador [4] $end
$var wire 1 e# controle|contador [3] $end
$var wire 1 f# controle|contador [2] $end
$var wire 1 g# controle|contador [1] $end
$var wire 1 h# controle|contador [0] $end
$var wire 1 i# regc|saidaC [15] $end
$var wire 1 j# regc|saidaC [14] $end
$var wire 1 k# regc|saidaC [13] $end
$var wire 1 l# regc|saidaC [12] $end
$var wire 1 m# regc|saidaC [11] $end
$var wire 1 n# regc|saidaC [10] $end
$var wire 1 o# regc|saidaC [9] $end
$var wire 1 p# regc|saidaC [8] $end
$var wire 1 q# regc|saidaC [7] $end
$var wire 1 r# regc|saidaC [6] $end
$var wire 1 s# regc|saidaC [5] $end
$var wire 1 t# regc|saidaC [4] $end
$var wire 1 u# regc|saidaC [3] $end
$var wire 1 v# regc|saidaC [2] $end
$var wire 1 w# regc|saidaC [1] $end
$var wire 1 x# regc|saidaC [0] $end
$var wire 1 y# antiloopd|saidaALD [15] $end
$var wire 1 z# antiloopd|saidaALD [14] $end
$var wire 1 {# antiloopd|saidaALD [13] $end
$var wire 1 |# antiloopd|saidaALD [12] $end
$var wire 1 }# antiloopd|saidaALD [11] $end
$var wire 1 ~# antiloopd|saidaALD [10] $end
$var wire 1 !$ antiloopd|saidaALD [9] $end
$var wire 1 "$ antiloopd|saidaALD [8] $end
$var wire 1 #$ antiloopd|saidaALD [7] $end
$var wire 1 $$ antiloopd|saidaALD [6] $end
$var wire 1 %$ antiloopd|saidaALD [5] $end
$var wire 1 &$ antiloopd|saidaALD [4] $end
$var wire 1 '$ antiloopd|saidaALD [3] $end
$var wire 1 ($ antiloopd|saidaALD [2] $end
$var wire 1 )$ antiloopd|saidaALD [1] $end
$var wire 1 *$ antiloopd|saidaALD [0] $end
$var wire 1 +$ controle|Endereco [8] $end
$var wire 1 ,$ controle|Endereco [7] $end
$var wire 1 -$ controle|Endereco [6] $end
$var wire 1 .$ controle|Endereco [5] $end
$var wire 1 /$ controle|Endereco [4] $end
$var wire 1 0$ controle|Endereco [3] $end
$var wire 1 1$ controle|Endereco [2] $end
$var wire 1 2$ controle|Endereco [1] $end
$var wire 1 3$ controle|Endereco [0] $end
$var wire 1 4$ regb|saidaA [15] $end
$var wire 1 5$ regb|saidaA [14] $end
$var wire 1 6$ regb|saidaA [13] $end
$var wire 1 7$ regb|saidaA [12] $end
$var wire 1 8$ regb|saidaA [11] $end
$var wire 1 9$ regb|saidaA [10] $end
$var wire 1 :$ regb|saidaA [9] $end
$var wire 1 ;$ regb|saidaA [8] $end
$var wire 1 <$ regb|saidaA [7] $end
$var wire 1 =$ regb|saidaA [6] $end
$var wire 1 >$ regb|saidaA [5] $end
$var wire 1 ?$ regb|saidaA [4] $end
$var wire 1 @$ regb|saidaA [3] $end
$var wire 1 A$ regb|saidaA [2] $end
$var wire 1 B$ regb|saidaA [1] $end
$var wire 1 C$ regb|saidaA [0] $end
$var wire 1 D$ antiloopm|saidaALM [15] $end
$var wire 1 E$ antiloopm|saidaALM [14] $end
$var wire 1 F$ antiloopm|saidaALM [13] $end
$var wire 1 G$ antiloopm|saidaALM [12] $end
$var wire 1 H$ antiloopm|saidaALM [11] $end
$var wire 1 I$ antiloopm|saidaALM [10] $end
$var wire 1 J$ antiloopm|saidaALM [9] $end
$var wire 1 K$ antiloopm|saidaALM [8] $end
$var wire 1 L$ antiloopm|saidaALM [7] $end
$var wire 1 M$ antiloopm|saidaALM [6] $end
$var wire 1 N$ antiloopm|saidaALM [5] $end
$var wire 1 O$ antiloopm|saidaALM [4] $end
$var wire 1 P$ antiloopm|saidaALM [3] $end
$var wire 1 Q$ antiloopm|saidaALM [2] $end
$var wire 1 R$ antiloopm|saidaALM [1] $end
$var wire 1 S$ antiloopm|saidaALM [0] $end
$var wire 1 T$ rega|saidaA [15] $end
$var wire 1 U$ rega|saidaA [14] $end
$var wire 1 V$ rega|saidaA [13] $end
$var wire 1 W$ rega|saidaA [12] $end
$var wire 1 X$ rega|saidaA [11] $end
$var wire 1 Y$ rega|saidaA [10] $end
$var wire 1 Z$ rega|saidaA [9] $end
$var wire 1 [$ rega|saidaA [8] $end
$var wire 1 \$ rega|saidaA [7] $end
$var wire 1 ]$ rega|saidaA [6] $end
$var wire 1 ^$ rega|saidaA [5] $end
$var wire 1 _$ rega|saidaA [4] $end
$var wire 1 `$ rega|saidaA [3] $end
$var wire 1 a$ rega|saidaA [2] $end
$var wire 1 b$ rega|saidaA [1] $end
$var wire 1 c$ rega|saidaA [0] $end
$var wire 1 d$ regResto|saidaResto [15] $end
$var wire 1 e$ regResto|saidaResto [14] $end
$var wire 1 f$ regResto|saidaResto [13] $end
$var wire 1 g$ regResto|saidaResto [12] $end
$var wire 1 h$ regResto|saidaResto [11] $end
$var wire 1 i$ regResto|saidaResto [10] $end
$var wire 1 j$ regResto|saidaResto [9] $end
$var wire 1 k$ regResto|saidaResto [8] $end
$var wire 1 l$ regResto|saidaResto [7] $end
$var wire 1 m$ regResto|saidaResto [6] $end
$var wire 1 n$ regResto|saidaResto [5] $end
$var wire 1 o$ regResto|saidaResto [4] $end
$var wire 1 p$ regResto|saidaResto [3] $end
$var wire 1 q$ regResto|saidaResto [2] $end
$var wire 1 r$ regResto|saidaResto [1] $end
$var wire 1 s$ regResto|saidaResto [0] $end
$var wire 1 t$ rom|temp_rtl_0|auto_generated|ram_block1a0_PORTADATAOUT_bus [7] $end
$var wire 1 u$ rom|temp_rtl_0|auto_generated|ram_block1a0_PORTADATAOUT_bus [6] $end
$var wire 1 v$ rom|temp_rtl_0|auto_generated|ram_block1a0_PORTADATAOUT_bus [5] $end
$var wire 1 w$ rom|temp_rtl_0|auto_generated|ram_block1a0_PORTADATAOUT_bus [4] $end
$var wire 1 x$ rom|temp_rtl_0|auto_generated|ram_block1a0_PORTADATAOUT_bus [3] $end
$var wire 1 y$ rom|temp_rtl_0|auto_generated|ram_block1a0_PORTADATAOUT_bus [2] $end
$var wire 1 z$ rom|temp_rtl_0|auto_generated|ram_block1a0_PORTADATAOUT_bus [1] $end
$var wire 1 {$ rom|temp_rtl_0|auto_generated|ram_block1a0_PORTADATAOUT_bus [0] $end
$upscope $end
$upscope $end
$enddefinitions $end
#0
$dumpvars
0!
01
00
0/
0.
0-
0,
0+
0*
0)
0(
0'
0&
0%
0$
0#
0"
0A
0@
0?
0>
0=
0<
0;
0:
09
08
07
06
05
04
03
02
xB
0C
1D
xE
1F
1G
1H
1I
0J
1K
1L
0M
0N
0O
1P
1Q
1R
1S
0T
1U
0V
1W
0X
0Y
0Z
1[
1\
0]
0^
0_
0`
0a
1b
0c
0d
0e
0f
0g
0h
0i
0j
1k
0l
0m
0n
0o
0p
0q
0r
0s
0t
0u
1v
0w
0x
0y
1z
0{
0|
1}
1~
0!!
0"!
0#!
0$!
0%!
1&!
0'!
0(!
1)!
0*!
0+!
0,!
0-!
0.!
0/!
00!
01!
02!
13!
04!
05!
06!
07!
08!
09!
0:!
1;!
0<!
0=!
0>!
0?!
0@!
0A!
0B!
0C!
0D!
0E!
1F!
0G!
0H!
0I!
0J!
0K!
1L!
0M!
0N!
0O!
1P!
0Q!
0R!
0S!
0T!
0U!
0V!
0W!
0X!
0Y!
1Z!
0[!
0\!
0]!
1^!
0_!
0`!
0a!
0b!
0c!
0d!
0e!
0f!
1g!
0h!
1i!
0j!
1k!
0l!
0m!
0n!
0o!
0p!
1q!
0r!
1s!
0t!
1u!
0v!
0w!
0x!
0y!
0z!
0{!
1|!
1}!
0~!
1!"
1""
0#"
0$"
0%"
0&"
0'"
1("
0)"
0*"
0+"
0,"
1-"
0."
0/"
00"
01"
12"
03"
14"
05"
16"
07"
08"
09"
0:"
1;"
0<"
1="
1>"
0?"
0@"
1A"
0B"
0C"
0D"
0E"
1F"
0G"
0H"
1I"
0J"
0K"
1L"
1M"
0N"
0O"
0P"
0Q"
1R"
1S"
0T"
0U"
0V"
1W"
0X"
0Y"
1Z"
0["
1\"
1]"
0^"
1_"
0`"
0a"
0b"
1c"
0d"
0e"
1f"
0g"
0h"
0i"
1j"
0k"
0l"
0m"
0n"
0o"
0p"
0q"
0r"
0s"
0t"
1u"
0v"
1w"
0x"
1y"
0z"
1{"
0|"
0}"
0~"
0!#
0"#
1##
0$#
0%#
1&#
0'#
0(#
0)#
0*#
1+#
0,#
0-#
0.#
0/#
00#
01#
02#
03#
04#
05#
06#
07#
08#
09#
0:#
0;#
0<#
0=#
0>#
0?#
0@#
0A#
0B#
0C#
0D#
0E#
0F#
0G#
0H#
0I#
0J#
0K#
0L#
0M#
0N#
0O#
0P#
0Q#
0R#
0S#
0T#
0U#
0V#
0W#
0X#
0Y#
0Z#
0[#
0\#
0]#
0^#
0_#
0`#
0h#
0g#
0f#
0e#
0d#
0c#
0b#
0a#
0x#
0w#
0v#
0u#
0t#
0s#
0r#
0q#
0p#
0o#
0n#
0m#
0l#
0k#
0j#
0i#
0*$
0)$
0($
0'$
0&$
0%$
0$$
0#$
0"$
0!$
0~#
0}#
0|#
0{#
0z#
0y#
z3$
02$
01$
z0$
z/$
z.$
z-$
z,$
z+$
0C$
0B$
0A$
0@$
0?$
0>$
0=$
0<$
z;$
z:$
z9$
z8$
z7$
z6$
z5$
z4$
0S$
0R$
0Q$
0P$
0O$
0N$
0M$
0L$
0K$
0J$
0I$
0H$
0G$
0F$
0E$
0D$
0c$
0b$
0a$
0`$
0_$
0^$
0]$
0\$
z[$
zZ$
zY$
zX$
zW$
zV$
zU$
zT$
0s$
0r$
0q$
0p$
0o$
0n$
0m$
0l$
0k$
0j$
0i$
0h$
0g$
0f$
0e$
0d$
0{$
0z$
0y$
0x$
0w$
0v$
0u$
0t$
$end
#3000
1!
1c
1d
0B
#3001
1z$
1w$
1v$
11!
1t"
1|
#6000
0!
0c
0d
1B
1,#
#9000
1!
1c
1d
0B
1-#
10#
1.#
0+#
1q"
0[
1r"
10"
1r
1m
0\
1:"
#12000
0!
0c
0d
1B
1s
1s"
0,#
1/#
11#
0I"
0A"
0="
0!"
0U
0S
0R
0Q
0P
1e
00#
0k
12#
1J"
1G"
1K"
1C"
1?"
0""
0F"
1D"
0>"
1,"
1+"
1)"
0("
1&"
1%"
1#"
1l
0K"
1_#
1H#
0L"
1`#
1I#
0D"
1]#
1E#
0#"
0G"
1^#
1G#
0?"
1\#
1D#
0-"
0,"
1[#
1B#
0)"
1Z#
1@#
0&"
1Y#
1?#
0`#
0I#
1L"
0^#
0G#
0Y#
0?#
1-"
0_#
0H#
0]#
0E#
0\#
0D#
0[#
0B#
0Z#
0@#
#15000
1!
1c
1d
0B
0-#
1b$
1_$
1^$
1f
02#
0.#
1+#
0q"
1[
0W
1M
0u"
1O!
1Y!
0r"
00"
0;!
0r
1\
1~"
1/!
1*!
1M!
1K!
1W!
1U!
0:"
1e!
1N!
1X!
1R#
17#
0q!
1U#
1:#
1t!
1V#
1;#
0u!
1r!
1v!
0s!
1w!
#15001
1{$
1x$
0w$
1w
1x
0t"
#18000
0!
0c
0d
1B
12$
1n"
0s"
1o"
1l"
0e
1m"
#21000
1!
1c
1d
0B
1p"
1%$
1&$
1B$
1>$
1@$
1C$
0f
1)$
1)#
1q
0[
1q!
12!
0z
1Y
1`"
1$!
0}
0y"
1X"
1s!
0i!
1N
1v"
1f!
1(!
1!!
0m
0+#
1*#
0l"
1g
0\
0r!
03!
0/!
0*!
0~
0Z!
0W!
0U!
1J!
1G!
1E!
0w"
0g!
1+!
0)!
1%!
1+#
0m"
14!
0e!
0M"
1[!
0X!
0K!
1H!
1x"
1h!
1,!
17!
1*!
19!
0R#
07#
0&#
1P"
1\!
0V#
0;#
1u!
0k!
1T#
19#
1J#
16#
0f!
0F!
18!
1S#
18#
1r!
0h!
1W#
1<#
0G!
0s!
1i!
#21001
0z$
0x$
01!
0x
#24000
0!
0c
0d
1B
1h
0n"
1,#
1N#
0o"
#27000
1!
1c
1d
0B
1r#
1t#
1u#
1v#
1x#
1-#
0p"
1$$
0%$
1'$
1($
1*$
0)$
12#
1.#
1q"
0)#
1;!
0q
1+
1-
1.
1/
11
1r"
10"
1r
1m
0g
0*#
1:"
0P"
0+#
