Turma2_2017020700_2017001212_2017005113/SISTEMA_FINAL/simulation/qsim/SISTEMA_FINAL.msim.vcd
$comment
	File created using the following command:
		vcd file SISTEMA_FINAL.msim.vcd -direction
$end
$date
	Sun Jul 01 15:24:19 2018
$end
$version
	ModelSim Version 10.1d
$end
$timescale
	1ps
$end
$scope module SISTEMA_FINAL_vlg_vec_tst $end
$var reg 1 ! clk $end
$var wire 1 " saida [15] $end
$var wire 1 # saida [14] $end
$var wire 1 $ saida [13] $end
$var wire 1 % saida [12] $end
$var wire 1 & saida [11] $end
$var wire 1 ' saida [10] $end
$var wire 1 ( saida [9] $end
$var wire 1 ) saida [8] $end
$var wire 1 * saida [7] $end
$var wire 1 + saida [6] $end
$var wire 1 , saida [5] $end
$var wire 1 - saida [4] $end
$var wire 1 . saida [3] $end
$var wire 1 / saida [2] $end
$var wire 1 0 saida [1] $end
$var wire 1 1 saida [0] $end
$var wire 1 2 sampler $end
$scope module i1 $end
$var wire 1 3 gnd $end
$var wire 1 4 vcc $end
$var wire 1 5 unknown $end
$var tri1 1 6 devclrn $end
$var tri1 1 7 devpor $end
$var tri1 1 8 devoe $end
$var wire 1 9 alu|alu1|Add0~0_combout $end
$var wire 1 : alu|alu1|Add0~2_combout $end
$var wire 1 ; controle|contador[2]~14_combout $end
$var wire 1 < SaidaMux[7]~7_combout $end
$var wire 1 = alu|alu2|Add1~0_combout $end
$var wire 1 > alu|alu2|Add1~6_combout $end
$var wire 1 ? controle|always1~0_combout $end
$var wire 1 @ controle|EnC~2_combout $end
$var wire 1 A controle|contador[7]~12_combout $end
$var wire 1 B rega|saidaA[2]~feeder_combout $end
$var wire 1 C clk~combout $end
$var wire 1 D clk~clkctrl_outclk $end
$var wire 1 E rega|FimA~regout $end
$var wire 1 F controle|state~13_combout $end
$var wire 1 G controle|contador[0]~8_combout $end
$var wire 1 H controle|Endereco~1_combout $end
$var wire 1 I controle|EnB~0_combout $end
$var wire 1 J controle|EnB~1_combout $end
$var wire 1 K controle|EnB~regout $end
$var wire 1 L regb|FimA~feeder_combout $end
$var wire 1 M regb|FimA~regout $end
$var wire 1 N controle|Endereco[1]~2_combout $end
$var wire 1 O controle|Endereco[2]~feeder_combout $end
$var wire 1 P rom|temp_rtl_0|auto_generated|ram_block1a5 $end
$var wire 1 Q rom|temp_rtl_0|auto_generated|ram_block1a4 $end
$var wire 1 R rom|temp_rtl_0|auto_generated|ram_block1a6 $end
$var wire 1 S controle|Equal0~1_combout $end
$var wire 1 T rom|temp_rtl_0|auto_generated|ram_block1a3 $end
$var wire 1 U rom|temp_rtl_0|auto_generated|ram_block1a1 $end
$var wire 1 V rom|temp_rtl_0|auto_generated|ram_block1a2 $end
$var wire 1 W regb|saidaA[2]~feeder_combout $end
$var wire 1 X controle|Equal0~0_combout $end
$var wire 1 Y controle|contador[7]~13_combout $end
$var wire 1 Z controle|contador[0]~9 $end
$var wire 1 [ controle|contador[1]~11 $end
$var wire 1 \ controle|contador[2]~15 $end
$var wire 1 ] controle|contador[3]~16_combout $end
$var wire 1 ^ controle|contador[3]~17 $end
$var wire 1 _ controle|contador[4]~19 $end
$var wire 1 ` controle|contador[5]~20_combout $end
$var wire 1 a controle|contador[5]~21 $end
$var wire 1 b controle|contador[6]~22_combout $end
$var wire 1 c controle|contador[6]~23 $end
$var wire 1 d controle|contador[7]~24_combout $end
$var wire 1 e rom|temp_rtl_0|auto_generated|ram_block1a7 $end
$var wire 1 f antiloop|Equal0~1_combout $end
$var wire 1 g controle|contador[4]~18_combout $end
$var wire 1 h controle|contador[1]~10_combout $end
$var wire 1 i antiloop|Equal0~0_combout $end
$var wire 1 j controle|EnC~0_combout $end
$var wire 1 k controle|multp~0_combout $end
$var wire 1 l controle|multp~1_combout $end
$var wire 1 m controle|multp~2_combout $end
$var wire 1 n controle|multp~regout $end
$var wire 1 o controle|SEL~1_combout $end
$var wire 1 p controle|state.s3~regout $end
$var wire 1 q controle|state~12_combout $end
$var wire 1 r controle|state.s4~regout $end
$var wire 1 s controle|state~11_combout $end
$var wire 1 t controle|state.s1~regout $end
$var wire 1 u controle|state~10_combout $end
$var wire 1 v controle|state.s2~regout $end
$var wire 1 w controle|Endereco~0_combout $end
$var wire 1 x controle|SEL~feeder_combout $end
$var wire 1 y controle|SEL~0_combout $end
$var wire 1 z controle|SEL~regout $end
$var wire 1 { controle|EnC~1_combout $end
$var wire 1 | controle|EnC~3_combout $end
$var wire 1 } controle|EnC~regout $end
$var wire 1 ~ regc|FimC~regout $end
$var wire 1 !! controle|EnA~0_combout $end
$var wire 1 "! controle|EnA~regout $end
$var wire 1 #! rom|temp_rtl_0|auto_generated|ram_block1a0~portadataout $end
$var wire 1 $! SaidaMux[0]~0_combout $end
$var wire 1 %! alu|alu1|Add2~0_combout $end
$var wire 1 &! controle|Op~0_combout $end
$var wire 1 '! controle|Op~regout $end
$var wire 1 (! regc|saidaC[0]~0_combout $end
$var wire 1 )! regc|saidaC[0]~feeder_combout $end
$var wire 1 *! antiloop|saidaA~32_combout $end
$var wire 1 +! antiloop|saidaA~33_combout $end
$var wire 1 ,! SaidaMux[1]~1_combout $end
$var wire 1 -! alu|alu1|Add2~1 $end
$var wire 1 .! alu|alu1|Add2~2_combout $end
$var wire 1 /! regc|saidaC[1]~1_combout $end
$var wire 1 0! regc|saidaC[1]~feeder_combout $end
$var wire 1 1! antiloop|saidaA~34_combout $end
$var wire 1 2! SaidaMux[2]~2_combout $end
$var wire 1 3! alu|alu1|Add0~1 $end
$var wire 1 4! alu|alu1|Add0~3 $end
$var wire 1 5! alu|alu1|Add0~4_combout $end
$var wire 1 6! alu|alu1|Add2~3 $end
$var wire 1 7! alu|alu1|Add2~4_combout $end
$var wire 1 8! regc|saidaC[2]~2_combout $end
$var wire 1 9! antiloop|saidaA~35_combout $end
$var wire 1 :! SaidaMux[3]~3_combout $end
$var wire 1 ;! alu|alu1|Add0~5 $end
$var wire 1 <! alu|alu1|Add0~6_combout $end
$var wire 1 =! alu|alu1|Add2~5 $end
$var wire 1 >! alu|alu1|Add2~6_combout $end
$var wire 1 ?! regc|saidaC[3]~3_combout $end
$var wire 1 @! antiloop|saidaA~36_combout $end
$var wire 1 A! SaidaMux[4]~4_combout $end
$var wire 1 B! alu|alu1|Add0~7 $end
$var wire 1 C! alu|alu1|Add0~8_combout $end
$var wire 1 D! alu|alu1|Add2~7 $end
$var wire 1 E! alu|alu1|Add2~8_combout $end
$var wire 1 F! regc|saidaC[4]~4_combout $end
$var wire 1 G! alu|alu1|Add0~9 $end
$var wire 1 H! alu|alu1|Add0~10_combout $end
$var wire 1 I! antiloop|saidaA~37_combout $end
$var wire 1 J! SaidaMux[5]~5_combout $end
$var wire 1 K! alu|alu1|Add2~9 $end
$var wire 1 L! alu|alu1|Add2~10_combout $end
$var wire 1 M! regc|saidaC[5]~5_combout $end
$var wire 1 N! antiloop|saidaA~38_combout $end
$var wire 1 O! SaidaMux[6]~6_combout $end
$var wire 1 P! alu|alu1|Add0~11 $end
$var wire 1 Q! alu|alu1|Add0~12_combout $end
$var wire 1 R! alu|alu1|Add2~11 $end
$var wire 1 S! alu|alu1|Add2~12_combout $end
$var wire 1 T! regc|saidaC[6]~6_combout $end
$var wire 1 U! alu|alu1|Add0~13 $end
$var wire 1 V! alu|alu1|Add0~14_combout $end
$var wire 1 W! alu|alu1|Add2~13 $end
$var wire 1 X! alu|alu1|Add2~14_combout $end
$var wire 1 Y! regc|saidaC[7]~7_combout $end
$var wire 1 Z! antiloop|saidaA~39_combout $end
$var wire 1 [! alu|alu1|Add0~15 $end
$var wire 1 \! alu|alu1|Add0~16_combout $end
$var wire 1 ]! alu|alu1|Add2~15 $end
$var wire 1 ^! alu|alu1|Add2~16_combout $end
$var wire 1 _! alu|alu1|Add2~18_combout $end
$var wire 1 `! alu|alu2|Add1~1_combout $end
$var wire 1 a! antiloop|saidaA~40_combout $end
$var wire 1 b! resultado[8]~0_combout $end
$var wire 1 c! alu|alu2|Add1~3_combout $end
$var wire 1 d! alu|alu2|Add1~2 $end
$var wire 1 e! alu|alu2|Add1~4_combout $end
$var wire 1 f! antiloop|saidaA~41_combout $end
$var wire 1 g! resultado[9]~1_combout $end
$var wire 1 h! alu|alu2|Add1~5 $end
$var wire 1 i! alu|alu2|Add1~7_combout $end
$var wire 1 j! antiloop|saidaA~42_combout $end
$var wire 1 k! resultado[10]~2_combout $end
$var wire 1 l! alu|alu2|Add1~9_combout $end
$var wire 1 m! alu|alu2|Add1~8 $end
$var wire 1 n! alu|alu2|Add1~10_combout $end
$var wire 1 o! antiloop|saidaA~43_combout $end
$var wire 1 p! resultado[11]~3_combout $end
$var wire 1 q! antiloop|saidaA~44_combout $end
$var wire 1 r! alu|alu2|Add1~12_combout $end
$var wire 1 s! alu|alu2|Add1~11 $end
$var wire 1 t! alu|alu2|Add1~13_combout $end
$var wire 1 u! resultado[12]~4_combout $end
$var wire 1 v! alu|alu2|Add1~15_combout $end
$var wire 1 w! alu|alu2|Add1~14 $end
$var wire 1 x! alu|alu2|Add1~16_combout $end
$var wire 1 y! antiloop|saidaA~45_combout $end
$var wire 1 z! resultado[13]~5_combout $end
$var wire 1 {! alu|alu2|Add1~18_combout $end
$var wire 1 |! alu|alu2|Add1~17 $end
$var wire 1 }! alu|alu2|Add1~19_combout $end
$var wire 1 ~! antiloop|saidaA~46_combout $end
$var wire 1 !" resultado[14]~6_combout $end
$var wire 1 "" alu|alu2|Add1~21_combout $end
$var wire 1 #" alu|alu2|Add1~20 $end
$var wire 1 $" alu|alu2|Add1~22_combout $end
$var wire 1 %" antiloop|saidaA~47_combout $end
$var wire 1 &" resultado[15]~7_combout $end
$var wire 1 '" controle|Endereco [8] $end
$var wire 1 (" controle|Endereco [7] $end
$var wire 1 )" controle|Endereco [6] $end
$var wire 1 *" controle|Endereco [5] $end
$var wire 1 +" controle|Endereco [4] $end
$var wire 1 ," controle|Endereco [3] $end
$var wire 1 -" controle|Endereco [2] $end
$var wire 1 ." controle|Endereco [1] $end
$var wire 1 /" controle|Endereco [0] $end
$var wire 1 0" rega|saidaA [15] $end
$var wire 1 1" rega|saidaA [14] $end
$var wire 1 2" rega|saidaA [13] $end
$var wire 1 3" rega|saidaA [12] $end
$var wire 1 4" rega|saidaA [11] $end
$var wire 1 5" rega|saidaA [10] $end
$var wire 1 6" rega|saidaA [9] $end
$var wire 1 7" rega|saidaA [8] $end
$var wire 1 8" rega|saidaA [7] $end
$var wire 1 9" rega|saidaA [6] $end
$var wire 1 :" rega|saidaA [5] $end
$var wire 1 ;" rega|saidaA [4] $end
$var wire 1 <" rega|saidaA [3] $end
$var wire 1 =" rega|saidaA [2] $end
$var wire 1 >" rega|saidaA [1] $end
$var wire 1 ?" rega|saidaA [0] $end
$var wire 1 @" antiloop|saidaA [15] $end
$var wire 1 A" antiloop|saidaA [14] $end
$var wire 1 B" antiloop|saidaA [13] $end
$var wire 1 C" antiloop|saidaA [12] $end
$var wire 1 D" antiloop|saidaA [11] $end
$var wire 1 E" antiloop|saidaA [10] $end
$var wire 1 F" antiloop|saidaA [9] $end
$var wire 1 G" antiloop|saidaA [8] $end
$var wire 1 H" antiloop|saidaA [7] $end
$var wire 1 I" antiloop|saidaA [6] $end
$var wire 1 J" antiloop|saidaA [5] $end
$var wire 1 K" antiloop|saidaA [4] $end
$var wire 1 L" antiloop|saidaA [3] $end
$var wire 1 M" antiloop|saidaA [2] $end
$var wire 1 N" antiloop|saidaA [1] $end
$var wire 1 O" antiloop|saidaA [0] $end
$var wire 1 P" controle|contador [7] $end
$var wire 1 Q" controle|contador [6] $end
$var wire 1 R" controle|contador [5] $end
$var wire 1 S" controle|contador [4] $end
$var wire 1 T" controle|contador [3] $end
$var wire 1 U" controle|contador [2] $end
$var wire 1 V" controle|contador [1] $end
$var wire 1 W" controle|contador [0] $end
$var wire 1 X" regc|saidaC [15] $end
$var wire 1 Y" regc|saidaC [14] $end
$var wire 1 Z" regc|saidaC [13] $end
$var wire 1 [" regc|saidaC [12] $end
$var wire 1 \" regc|saidaC [11] $end
$var wire 1 ]" regc|saidaC [10] $end
$var wire 1 ^" regc|saidaC [9] $end
$var wire 1 _" regc|saidaC [8] $end
$var wire 1 `" regc|saidaC [7] $end
$var wire 1 a" regc|saidaC [6] $end
$var wire 1 b" regc|saidaC [5] $end
$var wire 1 c" regc|saidaC [4] $end
$var wire 1 d" regc|saidaC [3] $end
$var wire 1 e" regc|saidaC [2] $end
$var wire 1 f" regc|saidaC [1] $end
$var wire 1 g" regc|saidaC [0] $end
$var wire 1 h" regb|saidaA [15] $end
$var wire 1 i" regb|saidaA [14] $end
$var wire 1 j" regb|saidaA [13] $end
$var wire 1 k" regb|saidaA [12] $end
$var wire 1 l" regb|saidaA [11] $end
$var wire 1 m" regb|saidaA [10] $end
$var wire 1 n" regb|saidaA [9] $end
$var wire 1 o" regb|saidaA [8] $end
$var wire 1 p" regb|saidaA [7] $end
$var wire 1 q" regb|saidaA [6] $end
$var wire 1 r" regb|saidaA [5] $end
$var wire 1 s" regb|saidaA [4] $end
$var wire 1 t" regb|saidaA [3] $end
$var wire 1 u" regb|saidaA [2] $end
$var wire 1 v" regb|saidaA [1] $end
$var wire 1 w" regb|saidaA [0] $end
$var wire 1 x" rom|temp_rtl_0|auto_generated|ram_block1a0_PORTADATAOUT_bus [7] $end
$var wire 1 y" rom|temp_rtl_0|auto_generated|ram_block1a0_PORTADATAOUT_bus [6] $end
$var wire 1 z" rom|temp_rtl_0|auto_generated|ram_block1a0_PORTADATAOUT_bus [5] $end
$var wire 1 {" rom|temp_rtl_0|auto_generated|ram_block1a0_PORTADATAOUT_bus [4] $end
$var wire 1 |" rom|temp_rtl_0|auto_generated|ram_block1a0_PORTADATAOUT_bus [3] $end
$var wire 1 }" rom|temp_rtl_0|auto_generated|ram_block1a0_PORTADATAOUT_bus [2] $end
$var wire 1 ~" rom|temp_rtl_0|auto_generated|ram_block1a0_PORTADATAOUT_bus [1] $end
$var wire 1 !# rom|temp_rtl_0|auto_generated|ram_block1a0_PORTADATAOUT_bus [0] $end
$upscope $end
$upscope $end
$enddefinitions $end
#0
$dumpvars
0!
x1
x0
x/
x.
x-
x,
x+
x*
x)
x(
x'
x&
x%
x$
x#
x"
x2
03
14
x5
16
17
18
x9
x:
x;
x<
x=
x>
x?
x@
xA
xB
0C
xD
0E
xF
xG
xH
xI
xJ
0K
xL
0M
xN
xO
0P
0Q
0R
xS
0T
0U
0V
xW
xX
xY
xZ
x[
x\
x]
x^
x_
x`
xa
xb
xc
xd
0e
xf
xg
xh
xi
xj
xk
xl
xm
0n
xo
0p
xq
0r
xs
0t
xu
0v
xw
xx
xy
0z
x{
x|
0}
0~
x!!
0"!
0#!
x$!
x%!
x&!
0'!
x(!
x)!
x*!
x+!
x,!
x-!
x.!
x/!
x0!
x1!
x2!
x3!
x4!
x5!
x6!
x7!
x8!
x9!
x:!
x;!
x<!
x=!
x>!
x?!
x@!
xA!
xB!
xC!
xD!
xE!
xF!
xG!
xH!
xI!
xJ!
xK!
xL!
xM!
xN!
xO!
xP!
xQ!
xR!
xS!
xT!
xU!
xV!
xW!
xX!
xY!
xZ!
x[!
x\!
x]!
x^!
x_!
x`!
xa!
xb!
xc!
xd!
xe!
xf!
xg!
xh!
xi!
xj!
xk!
xl!
xm!
xn!
xo!
xp!
xq!
xr!
xs!
xt!
xu!
xv!
xw!
xx!
xy!
xz!
x{!
x|!
x}!
x~!
x!"
x""
x#"
x$"
x%"
x&"
z/"
0."
0-"
z,"
z+"
z*"
z)"
z("
z'"
0?"
0>"
0="
0<"
0;"
0:"
09"
08"
z7"
z6"
z5"
z4"
z3"
z2"
z1"
z0"
0O"
0N"
0M"
0L"
0K"
0J"
0I"
0H"
0G"
0F"
0E"
0D"
0C"
0B"
0A"
0@"
0W"
0V"
0U"
0T"
0S"
0R"
0Q"
0P"
0g"
0f"
0e"
0d"
0c"
0b"
0a"
0`"
0_"
0^"
0]"
0\"
0["
0Z"
0Y"
0X"
0w"
0v"
0u"
0t"
0s"
0r"
0q"
0p"
zo"
zn"
zm"
zl"
zk"
zj"
zi"
zh"
0!#
0~"
0}"
0|"
0{"
0z"
0y"
0x"
$end
#238
0D
#542
0q
#555
0F
#590
0y
#697
1f
#777
0!!
#850
0:!
0J!
0O!
#851
1i
02!
#853
0<
#877
0Z
#903
1G
#910
0j
#913
0I
#939
0H
#941
0w
#957
1[
#958
0?
#982
0A
#1001
1o
#1037
0\
#1044
0L
#1067
0A!
#1136
0m
#1141
0N
#1197
0@
#1209
0,!
#1211
1^
#1251
1>
#1254
1c!
0B
0W
#1291
0_
#1335
1h
#1343
1S
#1366
1X
#1371
1a
#1392
0$!
#1406
03!
#1413
0O
#1415
1;
#1418
0J
#1451
0c
#1469
1&!
#1486
14!
#1495
1]
#1500
0s
#1501
0u
#1543
1""
#1653
1B!
#1669
1g
#1693
1P!
#1717
0U!
#1725
0l
#1749
1`
#1782
1=
1r!
#1783
1{!
#1786
1l!
#1787
1v!
#1800
1[!
#1823
0{
#1829
1b
#1842
0Y
#1849
0k
#1909
1d
#1937
0;!
#1944
05!
#2000
1!
02
#2024
0:
#2043
0G!
#2111
0C!
#2151
0Q!
#2175
0V!
#2198
0x
#2258
0\!
#2283
1|
#2395
0<!
#2449
09
#2460
0o!
#2461
0f!
0y!
#2501
0H!
#2507
09!
#2508
0q!
0~!
0%"
#2513
0Z!
#2524
0j!
#2529
0N!
#2531
0+!
#2536
0*!
#2537
01!
#2538
0a!
0I!
#2565
0@!
#2682
1-!
#2708
0%!
#2762
06!
#2842
1=!
#2922
0D!
#3002
1K!
#3026
1C
#3140
0.!
#3176
0R!
#3220
07!
#3256
1W!
#3264
1D
#3300
0>!
#3336
0]!
#3380
0E!
#3460
0L!
#3520
0(!
#3602
0/!
#3634
0S!
#3714
0X!
#3794
1^!
#3801
0/
#3802
0)
#3804
0%
#3806
01
#3812
0$
#3823
0"
#3824
0+
#3840
0.
#3842
00
#4000
0!
12
#4074
0(
#4077
0'
#4083
0F!
#4088
0-
#4094
0#
#4096
0,
#4099
0*
#4103
0M!
#4107
0&
#4194
08!
#4234
0)!
#4272
0?!
#4336
00!
#4338
0T!
#4495
1_!
#4688
0Y!
#5026
0C
#5264
0D
#5799
1d!
#5825
0`!
#5879
0h!
#5959
1m!
#6000
1!
02
#6039
0s!
#6119
1w!
#6199
0|!
#6257
0e!
#6279
1#"
#6337
0i!
#6417
0n!
#6497
0t!
#6577
0x!
#6657
0}!
#6677
0b!
#6731
0g!
#6737
0$"
#6905
0p!
#7026
1C
#7041
0k!
#7064
0z!
#7119
0u!
#7133
1}
#7148
0!"
#7264
1D
#7390
0&"
#7568
1~"
1{"
1z"
1U
1Q
1P
#8000
0!
12
#9026
0C
#9134
1~
#9264
0D
#9724
1y
#9726
1@
#9911
1!!
#10000
1!
02
#10111
1N
#10634
1s
#10635
1u
#10812
0|
#11026
1C
#11133
1"!
x}
#11134
1'!
#11137
1v
1t
#11264
1D
#11686
0u
#11692
1F
#12000
0!
12
#12076
1H
#12385
0>
#12388
0c!
#12571
0_!
#12606
0&!
#12677
0""
#12916
0=
0r!
#12917
0{!
#12920
0l!
#12921
0v!
#13026
0C
#13134
1E
x~
#13135
1>"
1;"
1:"
#13136
xg"
xf"
xe"
xc"
xb"
xa"
x]"
x^"
x\"
x["
xZ"
xY"
#13137
xd"
x`"
x_"
xX"
#13264
0D
#13384
0m!
#13385
1$"
#13399
1h!
#13425
1e!
#13464
1s!
#13724
xy
#13726
x@
#13875
0d!
#13885
0#"
#13899
1g!
#13911
1}!
#13923
0o
#13933
1|!
#13935
0w!
#14000
1!
02
#14038
1&"
#14069
1E!
#14170
0y
#14301
1L!
#14333
0e!
#14343
0$"
#14391
0}!
#14402
1!"
#14494
0!!
#14512
1H!
#14552
1J
x|
#14564
1C!
#14581
1:
#14629
xF
#14633
1.!
#14634
xs
#14807
0g!
#14882
0!"
#14996
0&"
#15026
1C
#15133
0"!
1K
#15134
0'!
#15137
1."
0v
xt
xp
#15264
1D
#15568
1!#
1|"
0{"
1#!
1T
0Q
#15672
xH
#15679
xq
#15683
1/!
#15686
xu
#15692
0F
#15885
1F!
#16000
0!
12
#16078
xw
#16177
1L
#16385
1>
#16388
1c!
#16417
10!
#16499
1M!
#16550
xO
#16571
1_!
#16606
1&!
#16677
1""
#16916
1=
1r!
#16917
1{!
#16920
1l!
#16921
1v!
#16937
x/
#16939
x)
#16940
x%
#16942
x1
#16948
x$
#16960
x+
x"
#16977
x.
#16978
x0
#17026
0C
#17134
0E
1M
#17135
1r"
1v"
xt"
xs"
xw"
#17210
x(
#17213
x'
#17224
x-
#17230
x#
#17232
x,
#17236
x*
#17243
x&
#17264
0D
#17335
xx
#17385
1$"
#17409
1i!
#17425
1e!
#17493
xA!
x:!
1J!
#17733
1?
#17899
1g!
#17911
1n!
1}!
#17959
1x!
#17961
1t!
#17977
1d!
#18000
1!
02
#18038
1&"
#18057
0h!
#18113
1k!
#18137
1m!
#18193
0S
#18217
0s!
#18275
0N
#18297
1w!
#18311
xE!
#18317
x<!
#18329
0X
#18336
0P!
#18344
1,!
#18361
0H!
#18377
0|!
#18399
1p!
#18402
1!"
#18435
0e!
#18446
1z!
#18457
1#"
#18469
xG!
#18494
x!!
#18495
xC!
#18515
0i!
#18523
xD!
#18527
x$!
#18549
0L!
#18551
x>!
#18583
1u!
#18595
0n!
#18598
1{
#18603
xK!
#18675
0t!
#18755
0x!
#18777
xR!
#18794
1Q!
#18817
1k
#18835
0}!
#18857
xW!
#18909
0g!
#18915
0$"
#18927
xH!
#18937
x]!
#19014
xF!
#19026
1C
#19061
xL!
#19083
0p!
#19104
0J
#19109
0!!
#19133
x"!
#19137
x."
x-"
#19138
04!
#19159
0:
#19192
0M!
#19219
0k!
#19235
xS!
#19242
0z!
#19264
1D
#19290
1|
#19297
0u!
#19299
1l
#19315
xX!
#19326
0!"
#19395
x^!
#19400
0.!
#19491
x!!
#19523
x?!
#19568
0&"
0~"
0|"
0U
0T
#19584
x9
#19596
15!
#19704
xM!
#19817
x-!
#19843
x%!
#19862
0/!
#19897
x6!
#19939
xT!
#19977
x=!
#20000
0!
12
#20096
x_!
#20275
x.!
#20289
xY!
#20355
x7!
#20596
00!
#20655
x(!
#20737
x/!
#21026
0C
#21134
xE
#21135
0s"
1w"
xv"
#21264
0D
#21329
x8!
#21369
x)!
#21400
xd!
#21426
x`!
#21471
x0!
#21480
xh!
#21493
0A!
#21560
xm!
#21640
xs!
#21720
xw!
#21800
x|!
#21858
xe!
#21880
x#"
#21938
xi!
#22000
1!
02
#22018
xn!
#22098
xt!
#22178
xx!
#22258
x}!
#22275
xN
#22278
xb!
#22285
1K!
#22332
xg!
#22338
x$"
#22344
x,!
#22459
0R!
#22469
0G!
#22495
1C!
#22506
xp!
#22527
1$!
#22539
1W!
#22552
xJ
x|
#22619
0]!
#22642
xk!
#22665
xz!
#22720
xu!
#22743
0L!
#22749
x!"
#22917
0S!
#22927
0H!
#22991
x&"
#22997
0X!
#23026
1C
#23077
1^!
#23133
xK
#23138
x4!
#23159
x:
#23264
1D
#23386
0M!
#23568
x!#
x~"
x}"
x|"
x{"
xz"
xy"
xx"
x#!
xU
xV
xT
xQ
xP
xR
xe
#23584
19
#23596
x5!
#23621
0T!
#23778
1_!
#23817
0-!
#23843
1%!
#23971
0Y!
#24000
0!
12
#24177
xL
#24655
1(!
#24822
xB
xW
#25026
0C
#25082
1d!
#25108
0`!
#25134
xM
#25162
0h!
#25242
1m!
#25264
0D
#25322
0s!
#25369
1)!
#25402
1w!
#25482
0|!
#25540
0e!
#25562
1#"
#25620
0i!
#25700
0n!
#25733
x?
#25780
0t!
#25860
0x!
#25940
0}!
#25960
0b!
#26000
1!
02
#26014
0g!
#26020
0$"
#26021
xy
#26031
xo
#26113
xl
#26188
0p!
#26324
0k!
#26347
0z!
#26402
0u!
#26431
0!"
#26598
x{
#26673
0&"
#27026
1C
#27264
1D
#28000
0!
12
#29026
0C
#29264
0D
#30000
1!
02
#31026
1C
#31264
1D
#32000
0!
12
#33026
0C
#33264
0D
#34000
1!
02
#35026
1C
#35264
1D
#36000
0!
12
#37026
0C
#37264
0D
#38000
1!
02
#39026
1C
#39264
1D
#40000
0!
12
#41026
0C
#41264
0D
#42000
1!
02
#43026
1C
#43264
1D
#44000
0!
12
#45026
0C
#45264
0D
#46000
1!
02
#47026
1C
#47264
1D
#48000
0!
12
#49026
0C
#49264
0D
#50000
1!
02
#51026
1C
#51264
1D
#52000
0!
12
#53026
0C
#53264
0D
#54000
1!
02
#55026
1C
#55264
1D
#56000
0!
12
#57026
0C
#57264
0D
#58000
1!
02
#59026
1C
#59264
1D
#60000
0!
12
#61026
0C
#61264
0D
#62000
1!
02
#63026
1C
#63264
1D
#64000
0!
12
#65026
0C
#65264
0D
#66000
1!
02
#67026
1C
#67264
1D
#68000
0!
12
#69026
0C
#69264
0D
#70000
1!
02
#71026
1C
#71264
1D
#72000
0!
12
#73026
0C
#73264
0D
#74000
1!
02
#75026
1C
#75264
1D
#76000
0!
12
#77026
0C
#77264
0D
#78000
1!
02
#79026
1C
#79264
1D
#80000
0!
12
#81026
0C
#81264
0D
#82000
1!
02
#83026
1C
#83264
1D
#84000
0!
12
#85026
0C
#85264
0D
#86000
1!
02
#87026
1C
#87264
1D
#88000
0!
12
#89026
0C
#89264
0D
#90000
1!
02
#91026
1C
#91264
1D
#92000
0!
12
#93026
0C
#93264
0D
#94000
1!
02
#95026
1C
#95264
1D
#96000
0!
12
#97026
0C
#97264
0D
#98000
1!
02
#99026
1C
#99264
1D
#100000
0!
12
#101026
0C
#101264
0D
#102000
1!
02
#103026
1C
#103264
1D
#104000
0!
12
#105026
0C
#105264
0D
#106000
1!
02
#107026
1C
#107264
1D
#108000
0!
12
#109026
0C
#109264
0D
#110000
1!
02
#111026
1C
#111264
1D
#112000
0!
12
#113026
0C
#113264
0D
#114000
1!
02
#115026
1C
#115264
1D
#116000
0!
12
#117026
0C
#117264
0D
#118000
1!
02
#119026
1C
#119264
1D
#120000
0!
12
#121026
0C
#121264
0D
#122000
1!
02
#123026
1C
#123264
1D
#124000
0!
12
#125026
0C
#125264
0D
#126000
1!
02
#127026
1C
#127264
1D
#128000
0!
12
#129026
0C
#129264
0D
#130000
1!
02
#131026
1C
#131264
1D
#132000
0!
12
#133026
0C
#133264
0D
#134000
1!
02
#135026
1C
#135264
1D
#136000
0!
12
#137026
0C
#137264
0D
#138000
1!
02
#139026
1C
#139264
1D
#140000
0!
12
#141026
0C
#141264
0D
#142000
1!
02
#143026
1C
#143264
1D
#144000
0!
12
#145026
0C
#145264
0D
#146000
1!
02
#147026
1C
#147264
1D
#148000
0!
12
#149026
0C
#149264
0D
#150000
1!
02
#151026
1C
#151264
1D
#152000
0!
12
#153026
0C
#153264
0D
#154000
1!
02
#155026
1C
#155264
1D
#156000
0!
12
#157026
0C
#157264
0D
#158000
1!
02
#159026
1C
#159264
1D
#160000
0!
12
#161026
0C
#161264
0D
#162000
1!
02
#163026
1C
#163264
1D
#164000
0!
12
#165026
0C
#165264
0D
#166000
1!
02
#167026
1C
#167264
1D
#168000
0!
12
#169026
0C
#169264
0D
#170000
1!
02
#171026
1C
#171264
1D
#172000
0!
12
#173026
0C
#173264
0D
#174000
1!
02
#175026
1C
#175264
1D
#176000
0!
12
#177026
0C
#177264
0D
#178000
1!
02
#179026
1C
#179264
1D
#180000
0!
12
#181026
0C
#181264
0D
#182000
1!
02
#183026
1C
#183264
1D
#184000
0!
12
#185026
0C
#185264
0D
#186000
1!
02
#187026
1C
#187264
1D
#188000
0!
12
#189026
0C
#189264
0D
#190000
1!
02
#191026
1C
#191264
1D
#192000
0!
12
#193026
0C
#193264
0D
#194000
1!
02
#195026
1C
#195264
1D
#196000
0!
12
#197026
0C
#197264
0D
#198000
1!
02
#199026
1C
#199264
1D
#200000
0!
12
#201026
0C
#201264
0D
#202000
1!
02
#203026
1C
#203264
1D
#204000
0!
12
#205026
0C
#205264
0D
#206000
1!
02
#207026
1C
#207264
1D
#208000
0!
12
#209026
0C
#209264
0D
#210000
1!
02
#211026
1C
#211264
1D
#212000
0!
12
#213026
0C
#213264
0D
#214000
1!
02
#215026
1C
#215264
1D
#216000
0!
12
#217026
0C
#217264
0D
#218000
1!
02
#219026
1C
#219264
1D
#220000
0!
12
#221026
0C
#221264
0D
#222000
1!
02
#223026
1C
#223264
1D
#224000
0!
12
#225026
0C
#225264
0D
#226000
1!
02
#227026
1C
#227264
1D
#228000
0!
12
#229026
0C
#229264
0D
#230000
1!
02
#231026
1C
#231264
1D
#232000
0!
12
#233026
0C
#233264
0D
#234000
1!
02
#235026
1C
#235264
1D
#236000
0!
12
#237026
0C
#237264
0D
#238000
1!
02
#239026
1C
#239264
1D
#240000
0!
12
#241026
0C
#241264
0D
#242000
1!
02
#243026
1C
#243264
1D
#244000
0!
12
#245026
0C
#245264
0D
#246000
1!
02
#247026
1C
#247264
1D
#248000
0!
12
#249026
0C
#249264
0D
#250000
1!
02
#251026
1C
#251264
1D
#252000
0!
12
#253026
0C
#253264
0D
#254000
1!
02
#255026
1C
#255264
1D
#256000
0!
12
#257026
0C
#257264
0D
#258000
1!
02
#259026
1C
#259264
1D
#260000
0!
12
#261026
0C
#261264
0D
#262000
1!
02
#263026
1C
#263264
1D
#264000
0!
12
#265026
0C
#265264
0D
#266000
1!
02
#267026
1C
#267264
1D
#268000
0!
12
#269026
0C
#269264
0D
#270000
1!
02
#271026
1C
#271264
1D
#272000
0!
12
#273026
0C
#273264
0D
#274000
1!
02
#275026
1C
#275264
1D
#276000
0!
12
#277026
0C
#277264
0D
