Turma2_2017020700_2017001212_2017005113/SISTEMA_FINAL/simulation/qsim/SISTEMA_FINAL.msim.vcd
$comment
	File created using the following command:
		vcd file SISTEMA_FINAL.msim.vcd -direction
$end
$date
	Mon Jul 02 14:34:46 2018
$end
$version
	ModelSim Version 10.1d
$end
$timescale
	1ps
$end
$scope module SISTEMA_FINAL_vlg_vec_tst $end
$var reg 1 ! clk $end
$var wire 1 " FimB $end
$var wire 1 # SaidaAlu [15] $end
$var wire 1 $ SaidaAlu [14] $end
$var wire 1 % SaidaAlu [13] $end
$var wire 1 & SaidaAlu [12] $end
$var wire 1 ' SaidaAlu [11] $end
$var wire 1 ( SaidaAlu [10] $end
$var wire 1 ) SaidaAlu [9] $end
$var wire 1 * SaidaAlu [8] $end
$var wire 1 + SaidaAlu [7] $end
$var wire 1 , SaidaAlu [6] $end
$var wire 1 - SaidaAlu [5] $end
$var wire 1 . SaidaAlu [4] $end
$var wire 1 / SaidaAlu [3] $end
$var wire 1 0 SaidaAlu [2] $end
$var wire 1 1 SaidaAlu [1] $end
$var wire 1 2 SaidaAlu [0] $end
$var wire 1 3 contador [7] $end
$var wire 1 4 contador [6] $end
$var wire 1 5 contador [5] $end
$var wire 1 6 contador [4] $end
$var wire 1 7 contador [3] $end
$var wire 1 8 contador [2] $end
$var wire 1 9 contador [1] $end
$var wire 1 : contador [0] $end
$var wire 1 ; ffald [15] $end
$var wire 1 < ffald [14] $end
$var wire 1 = ffald [13] $end
$var wire 1 > ffald [12] $end
$var wire 1 ? ffald [11] $end
$var wire 1 @ ffald [10] $end
$var wire 1 A ffald [9] $end
$var wire 1 B ffald [8] $end
$var wire 1 C ffald [7] $end
$var wire 1 D ffald [6] $end
$var wire 1 E ffald [5] $end
$var wire 1 F ffald [4] $end
$var wire 1 G ffald [3] $end
$var wire 1 H ffald [2] $end
$var wire 1 I ffald [1] $end
$var wire 1 J ffald [0] $end
$var wire 1 K saida [15] $end
$var wire 1 L saida [14] $end
$var wire 1 M saida [13] $end
$var wire 1 N saida [12] $end
$var wire 1 O saida [11] $end
$var wire 1 P saida [10] $end
$var wire 1 Q saida [9] $end
$var wire 1 R saida [8] $end
$var wire 1 S saida [7] $end
$var wire 1 T saida [6] $end
$var wire 1 U saida [5] $end
$var wire 1 V saida [4] $end
$var wire 1 W saida [3] $end
$var wire 1 X saida [2] $end
$var wire 1 Y saida [1] $end
$var wire 1 Z saida [0] $end
$var wire 1 [ saidaResto [15] $end
$var wire 1 \ saidaResto [14] $end
$var wire 1 ] saidaResto [13] $end
$var wire 1 ^ saidaResto [12] $end
$var wire 1 _ saidaResto [11] $end
$var wire 1 ` saidaResto [10] $end
$var wire 1 a saidaResto [9] $end
$var wire 1 b saidaResto [8] $end
$var wire 1 c saidaResto [7] $end
$var wire 1 d saidaResto [6] $end
$var wire 1 e saidaResto [5] $end
$var wire 1 f saidaResto [4] $end
$var wire 1 g saidaResto [3] $end
$var wire 1 h saidaResto [2] $end
$var wire 1 i saidaResto [1] $end
$var wire 1 j saidaResto [0] $end
$var wire 1 k sampler $end
$scope module i1 $end
$var wire 1 l gnd $end
$var wire 1 m vcc $end
$var wire 1 n unknown $end
$var tri1 1 o devclrn $end
$var tri1 1 p devpor $end
$var tri1 1 q devoe $end
$var wire 1 r alu|alu1|Add2~10_combout $end
$var wire 1 s controle|Add0~0_combout $end
$var wire 1 t controle|Add1~0_combout $end
$var wire 1 u controle|LessThan2~1_cout $end
$var wire 1 v controle|LessThan2~3_cout $end
$var wire 1 w controle|LessThan2~5_cout $end
$var wire 1 x controle|LessThan2~7_cout $end
$var wire 1 y controle|LessThan2~9_cout $end
$var wire 1 z controle|LessThan2~11_cout $end
$var wire 1 { controle|LessThan2~13_cout $end
$var wire 1 | controle|LessThan2~14_combout $end
$var wire 1 } controle|Add0~2_combout $end
$var wire 1 ~ controle|Add1~2_combout $end
$var wire 1 !! controle|Add0~6_combout $end
$var wire 1 "! SaidaMuxD[2]~2_combout $end
$var wire 1 #! SaidaMuxM[3]~3_combout $end
$var wire 1 $! SaidaMuxM[4]~4_combout $end
$var wire 1 %! SaidaMuxM[6]~6_combout $end
$var wire 1 &! SaidaMuxM[7]~7_combout $end
$var wire 1 '! alu|alu2|Add0~0_combout $end
$var wire 1 (! alu|alu2|Add0~5_combout $end
$var wire 1 )! SaidaMuxD[10]~10_combout $end
$var wire 1 *! alu|alu2|Add0~11_combout $end
$var wire 1 +! SaidaMuxD[12]~12_combout $end
$var wire 1 ,! alu|alu2|Add0~17_combout $end
$var wire 1 -! SaidaMuxD[14]~14_combout $end
$var wire 1 .! controle|contador~10_combout $end
$var wire 1 /! controle|EnResto~1_combout $end
$var wire 1 0! antiloop|saidaA~35_combout $end
$var wire 1 1! antiloop|saidaA~36_combout $end
$var wire 1 2! antiloop|saidaA~41_combout $end
$var wire 1 3! antiloop|saidaA~46_combout $end
$var wire 1 4! clk~combout $end
$var wire 1 5! clk~clkctrl_outclk $end
$var wire 1 6! controle|state~12_combout $end
$var wire 1 7! controle|state~11_combout $end
$var wire 1 8! controle|state.s1~regout $end
$var wire 1 9! controle|Endereco~0_combout $end
$var wire 1 :! controle|Endereco[1]~3_combout $end
$var wire 1 ;! rega|FimA~regout $end
$var wire 1 <! controle|Endereco[1]~1_combout $end
$var wire 1 =! controle|state~13_combout $end
$var wire 1 >! controle|state.s2~regout $end
$var wire 1 ?! controle|Endereco~2_combout $end
$var wire 1 @! rom|temp_rtl_0|auto_generated|ram_block1a4 $end
$var wire 1 A! rom|temp_rtl_0|auto_generated|ram_block1a7 $end
$var wire 1 B! controle|Equal2~1_combout $end
$var wire 1 C! controle|multp~9_combout $end
$var wire 1 D! rom|temp_rtl_0|auto_generated|ram_block1a5 $end
$var wire 1 E! rom|temp_rtl_0|auto_generated|ram_block1a3 $end
$var wire 1 F! rom|temp_rtl_0|auto_generated|ram_block1a2 $end
$var wire 1 G! rom|temp_rtl_0|auto_generated|ram_block1a1 $end
$var wire 1 H! rom|temp_rtl_0|auto_generated|ram_block1a0~portadataout $end
$var wire 1 I! controle|LessThan1~1_cout $end
$var wire 1 J! controle|LessThan1~3_cout $end
$var wire 1 K! controle|LessThan1~5_cout $end
$var wire 1 L! controle|LessThan1~7_cout $end
$var wire 1 M! controle|LessThan1~9_cout $end
$var wire 1 N! controle|LessThan1~11_cout $end
$var wire 1 O! controle|LessThan1~13_cout $end
$var wire 1 P! controle|LessThan1~14_combout $end
$var wire 1 Q! controle|Equal1~1_combout $end
$var wire 1 R! controle|multp~4_combout $end
$var wire 1 S! controle|multp~5_combout $end
$var wire 1 T! controle|multp~8_combout $end
$var wire 1 U! controle|Equal2~0_combout $end
$var wire 1 V! controle|Equal2~2_combout $end
$var wire 1 W! controle|contador[1]~1_combout $end
$var wire 1 X! controle|Op~feeder_combout $end
$var wire 1 Y! controle|SELM~0_combout $end
$var wire 1 Z! controle|Op~regout $end
$var wire 1 [! controle|contador[0]~0_combout $end
$var wire 1 \! controle|Equal1~0_combout $end
$var wire 1 ]! controle|contador~8_combout $end
$var wire 1 ^! controle|contador~9_combout $end
$var wire 1 _! controle|contador~11_combout $end
$var wire 1 `! controle|contador[0]~12_combout $end
$var wire 1 a! controle|contador[0]~13_combout $end
$var wire 1 b! antiloop|saidaA~44_combout $end
$var wire 1 c! alu|alu2|Add0~14_combout $end
$var wire 1 d! controle|SELD~3_combout $end
$var wire 1 e! controle|SELD~2_combout $end
$var wire 1 f! controle|SELD~regout $end
$var wire 1 g! controle|Add0~9 $end
$var wire 1 h! controle|Add0~10_combout $end
$var wire 1 i! controle|contador[5]~5_combout $end
$var wire 1 j! controle|contador[3]~3_combout $end
$var wire 1 k! controle|Add1~1 $end
$var wire 1 l! controle|Add1~3 $end
$var wire 1 m! controle|Add1~5 $end
$var wire 1 n! controle|Add1~6_combout $end
$var wire 1 o! controle|contador[2]~16_combout $end
$var wire 1 p! SaidaMuxD[4]~4_combout $end
$var wire 1 q! antiloop|saidaA~33_combout $end
$var wire 1 r! SaidaMuxM[1]~1_combout $end
$var wire 1 s! SaidaMuxD[0]~0_combout $end
$var wire 1 t! alu|alu1|Add2~0_combout $end
$var wire 1 u! alu|alu1|Add0~0_combout $end
$var wire 1 v! regResto|saidaResto[0]~0_combout $end
$var wire 1 w! antiloop|saidaA~32_combout $end
$var wire 1 x! SaidaMuxM[0]~0_combout $end
$var wire 1 y! alu|alu1|Add0~1 $end
$var wire 1 z! alu|alu1|Add0~2_combout $end
$var wire 1 {! alu|alu1|Add2~1 $end
$var wire 1 |! alu|alu1|Add2~2_combout $end
$var wire 1 }! regResto|saidaResto[1]~1_combout $end
$var wire 1 ~! SaidaMuxD[1]~1_combout $end
$var wire 1 !" alu|alu1|Add2~3 $end
$var wire 1 "" alu|alu1|Add2~4_combout $end
$var wire 1 #" alu|alu1|Add0~3 $end
$var wire 1 $" alu|alu1|Add0~4_combout $end
$var wire 1 %" regResto|saidaResto[2]~2_combout $end
$var wire 1 &" antiloop|saidaA~34_combout $end
$var wire 1 '" SaidaMuxM[2]~2_combout $end
$var wire 1 (" alu|alu1|Add2~5 $end
$var wire 1 )" alu|alu1|Add2~6_combout $end
$var wire 1 *" alu|alu1|Add0~5 $end
$var wire 1 +" alu|alu1|Add0~6_combout $end
$var wire 1 ," regResto|saidaResto[3]~3_combout $end
$var wire 1 -" SaidaMuxD[3]~3_combout $end
$var wire 1 ." alu|alu1|Add2~7 $end
$var wire 1 /" alu|alu1|Add2~8_combout $end
$var wire 1 0" alu|alu1|Add0~7 $end
$var wire 1 1" alu|alu1|Add0~8_combout $end
$var wire 1 2" regResto|saidaResto[4]~4_combout $end
$var wire 1 3" controle|LessThan3~3_cout $end
$var wire 1 4" controle|LessThan3~5_cout $end
$var wire 1 5" controle|LessThan3~7_cout $end
$var wire 1 6" controle|LessThan3~9_cout $end
$var wire 1 7" controle|LessThan3~11_cout $end
$var wire 1 8" controle|LessThan3~13_cout $end
$var wire 1 9" controle|LessThan3~15_cout $end
$var wire 1 :" controle|LessThan3~16_combout $end
$var wire 1 ;" controle|contador[2]~17_combout $end
$var wire 1 <" controle|contador[2]~18_combout $end
$var wire 1 =" controle|contador[2]~19_combout $end
$var wire 1 >" controle|Add1~7 $end
$var wire 1 ?" controle|Add1~9 $end
$var wire 1 @" controle|Add1~10_combout $end
$var wire 1 A" controle|Add0~11 $end
$var wire 1 B" controle|Add0~13 $end
$var wire 1 C" controle|Add0~14_combout $end
$var wire 1 D" controle|contador[7]~7_combout $end
$var wire 1 E" controle|Add1~11 $end
$var wire 1 F" controle|Add1~13 $end
$var wire 1 G" controle|Add1~14_combout $end
$var wire 1 H" antiloop|Equal0~1_combout $end
$var wire 1 I" antiloop|saidaA~37_combout $end
$var wire 1 J" SaidaMuxM[5]~5_combout $end
$var wire 1 K" alu|alu1|Add0~9 $end
$var wire 1 L" alu|alu1|Add0~10_combout $end
$var wire 1 M" regResto|saidaResto[5]~5_combout $end
$var wire 1 N" SaidaMuxD[5]~5_combout $end
$var wire 1 O" alu|alu1|Add2~9 $end
$var wire 1 P" alu|alu1|Add2~11 $end
$var wire 1 Q" alu|alu1|Add2~12_combout $end
$var wire 1 R" alu|alu1|Add0~11 $end
$var wire 1 S" alu|alu1|Add0~12_combout $end
$var wire 1 T" regResto|saidaResto[6]~6_combout $end
$var wire 1 U" SaidaMuxD[6]~6_combout $end
$var wire 1 V" alu|alu1|Add0~13 $end
$var wire 1 W" alu|alu1|Add0~14_combout $end
$var wire 1 X" alu|alu1|Add2~13 $end
$var wire 1 Y" alu|alu1|Add2~14_combout $end
$var wire 1 Z" regResto|saidaResto[7]~7_combout $end
$var wire 1 [" SaidaMuxD[7]~7_combout $end
$var wire 1 \" alu|alu1|Add0~15 $end
$var wire 1 ]" alu|alu1|Add0~16_combout $end
$var wire 1 ^" alu|alu1|Add2~15 $end
$var wire 1 _" alu|alu1|Add2~16_combout $end
$var wire 1 `" alu|alu1|Add2~18_combout $end
$var wire 1 a" alu|alu2|Add0~2_cout $end
$var wire 1 b" alu|alu2|Add0~3_combout $end
$var wire 1 c" SaidaMuxD[8]~8_combout $end
$var wire 1 d" alu|alu2|Add0~4 $end
$var wire 1 e" alu|alu2|Add0~6_combout $end
$var wire 1 f" SaidaMuxD[9]~9_combout $end
$var wire 1 g" alu|alu2|Add0~7 $end
$var wire 1 h" alu|alu2|Add0~10 $end
$var wire 1 i" alu|alu2|Add0~12_combout $end
$var wire 1 j" SaidaMuxD[11]~11_combout $end
$var wire 1 k" alu|alu2|Add0~13 $end
$var wire 1 l" alu|alu2|Add0~15_combout $end
$var wire 1 m" SaidaMuxD[13]~13_combout $end
$var wire 1 n" alu|alu2|Add0~16 $end
$var wire 1 o" alu|alu2|Add0~18_combout $end
$var wire 1 p" alu|alu2|Add0~20_combout $end
$var wire 1 q" alu|alu2|Add0~19 $end
$var wire 1 r" alu|alu2|Add0~21_combout $end
$var wire 1 s" controle|LessThan3~1_combout $end
$var wire 1 t" controle|LessThan3~18_combout $end
$var wire 1 u" controle|contador~14_combout $end
$var wire 1 v" controle|contador~15_combout $end
$var wire 1 w" controle|Add0~1 $end
$var wire 1 x" controle|Add0~3 $end
$var wire 1 y" controle|Add0~4_combout $end
$var wire 1 z" controle|contador[2]~2_combout $end
$var wire 1 {" controle|Add1~4_combout $end
$var wire 1 |" controle|Add0~5 $end
$var wire 1 }" controle|Add0~7 $end
$var wire 1 ~" controle|Add0~8_combout $end
$var wire 1 !# controle|contador[4]~4_combout $end
$var wire 1 "# controle|Add1~8_combout $end
$var wire 1 ## antiloop|Equal0~0_combout $end
$var wire 1 $# antiloop|saidaA~42_combout $end
$var wire 1 %# alu|alu2|Add0~8_combout $end
$var wire 1 &# alu|alu2|Add0~9_combout $end
$var wire 1 '# controle|LessThan3~0_combout $end
$var wire 1 (# controle|always1~0_combout $end
$var wire 1 )# controle|EnResto~2_combout $end
$var wire 1 *# controle|multp~6_combout $end
$var wire 1 +# controle|multp~7_combout $end
$var wire 1 ,# controle|multp~regout $end
$var wire 1 -# controle|always1~1_combout $end
$var wire 1 .# controle|EnB~1_combout $end
$var wire 1 /# controle|EnB~2_combout $end
$var wire 1 0# controle|EnB~3_combout $end
$var wire 1 1# controle|EnB~regout $end
$var wire 1 2# regb|FimA~regout $end
$var wire 1 3# controle|SELM~1_combout $end
$var wire 1 4# controle|state.s4~regout $end
$var wire 1 5# controle|DIV~feeder_combout $end
$var wire 1 6# controle|DIV~regout $end
$var wire 1 7# controle|EnB~0_combout $end
$var wire 1 8# controle|EnResto~0_combout $end
$var wire 1 9# controle|EnResto~3_combout $end
$var wire 1 :# controle|EnResto~regout $end
$var wire 1 ;# regResto|FimResto~0_combout $end
$var wire 1 <# regResto|FimResto~regout $end
$var wire 1 =# controle|resetResto~1_combout $end
$var wire 1 ># controle|EnA~0_combout $end
$var wire 1 ?# controle|EnA~regout $end
$var wire 1 @# rom|temp_rtl_0|auto_generated|ram_block1a6 $end
$var wire 1 A# controle|Add0~12_combout $end
$var wire 1 B# controle|contador[6]~6_combout $end
$var wire 1 C# controle|Add1~12_combout $end
$var wire 1 D# antiloop|Equal0~2_combout $end
$var wire 1 E# controle|EnC~0_combout $end
$var wire 1 F# controle|EnC~1_combout $end
$var wire 1 G# controle|EnC~2_combout $end
$var wire 1 H# controle|EnC~regout $end
$var wire 1 I# regc|FimC~feeder_combout $end
$var wire 1 J# regc|FimC~regout $end
$var wire 1 K# controle|state~10_combout $end
$var wire 1 L# controle|state.s3~regout $end
$var wire 1 M# controle|SELM~feeder_combout $end
$var wire 1 N# controle|SELM~regout $end
$var wire 1 O# resultado[0]~0_combout $end
$var wire 1 P# resultado[1]~1_combout $end
$var wire 1 Q# resultado[2]~2_combout $end
$var wire 1 R# resultado[3]~3_combout $end
$var wire 1 S# resultado[4]~4_combout $end
$var wire 1 T# resultado[5]~5_combout $end
$var wire 1 U# antiloop|saidaA~38_combout $end
$var wire 1 V# resultado[6]~6_combout $end
$var wire 1 W# antiloop|saidaA~39_combout $end
$var wire 1 X# resultado[7]~7_combout $end
$var wire 1 Y# antiloop|saidaA~40_combout $end
$var wire 1 Z# resultado[8]~8_combout $end
$var wire 1 [# resultado[9]~9_combout $end
$var wire 1 \# resultado[10]~10_combout $end
$var wire 1 ]# antiloop|saidaA~43_combout $end
$var wire 1 ^# resultado[11]~11_combout $end
$var wire 1 _# resultado[12]~12_combout $end
$var wire 1 `# antiloop|saidaA~45_combout $end
$var wire 1 a# resultado[13]~13_combout $end
$var wire 1 b# resultado[14]~14_combout $end
$var wire 1 c# SaidaMuxD[15]~15_combout $end
$var wire 1 d# alu|alu2|Add0~23_combout $end
$var wire 1 e# alu|alu2|Add0~22 $end
$var wire 1 f# alu|alu2|Add0~24_combout $end
$var wire 1 g# antiloop|saidaA~47_combout $end
$var wire 1 h# resultado[15]~15_combout $end
$var wire 1 i# regResto|saidaResto[0]~feeder_combout $end
$var wire 1 j# controle|menor~0_combout $end
$var wire 1 k# controle|menor~1_combout $end
$var wire 1 l# controle|menor~regout $end
$var wire 1 m# controle|resetResto~0_combout $end
$var wire 1 n# controle|resetResto~2_combout $end
$var wire 1 o# controle|resetResto~regout $end
$var wire 1 p# regResto|saidaResto[7]~8_combout $end
$var wire 1 q# regResto|saidaResto[1]~feeder_combout $end
$var wire 1 r# regResto|saidaResto[2]~feeder_combout $end
$var wire 1 s# regResto|saidaResto[3]~feeder_combout $end
$var wire 1 t# regResto|saidaResto[4]~feeder_combout $end
$var wire 1 u# regResto|saidaResto[5]~feeder_combout $end
$var wire 1 v# regResto|saidaResto[6]~feeder_combout $end
$var wire 1 w# regResto|saidaResto[7]~feeder_combout $end
$var wire 1 x# controle|Endereco [8] $end
$var wire 1 y# controle|Endereco [7] $end
$var wire 1 z# controle|Endereco [6] $end
$var wire 1 {# controle|Endereco [5] $end
$var wire 1 |# controle|Endereco [4] $end
$var wire 1 }# controle|Endereco [3] $end
$var wire 1 ~# controle|Endereco [2] $end
$var wire 1 !$ controle|Endereco [1] $end
$var wire 1 "$ controle|Endereco [0] $end
$var wire 1 #$ antiloop|saidaA [15] $end
$var wire 1 $$ antiloop|saidaA [14] $end
$var wire 1 %$ antiloop|saidaA [13] $end
$var wire 1 &$ antiloop|saidaA [12] $end
$var wire 1 '$ antiloop|saidaA [11] $end
$var wire 1 ($ antiloop|saidaA [10] $end
$var wire 1 )$ antiloop|saidaA [9] $end
$var wire 1 *$ antiloop|saidaA [8] $end
$var wire 1 +$ antiloop|saidaA [7] $end
$var wire 1 ,$ antiloop|saidaA [6] $end
$var wire 1 -$ antiloop|saidaA [5] $end
$var wire 1 .$ antiloop|saidaA [4] $end
$var wire 1 /$ antiloop|saidaA [3] $end
$var wire 1 0$ antiloop|saidaA [2] $end
$var wire 1 1$ antiloop|saidaA [1] $end
$var wire 1 2$ antiloop|saidaA [0] $end
$var wire 1 3$ controle|contador [7] $end
$var wire 1 4$ controle|contador [6] $end
$var wire 1 5$ controle|contador [5] $end
$var wire 1 6$ controle|contador [4] $end
$var wire 1 7$ controle|contador [3] $end
$var wire 1 8$ controle|contador [2] $end
$var wire 1 9$ controle|contador [1] $end
$var wire 1 :$ controle|contador [0] $end
$var wire 1 ;$ rega|saidaA [15] $end
$var wire 1 <$ rega|saidaA [14] $end
$var wire 1 =$ rega|saidaA [13] $end
$var wire 1 >$ rega|saidaA [12] $end
$var wire 1 ?$ rega|saidaA [11] $end
$var wire 1 @$ rega|saidaA [10] $end
$var wire 1 A$ rega|saidaA [9] $end
$var wire 1 B$ rega|saidaA [8] $end
$var wire 1 C$ rega|saidaA [7] $end
$var wire 1 D$ rega|saidaA [6] $end
$var wire 1 E$ rega|saidaA [5] $end
$var wire 1 F$ rega|saidaA [4] $end
$var wire 1 G$ rega|saidaA [3] $end
$var wire 1 H$ rega|saidaA [2] $end
$var wire 1 I$ rega|saidaA [1] $end
$var wire 1 J$ rega|saidaA [0] $end
$var wire 1 K$ regb|saidaA [15] $end
$var wire 1 L$ regb|saidaA [14] $end
$var wire 1 M$ regb|saidaA [13] $end
$var wire 1 N$ regb|saidaA [12] $end
$var wire 1 O$ regb|saidaA [11] $end
$var wire 1 P$ regb|saidaA [10] $end
$var wire 1 Q$ regb|saidaA [9] $end
$var wire 1 R$ regb|saidaA [8] $end
$var wire 1 S$ regb|saidaA [7] $end
$var wire 1 T$ regb|saidaA [6] $end
$var wire 1 U$ regb|saidaA [5] $end
$var wire 1 V$ regb|saidaA [4] $end
$var wire 1 W$ regb|saidaA [3] $end
$var wire 1 X$ regb|saidaA [2] $end
$var wire 1 Y$ regb|saidaA [1] $end
$var wire 1 Z$ regb|saidaA [0] $end
$var wire 1 [$ regc|saidaC [15] $end
$var wire 1 \$ regc|saidaC [14] $end
$var wire 1 ]$ regc|saidaC [13] $end
$var wire 1 ^$ regc|saidaC [12] $end
$var wire 1 _$ regc|saidaC [11] $end
$var wire 1 `$ regc|saidaC [10] $end
$var wire 1 a$ regc|saidaC [9] $end
$var wire 1 b$ regc|saidaC [8] $end
$var wire 1 c$ regc|saidaC [7] $end
$var wire 1 d$ regc|saidaC [6] $end
$var wire 1 e$ regc|saidaC [5] $end
$var wire 1 f$ regc|saidaC [4] $end
$var wire 1 g$ regc|saidaC [3] $end
$var wire 1 h$ regc|saidaC [2] $end
$var wire 1 i$ regc|saidaC [1] $end
$var wire 1 j$ regc|saidaC [0] $end
$var wire 1 k$ regResto|saidaResto [15] $end
$var wire 1 l$ regResto|saidaResto [14] $end
$var wire 1 m$ regResto|saidaResto [13] $end
$var wire 1 n$ regResto|saidaResto [12] $end
$var wire 1 o$ regResto|saidaResto [11] $end
$var wire 1 p$ regResto|saidaResto [10] $end
$var wire 1 q$ regResto|saidaResto [9] $end
$var wire 1 r$ regResto|saidaResto [8] $end
$var wire 1 s$ regResto|saidaResto [7] $end
$var wire 1 t$ regResto|saidaResto [6] $end
$var wire 1 u$ regResto|saidaResto [5] $end
$var wire 1 v$ regResto|saidaResto [4] $end
$var wire 1 w$ regResto|saidaResto [3] $end
$var wire 1 x$ regResto|saidaResto [2] $end
$var wire 1 y$ regResto|saidaResto [1] $end
$var wire 1 z$ regResto|saidaResto [0] $end
$var wire 1 {$ antiloopd|saidaA [15] $end
$var wire 1 |$ antiloopd|saidaA [14] $end
$var wire 1 }$ antiloopd|saidaA [13] $end
$var wire 1 ~$ antiloopd|saidaA [12] $end
$var wire 1 !% antiloopd|saidaA [11] $end
$var wire 1 "% antiloopd|saidaA [10] $end
$var wire 1 #% antiloopd|saidaA [9] $end
$var wire 1 $% antiloopd|saidaA [8] $end
$var wire 1 %% antiloopd|saidaA [7] $end
$var wire 1 &% antiloopd|saidaA [6] $end
$var wire 1 '% antiloopd|saidaA [5] $end
$var wire 1 (% antiloopd|saidaA [4] $end
$var wire 1 )% antiloopd|saidaA [3] $end
$var wire 1 *% antiloopd|saidaA [2] $end
$var wire 1 +% antiloopd|saidaA [1] $end
$var wire 1 ,% antiloopd|saidaA [0] $end
$var wire 1 -% rom|temp_rtl_0|auto_generated|ram_block1a0_PORTADATAOUT_bus [7] $end
$var wire 1 .% rom|temp_rtl_0|auto_generated|ram_block1a0_PORTADATAOUT_bus [6] $end
$var wire 1 /% rom|temp_rtl_0|auto_generated|ram_block1a0_PORTADATAOUT_bus [5] $end
$var wire 1 0% rom|temp_rtl_0|auto_generated|ram_block1a0_PORTADATAOUT_bus [4] $end
$var wire 1 1% rom|temp_rtl_0|auto_generated|ram_block1a0_PORTADATAOUT_bus [3] $end
$var wire 1 2% rom|temp_rtl_0|auto_generated|ram_block1a0_PORTADATAOUT_bus [2] $end
$var wire 1 3% rom|temp_rtl_0|auto_generated|ram_block1a0_PORTADATAOUT_bus [1] $end
$var wire 1 4% rom|temp_rtl_0|auto_generated|ram_block1a0_PORTADATAOUT_bus [0] $end
$upscope $end
$upscope $end
$enddefinitions $end
#0
$dumpvars
0!
0"
02
01
00
0/
0.
0-
0,
0+
0*
0)
0(
0'
0&
0%
0$
0#
0:
09
08
07
06
05
04
03
0J
0I
0H
0G
0F
0E
0D
0C
0B
0A
0@
0?
0>
0=
0<
0;
0Z
0Y
0X
0W
0V
0U
0T
0S
0R
0Q
0P
0O
0N
0M
0L
0K
0j
0i
0h
0g
0f
0e
0d
0c
0b
0a
0`
0_
0^
0]
0\
0[
xk
0l
1m
xn
1o
1p
1q
0r
1s
1t
0u
1v
0w
1x
0y
1z
0{
0|
1}
0~
1!!
0"!
0#!
0$!
0%!
0&!
1'!
1(!
0)!
1*!
0+!
1,!
0-!
0.!
0/!
00!
01!
02!
03!
04!
05!
06!
07!
08!
19!
0:!
0;!
0<!
0=!
0>!
0?!
0@!
0A!
1B!
1C!
0D!
0E!
0F!
0G!
0H!
0I!
1J!
0K!
1L!
0M!
1N!
0O!
0P!
1Q!
0R!
0S!
0T!
1U!
1V!
0W!
1X!
0Y!
0Z!
0[!
1\!
0]!
0^!
0_!
0`!
0a!
0b!
1c!
0d!
0e!
0f!
0g!
1h!
0i!
0j!
0k!
1l!
0m!
0n!
1o!
0p!
0q!
0r!
0s!
0t!
0u!
0v!
0w!
0x!
0y!
0z!
1{!
0|!
0}!
0~!
0!"
0""
1#"
0$"
0%"
0&"
0'"
1("
0)"
0*"
0+"
0,"
0-"
0."
0/"
10"
01"
02"
03"
14"
05"
16"
07"
18"
09"
0:"
0;"
0<"
0="
1>"
0?"
0@"
1A"
0B"
1C"
0D"
1E"
0F"
0G"
1H"
0I"
0J"
0K"
0L"
0M"
0N"
1O"
0P"
0Q"
1R"
0S"
0T"
0U"
0V"
0W"
1X"
0Y"
0Z"
0["
1\"
0]"
0^"
1_"
1`"
1a"
0b"
0c"
0d"
0e"
0f"
1g"
0h"
0i"
0j"
1k"
0l"
0m"
0n"
0o"
1p"
1q"
0r"
1s"
0t"
0u"
0v"
0w"
1x"
1y"
0z"
0{"
0|"
1}"
1~"
0!#
0"#
1##
0$#
1%#
0&#
1'#
1(#
1)#
0*#
0+#
0,#
0-#
0.#
0/#
00#
01#
02#
13#
04#
05#
06#
07#
08#
09#
0:#
0;#
0<#
0=#
0>#
0?#
0@#
1A#
0B#
0C#
1D#
0E#
1F#
1G#
0H#
0I#
0J#
0K#
0L#
0M#
0N#
0O#
0P#
0Q#
0R#
0S#
0T#
0U#
0V#
0W#
0X#
0Y#
0Z#
0[#
0\#
0]#
0^#
0_#
0`#
0a#
0b#
0c#
1d#
0e#
0f#
0g#
0h#
0i#
0j#
0k#
0l#
1m#
0n#
0o#
0p#
0q#
0r#
0s#
0t#
0u#
0v#
0w#
z"$
0!$
0~#
z}#
z|#
z{#
zz#
zy#
zx#
02$
01$
00$
0/$
0.$
0-$
0,$
0+$
0*$
0)$
0($
0'$
0&$
0%$
0$$
0#$
0:$
09$
08$
07$
06$
05$
04$
03$
0J$
0I$
0H$
0G$
0F$
0E$
0D$
0C$
zB$
zA$
z@$
z?$
z>$
z=$
z<$
z;$
0Z$
0Y$
0X$
0W$
0V$
0U$
0T$
0S$
zR$
zQ$
zP$
zO$
zN$
zM$
zL$
zK$
0j$
0i$
0h$
0g$
0f$
0e$
0d$
0c$
0b$
0a$
0`$
0_$
0^$
0]$
0\$
0[$
0z$
0y$
0x$
0w$
0v$
0u$
0t$
0s$
zr$
zq$
zp$
zo$
zn$
zm$
zl$
zk$
0,%
0+%
0*%
0)%
0(%
0'%
0&%
0%%
0$%
0#%
0"%
0!%
0~$
0}$
0|$
0{$
04%
03%
02%
01%
00%
0/%
0.%
0-%
$end
#5000
1!
14!
15!
0k
#5001
13%
10%
1/%
1G!
1@!
1D!
#10000
0!
04!
05!
1k
1H#
1I#
#15000
1!
14!
15!
0k
1J#
0G#
1=#
1Y!
1=!
17!
1>#
1<!
#20000
0!
04!
05!
1k
18!
1>!
1Z!
1?#
0H#
0=!
09!
1K#
0d#
0%#
0p"
0`"
0c!
0,!
0*!
0(!
0'!
0I#
0X!
1:!
1f#
1h"
1&#
1e#
1r"
0a"
1n"
1l"
0q"
1o"
0k"
1i"
0g"
1e"
1d"
1b"
1h#
0s"
0i"
1\#
0'#
0f#
1b#
0b"
0o"
1_#
0r"
1a#
0l"
1^#
0&#
1[#
0e"
1Z#
1#
1(
1$
1&
1%
1'
1)
1*
0^#
1'#
0h#
1s"
0Z#
0a#
0b#
0_#
0\#
0[#
0'
0#
0*
0%
0$
0&
0(
0)
#25000
1!
14!
15!
0k
0J#
1I$
1F$
1E$
1;!
0K#
1G#
0=#
0Y!
07!
1~!
0\!
1p!
0Q!
1N"
0>#
03#
10#
1|!
1z!
1R!
1.!
11"
1/"
1L"
1r
1}!
12"
1M"
1q#
1P#
0v
1t#
1S#
1y
1u#
1T#
0z
11
1.
1-
1w
1{
0x
1|
#25001
14%
11%
00%
1H!
1E!
0@!
#30000
0!
04!
05!
1k
1!$
11#
0?#
#35000
1!
14!
15!
0k
12#
1'%
1+%
1(%
1U$
1Z$
1Y$
1W$
0;!
1-#
1T!
1J"
1i!
0B!
13"
1x!
1[!
0U!
1I!
1r!
1W!
1v
06"
1j!
0L!
1#!
1x
0<!
1"
1E
1I
1F
1n#
00#
0R"
0L"
0r
0V!
0C!
04"
1u!
0{!
1t!
0J!
0|!
0#"
0z!
0w
1+"
1."
1)"
1S"
0M"
0(#
1;"
1_!
1*#
15"
1v!
1!"
1|!
1K!
0}!
1$"
1,"
0/"
1T"
0u#
0T#
08"
1z
0)#
1v"
0_!
1<"
1i#
1O#
03"
0("
1""
0q#
0P#
1%"
1s#
1R#
0-
12
01
1/
1v#
1V#
0)"
1r#
1Q#
05"
1w
1,
10
16"
0x
#35001
03%
01%
0G!
0E!
#40000
0!
04!
05!
1k
01#
1H#
1o#
1I#
1p#
