Turma2_2017020700_2017001212_2017005113/SISTEMA_FINAL/simulation/qsim/SISTEMA_FINAL.msim.vcd
$comment
	File created using the following command:
		vcd file SISTEMA_FINAL.msim.vcd -direction
$end
$date
	Mon Jul 02 14:20:20 2018
$end
$version
	ModelSim Version 10.1d
$end
$timescale
	1ps
$end
$scope module SISTEMA_FINAL_vlg_vec_tst $end
$var reg 1 ! clk $end
$var wire 1 " FimB $end
$var wire 1 # SaidaAlu [15] $end
$var wire 1 $ SaidaAlu [14] $end
$var wire 1 % SaidaAlu [13] $end
$var wire 1 & SaidaAlu [12] $end
$var wire 1 ' SaidaAlu [11] $end
$var wire 1 ( SaidaAlu [10] $end
$var wire 1 ) SaidaAlu [9] $end
$var wire 1 * SaidaAlu [8] $end
$var wire 1 + SaidaAlu [7] $end
$var wire 1 , SaidaAlu [6] $end
$var wire 1 - SaidaAlu [5] $end
$var wire 1 . SaidaAlu [4] $end
$var wire 1 / SaidaAlu [3] $end
$var wire 1 0 SaidaAlu [2] $end
$var wire 1 1 SaidaAlu [1] $end
$var wire 1 2 SaidaAlu [0] $end
$var wire 1 3 contador [7] $end
$var wire 1 4 contador [6] $end
$var wire 1 5 contador [5] $end
$var wire 1 6 contador [4] $end
$var wire 1 7 contador [3] $end
$var wire 1 8 contador [2] $end
$var wire 1 9 contador [1] $end
$var wire 1 : contador [0] $end
$var wire 1 ; ffald [15] $end
$var wire 1 < ffald [14] $end
$var wire 1 = ffald [13] $end
$var wire 1 > ffald [12] $end
$var wire 1 ? ffald [11] $end
$var wire 1 @ ffald [10] $end
$var wire 1 A ffald [9] $end
$var wire 1 B ffald [8] $end
$var wire 1 C ffald [7] $end
$var wire 1 D ffald [6] $end
$var wire 1 E ffald [5] $end
$var wire 1 F ffald [4] $end
$var wire 1 G ffald [3] $end
$var wire 1 H ffald [2] $end
$var wire 1 I ffald [1] $end
$var wire 1 J ffald [0] $end
$var wire 1 K saida [15] $end
$var wire 1 L saida [14] $end
$var wire 1 M saida [13] $end
$var wire 1 N saida [12] $end
$var wire 1 O saida [11] $end
$var wire 1 P saida [10] $end
$var wire 1 Q saida [9] $end
$var wire 1 R saida [8] $end
$var wire 1 S saida [7] $end
$var wire 1 T saida [6] $end
$var wire 1 U saida [5] $end
$var wire 1 V saida [4] $end
$var wire 1 W saida [3] $end
$var wire 1 X saida [2] $end
$var wire 1 Y saida [1] $end
$var wire 1 Z saida [0] $end
$var wire 1 [ saidaResto [15] $end
$var wire 1 \ saidaResto [14] $end
$var wire 1 ] saidaResto [13] $end
$var wire 1 ^ saidaResto [12] $end
$var wire 1 _ saidaResto [11] $end
$var wire 1 ` saidaResto [10] $end
$var wire 1 a saidaResto [9] $end
$var wire 1 b saidaResto [8] $end
$var wire 1 c saidaResto [7] $end
$var wire 1 d saidaResto [6] $end
$var wire 1 e saidaResto [5] $end
$var wire 1 f saidaResto [4] $end
$var wire 1 g saidaResto [3] $end
$var wire 1 h saidaResto [2] $end
$var wire 1 i saidaResto [1] $end
$var wire 1 j saidaResto [0] $end
$var wire 1 k sampler $end
$scope module i1 $end
$var wire 1 l gnd $end
$var wire 1 m vcc $end
$var wire 1 n unknown $end
$var tri1 1 o devclrn $end
$var tri1 1 p devpor $end
$var tri1 1 q devoe $end
$var wire 1 r alu|alu1|Add0~2_combout $end
$var wire 1 s alu|alu1|Add0~6_combout $end
$var wire 1 t SaidaMuxD[1]~1_combout $end
$var wire 1 u SaidaMuxM[2]~2_combout $end
$var wire 1 v SaidaMuxD[3]~3_combout $end
$var wire 1 w SaidaMuxM[4]~4_combout $end
$var wire 1 x SaidaMuxD[5]~5_combout $end
$var wire 1 y SaidaMuxD[7]~7_combout $end
$var wire 1 z SaidaMuxD[8]~8_combout $end
$var wire 1 { alu|alu2|Add0~5_combout $end
$var wire 1 | alu|alu2|Add0~8_combout $end
$var wire 1 } SaidaMuxD[11]~11_combout $end
$var wire 1 ~ alu|alu2|Add0~14_combout $end
$var wire 1 !! alu|alu2|Add0~17_combout $end
$var wire 1 "! alu|alu2|Add0~20_combout $end
$var wire 1 #! controle|Equal1~1_combout $end
$var wire 1 $! controle|Equal2~1_combout $end
$var wire 1 %! controle|EnResto~1_combout $end
$var wire 1 &! controle|Endereco~0_combout $end
$var wire 1 '! antiloop|saidaA~42_combout $end
$var wire 1 (! antiloop|saidaA~44_combout $end
$var wire 1 )! antiloop|saidaA~45_combout $end
$var wire 1 *! controle|EnB~6_combout $end
$var wire 1 +! clk~combout $end
$var wire 1 ,! clk~clkctrl_outclk $end
$var wire 1 -! rega|FimA~regout $end
$var wire 1 .! controle|Endereco~1_combout $end
$var wire 1 /! controle|EnA~regout $end
$var wire 1 0! controle|Endereco~4_combout $end
$var wire 1 1! controle|Endereco[1]~3_combout $end
$var wire 1 2! rom|temp_rtl_0|auto_generated|ram_block1a0~portadataout $end
$var wire 1 3! rom|temp_rtl_0|auto_generated|ram_block1a3 $end
$var wire 1 4! controle|Equal1~0_combout $end
$var wire 1 5! rom|temp_rtl_0|auto_generated|ram_block1a7 $end
$var wire 1 6! rom|temp_rtl_0|auto_generated|ram_block1a6 $end
$var wire 1 7! rom|temp_rtl_0|auto_generated|ram_block1a5 $end
$var wire 1 8! rom|temp_rtl_0|auto_generated|ram_block1a4 $end
$var wire 1 9! rom|temp_rtl_0|auto_generated|ram_block1a1 $end
$var wire 1 :! controle|LessThan1~1_cout $end
$var wire 1 ;! controle|LessThan1~3_cout $end
$var wire 1 <! controle|LessThan1~5_cout $end
$var wire 1 =! controle|LessThan1~7_cout $end
$var wire 1 >! controle|LessThan1~9_cout $end
$var wire 1 ?! controle|LessThan1~11_cout $end
$var wire 1 @! controle|LessThan1~13_cout $end
$var wire 1 A! controle|LessThan1~14_combout $end
$var wire 1 B! controle|multp~2_combout $end
$var wire 1 C! controle|DIV~1_combout $end
$var wire 1 D! controle|DIV~regout $end
$var wire 1 E! controle|multp~3_combout $end
$var wire 1 F! controle|EnB~4_combout $end
$var wire 1 G! controle|Equal2~0_combout $end
$var wire 1 H! controle|Equal2~2_combout $end
$var wire 1 I! controle|EnC~0_combout $end
$var wire 1 J! controle|multp~5_combout $end
$var wire 1 K! SaidaMuxD[9]~9_combout $end
$var wire 1 L! controle|Add0~9 $end
$var wire 1 M! controle|Add0~10_combout $end
$var wire 1 N! controle|contador[5]~5_combout $end
$var wire 1 O! controle|Add0~0_combout $end
$var wire 1 P! controle|contador[0]~0_combout $end
$var wire 1 Q! controle|contador~10_combout $end
$var wire 1 R! controle|Add1~0_combout $end
$var wire 1 S! controle|contador~9_combout $end
$var wire 1 T! controle|contador~11_combout $end
$var wire 1 U! controle|contador[0]~12_combout $end
$var wire 1 V! controle|contador[0]~13_combout $end
$var wire 1 W! controle|Add1~1 $end
$var wire 1 X! controle|Add1~3 $end
$var wire 1 Y! controle|Add1~5 $end
$var wire 1 Z! controle|Add1~7 $end
$var wire 1 [! controle|Add1~9 $end
$var wire 1 \! controle|Add1~10_combout $end
$var wire 1 ]! controle|contador[5]~16_combout $end
$var wire 1 ^! controle|contador~8_combout $end
$var wire 1 _! antiloop|saidaA~37_combout $end
$var wire 1 `! SaidaMuxM[5]~5_combout $end
$var wire 1 a! SaidaMuxD[4]~4_combout $end
$var wire 1 b! SaidaMuxM[0]~0_combout $end
$var wire 1 c! alu|alu1|Add2~1 $end
$var wire 1 d! alu|alu1|Add2~2_combout $end
$var wire 1 e! regResto|saidaResto[1]~1_combout $end
$var wire 1 f! antiloop|saidaA~33_combout $end
$var wire 1 g! SaidaMuxM[1]~1_combout $end
$var wire 1 h! alu|alu1|Add0~0_combout $end
$var wire 1 i! alu|alu1|Add2~0_combout $end
$var wire 1 j! regResto|saidaResto[0]~0_combout $end
$var wire 1 k! SaidaMuxD[0]~0_combout $end
$var wire 1 l! alu|alu1|Add0~1 $end
$var wire 1 m! alu|alu1|Add0~3 $end
$var wire 1 n! alu|alu1|Add0~4_combout $end
$var wire 1 o! regResto|saidaResto[2]~2_combout $end
$var wire 1 p! SaidaMuxD[2]~2_combout $end
$var wire 1 q! alu|alu1|Add2~3 $end
$var wire 1 r! alu|alu1|Add2~5 $end
$var wire 1 s! alu|alu1|Add2~6_combout $end
$var wire 1 t! regResto|saidaResto[3]~3_combout $end
$var wire 1 u! antiloop|saidaA~35_combout $end
$var wire 1 v! SaidaMuxM[3]~3_combout $end
$var wire 1 w! alu|alu1|Add2~7 $end
$var wire 1 x! alu|alu1|Add2~9 $end
$var wire 1 y! alu|alu1|Add2~10_combout $end
$var wire 1 z! alu|alu1|Add0~5 $end
$var wire 1 {! alu|alu1|Add0~7 $end
$var wire 1 |! alu|alu1|Add0~9 $end
$var wire 1 }! alu|alu1|Add0~10_combout $end
$var wire 1 ~! regResto|saidaResto[5]~5_combout $end
$var wire 1 !" alu|alu1|Add2~8_combout $end
$var wire 1 "" alu|alu1|Add0~8_combout $end
$var wire 1 #" regResto|saidaResto[4]~4_combout $end
$var wire 1 $" controle|LessThan3~3_cout $end
$var wire 1 %" controle|LessThan3~5_cout $end
$var wire 1 &" controle|LessThan3~7_cout $end
$var wire 1 '" controle|LessThan3~9_cout $end
$var wire 1 (" controle|LessThan3~11_cout $end
$var wire 1 )" controle|LessThan3~13_cout $end
$var wire 1 *" controle|LessThan3~15_cout $end
$var wire 1 +" controle|LessThan3~16_combout $end
$var wire 1 ," controle|contador[2]~17_combout $end
$var wire 1 -" controle|contador[2]~18_combout $end
$var wire 1 ." controle|contador[2]~19_combout $end
$var wire 1 /" controle|Add0~11 $end
$var wire 1 0" controle|Add0~12_combout $end
$var wire 1 1" controle|contador[6]~6_combout $end
$var wire 1 2" controle|Add1~11 $end
$var wire 1 3" controle|Add1~12_combout $end
$var wire 1 4" controle|Add0~13 $end
$var wire 1 5" controle|Add0~14_combout $end
$var wire 1 6" controle|contador[7]~7_combout $end
$var wire 1 7" controle|Add1~13 $end
$var wire 1 8" controle|Add1~14_combout $end
$var wire 1 9" antiloop|Equal0~1_combout $end
$var wire 1 :" antiloop|saidaA~38_combout $end
$var wire 1 ;" SaidaMuxM[6]~6_combout $end
$var wire 1 <" alu|alu1|Add2~11 $end
$var wire 1 =" alu|alu1|Add2~12_combout $end
$var wire 1 >" alu|alu1|Add0~11 $end
$var wire 1 ?" alu|alu1|Add0~12_combout $end
$var wire 1 @" regResto|saidaResto[6]~6_combout $end
$var wire 1 A" SaidaMuxD[6]~6_combout $end
$var wire 1 B" alu|alu1|Add0~13 $end
$var wire 1 C" alu|alu1|Add0~14_combout $end
$var wire 1 D" regResto|saidaResto[7]~7_combout $end
$var wire 1 E" antiloop|saidaA~39_combout $end
$var wire 1 F" SaidaMuxM[7]~7_combout $end
$var wire 1 G" alu|alu1|Add2~13 $end
$var wire 1 H" alu|alu1|Add2~15 $end
$var wire 1 I" alu|alu1|Add2~16_combout $end
$var wire 1 J" alu|alu1|Add0~15 $end
$var wire 1 K" alu|alu1|Add0~16_combout $end
$var wire 1 L" alu|alu1|Add0~18_combout $end
$var wire 1 M" alu|alu2|Add0~2_cout $end
$var wire 1 N" alu|alu2|Add0~3_combout $end
$var wire 1 O" antiloop|saidaA~40_combout $end
$var wire 1 P" alu|alu2|Add0~0_combout $end
$var wire 1 Q" alu|alu2|Add0~4 $end
$var wire 1 R" alu|alu2|Add0~6_combout $end
$var wire 1 S" SaidaMuxD[10]~10_combout $end
$var wire 1 T" alu|alu2|Add0~7 $end
$var wire 1 U" alu|alu2|Add0~9_combout $end
$var wire 1 V" antiloop|saidaA~43_combout $end
$var wire 1 W" alu|alu2|Add0~11_combout $end
$var wire 1 X" alu|alu2|Add0~10 $end
$var wire 1 Y" alu|alu2|Add0~12_combout $end
$var wire 1 Z" controle|LessThan3~0_combout $end
$var wire 1 [" controle|LessThan3~18_combout $end
$var wire 1 \" controle|LessThan2~1_cout $end
$var wire 1 ]" controle|LessThan2~3_cout $end
$var wire 1 ^" controle|LessThan2~5_cout $end
$var wire 1 _" controle|LessThan2~7_cout $end
$var wire 1 `" controle|LessThan2~9_cout $end
$var wire 1 a" controle|LessThan2~11_cout $end
$var wire 1 b" controle|LessThan2~13_cout $end
$var wire 1 c" controle|LessThan2~14_combout $end
$var wire 1 d" controle|always1~0_combout $end
$var wire 1 e" controle|EnResto~2_combout $end
$var wire 1 f" controle|multp~4_combout $end
$var wire 1 g" controle|multp~regout $end
$var wire 1 h" controle|EnResto~0_combout $end
$var wire 1 i" controle|EnResto~3_combout $end
$var wire 1 j" controle|EnResto~regout $end
$var wire 1 k" regResto|FimResto~regout $end
$var wire 1 l" controle|SELD~2_combout $end
$var wire 1 m" controle|SELD~3_combout $end
$var wire 1 n" controle|SELD~regout $end
$var wire 1 o" SaidaMuxD[13]~13_combout $end
$var wire 1 p" alu|alu2|Add0~13 $end
$var wire 1 q" alu|alu2|Add0~15_combout $end
$var wire 1 r" SaidaMuxD[12]~12_combout $end
$var wire 1 s" alu|alu2|Add0~16 $end
$var wire 1 t" alu|alu2|Add0~18_combout $end
$var wire 1 u" SaidaMuxD[14]~14_combout $end
$var wire 1 v" alu|alu2|Add0~19 $end
$var wire 1 w" alu|alu2|Add0~21_combout $end
$var wire 1 x" antiloop|saidaA~47_combout $end
$var wire 1 y" alu|alu2|Add0~23_combout $end
$var wire 1 z" SaidaMuxD[15]~15_combout $end
$var wire 1 {" alu|alu2|Add0~22 $end
$var wire 1 |" alu|alu2|Add0~24_combout $end
$var wire 1 }" controle|LessThan3~1_combout $end
$var wire 1 ~" controle|EnB~2_combout $end
$var wire 1 !# controle|EnB~3_combout $end
$var wire 1 "# controle|EnB~5_combout $end
$var wire 1 ## controle|EnB~regout $end
$var wire 1 $# regb|FimA~regout $end
$var wire 1 %# controle|always1~1_combout $end
$var wire 1 &# controle|EnC~1_combout $end
$var wire 1 '# controle|EnC~2_combout $end
$var wire 1 (# controle|EnC~regout $end
$var wire 1 )# regc|FimC~regout $end
$var wire 1 *# controle|state~10_combout $end
$var wire 1 +# controle|DIV~0_combout $end
$var wire 1 ,# controle|state.s2~regout $end
$var wire 1 -# controle|state~12_combout $end
$var wire 1 .# controle|state.s3~regout $end
$var wire 1 /# controle|state~13_combout $end
$var wire 1 0# controle|state.s4~regout $end
$var wire 1 1# controle|state~11_combout $end
$var wire 1 2# controle|state.s1~regout $end
$var wire 1 3# controle|Endereco~2_combout $end
$var wire 1 4# rom|temp_rtl_0|auto_generated|ram_block1a2 $end
$var wire 1 5# controle|Add0~1 $end
$var wire 1 6# controle|Add0~3 $end
$var wire 1 7# controle|Add0~4_combout $end
$var wire 1 8# controle|contador[2]~2_combout $end
$var wire 1 9# controle|Add1~4_combout $end
$var wire 1 :# controle|Add0~5 $end
$var wire 1 ;# controle|Add0~7 $end
$var wire 1 <# controle|Add0~8_combout $end
$var wire 1 =# controle|contador[4]~4_combout $end
$var wire 1 ># controle|Add1~8_combout $end
$var wire 1 ?# controle|Add0~2_combout $end
$var wire 1 @# controle|contador[1]~1_combout $end
$var wire 1 A# controle|Add1~2_combout $end
$var wire 1 B# controle|contador~14_combout $end
$var wire 1 C# controle|contador~15_combout $end
$var wire 1 D# antiloop|Equal0~0_combout $end
$var wire 1 E# antiloop|saidaA~32_combout $end
$var wire 1 F# resultado[0]~0_combout $end
$var wire 1 G# resultado[1]~1_combout $end
$var wire 1 H# antiloop|saidaA~34_combout $end
$var wire 1 I# alu|alu1|Add2~4_combout $end
$var wire 1 J# resultado[2]~2_combout $end
$var wire 1 K# resultado[3]~3_combout $end
$var wire 1 L# controle|Add0~6_combout $end
$var wire 1 M# controle|contador[3]~3_combout $end
$var wire 1 N# controle|Add1~6_combout $end
$var wire 1 O# antiloop|saidaA~36_combout $end
$var wire 1 P# resultado[4]~4_combout $end
$var wire 1 Q# resultado[5]~5_combout $end
$var wire 1 R# resultado[6]~6_combout $end
$var wire 1 S# alu|alu1|Add2~14_combout $end
$var wire 1 T# resultado[7]~7_combout $end
$var wire 1 U# resultado[8]~8_combout $end
$var wire 1 V# antiloop|saidaA~41_combout $end
$var wire 1 W# resultado[9]~9_combout $end
$var wire 1 X# resultado[10]~10_combout $end
$var wire 1 Y# resultado[11]~11_combout $end
$var wire 1 Z# resultado[12]~12_combout $end
$var wire 1 [# resultado[13]~13_combout $end
$var wire 1 \# antiloop|saidaA~46_combout $end
$var wire 1 ]# resultado[14]~14_combout $end
$var wire 1 ^# resultado[15]~15_combout $end
$var wire 1 _# regResto|saidaResto[0]~feeder_combout $end
$var wire 1 `# controle|menor~0_combout $end
$var wire 1 a# controle|menor~1_combout $end
$var wire 1 b# controle|menor~regout $end
$var wire 1 c# regResto|saidaResto[1]~feeder_combout $end
$var wire 1 d# regResto|saidaResto[2]~feeder_combout $end
$var wire 1 e# regResto|saidaResto[5]~feeder_combout $end
$var wire 1 f# regResto|saidaResto[6]~feeder_combout $end
$var wire 1 g# controle|Endereco [8] $end
$var wire 1 h# controle|Endereco [7] $end
$var wire 1 i# controle|Endereco [6] $end
$var wire 1 j# controle|Endereco [5] $end
$var wire 1 k# controle|Endereco [4] $end
$var wire 1 l# controle|Endereco [3] $end
$var wire 1 m# controle|Endereco [2] $end
$var wire 1 n# controle|Endereco [1] $end
$var wire 1 o# controle|Endereco [0] $end
$var wire 1 p# antiloop|saidaA [15] $end
$var wire 1 q# antiloop|saidaA [14] $end
$var wire 1 r# antiloop|saidaA [13] $end
$var wire 1 s# antiloop|saidaA [12] $end
$var wire 1 t# antiloop|saidaA [11] $end
$var wire 1 u# antiloop|saidaA [10] $end
$var wire 1 v# antiloop|saidaA [9] $end
$var wire 1 w# antiloop|saidaA [8] $end
$var wire 1 x# antiloop|saidaA [7] $end
$var wire 1 y# antiloop|saidaA [6] $end
$var wire 1 z# antiloop|saidaA [5] $end
$var wire 1 {# antiloop|saidaA [4] $end
$var wire 1 |# antiloop|saidaA [3] $end
$var wire 1 }# antiloop|saidaA [2] $end
$var wire 1 ~# antiloop|saidaA [1] $end
$var wire 1 !$ antiloop|saidaA [0] $end
$var wire 1 "$ controle|contador [7] $end
$var wire 1 #$ controle|contador [6] $end
$var wire 1 $$ controle|contador [5] $end
$var wire 1 %$ controle|contador [4] $end
$var wire 1 &$ controle|contador [3] $end
$var wire 1 '$ controle|contador [2] $end
$var wire 1 ($ controle|contador [1] $end
$var wire 1 )$ controle|contador [0] $end
$var wire 1 *$ rega|saidaA [15] $end
$var wire 1 +$ rega|saidaA [14] $end
$var wire 1 ,$ rega|saidaA [13] $end
$var wire 1 -$ rega|saidaA [12] $end
$var wire 1 .$ rega|saidaA [11] $end
$var wire 1 /$ rega|saidaA [10] $end
$var wire 1 0$ rega|saidaA [9] $end
$var wire 1 1$ rega|saidaA [8] $end
$var wire 1 2$ rega|saidaA [7] $end
$var wire 1 3$ rega|saidaA [6] $end
$var wire 1 4$ rega|saidaA [5] $end
$var wire 1 5$ rega|saidaA [4] $end
$var wire 1 6$ rega|saidaA [3] $end
$var wire 1 7$ rega|saidaA [2] $end
$var wire 1 8$ rega|saidaA [1] $end
$var wire 1 9$ rega|saidaA [0] $end
$var wire 1 :$ regb|saidaA [15] $end
$var wire 1 ;$ regb|saidaA [14] $end
$var wire 1 <$ regb|saidaA [13] $end
$var wire 1 =$ regb|saidaA [12] $end
$var wire 1 >$ regb|saidaA [11] $end
$var wire 1 ?$ regb|saidaA [10] $end
$var wire 1 @$ regb|saidaA [9] $end
$var wire 1 A$ regb|saidaA [8] $end
$var wire 1 B$ regb|saidaA [7] $end
$var wire 1 C$ regb|saidaA [6] $end
$var wire 1 D$ regb|saidaA [5] $end
$var wire 1 E$ regb|saidaA [4] $end
$var wire 1 F$ regb|saidaA [3] $end
$var wire 1 G$ regb|saidaA [2] $end
$var wire 1 H$ regb|saidaA [1] $end
$var wire 1 I$ regb|saidaA [0] $end
$var wire 1 J$ regc|saidaC [15] $end
$var wire 1 K$ regc|saidaC [14] $end
$var wire 1 L$ regc|saidaC [13] $end
$var wire 1 M$ regc|saidaC [12] $end
$var wire 1 N$ regc|saidaC [11] $end
$var wire 1 O$ regc|saidaC [10] $end
$var wire 1 P$ regc|saidaC [9] $end
$var wire 1 Q$ regc|saidaC [8] $end
$var wire 1 R$ regc|saidaC [7] $end
$var wire 1 S$ regc|saidaC [6] $end
$var wire 1 T$ regc|saidaC [5] $end
$var wire 1 U$ regc|saidaC [4] $end
$var wire 1 V$ regc|saidaC [3] $end
$var wire 1 W$ regc|saidaC [2] $end
$var wire 1 X$ regc|saidaC [1] $end
$var wire 1 Y$ regc|saidaC [0] $end
$var wire 1 Z$ regResto|saidaResto [15] $end
$var wire 1 [$ regResto|saidaResto [14] $end
$var wire 1 \$ regResto|saidaResto [13] $end
$var wire 1 ]$ regResto|saidaResto [12] $end
$var wire 1 ^$ regResto|saidaResto [11] $end
$var wire 1 _$ regResto|saidaResto [10] $end
$var wire 1 `$ regResto|saidaResto [9] $end
$var wire 1 a$ regResto|saidaResto [8] $end
$var wire 1 b$ regResto|saidaResto [7] $end
$var wire 1 c$ regResto|saidaResto [6] $end
$var wire 1 d$ regResto|saidaResto [5] $end
$var wire 1 e$ regResto|saidaResto [4] $end
$var wire 1 f$ regResto|saidaResto [3] $end
$var wire 1 g$ regResto|saidaResto [2] $end
$var wire 1 h$ regResto|saidaResto [1] $end
$var wire 1 i$ regResto|saidaResto [0] $end
$var wire 1 j$ antiloopd|saidaA [15] $end
$var wire 1 k$ antiloopd|saidaA [14] $end
$var wire 1 l$ antiloopd|saidaA [13] $end
$var wire 1 m$ antiloopd|saidaA [12] $end
$var wire 1 n$ antiloopd|saidaA [11] $end
$var wire 1 o$ antiloopd|saidaA [10] $end
$var wire 1 p$ antiloopd|saidaA [9] $end
$var wire 1 q$ antiloopd|saidaA [8] $end
$var wire 1 r$ antiloopd|saidaA [7] $end
$var wire 1 s$ antiloopd|saidaA [6] $end
$var wire 1 t$ antiloopd|saidaA [5] $end
$var wire 1 u$ antiloopd|saidaA [4] $end
$var wire 1 v$ antiloopd|saidaA [3] $end
$var wire 1 w$ antiloopd|saidaA [2] $end
$var wire 1 x$ antiloopd|saidaA [1] $end
$var wire 1 y$ antiloopd|saidaA [0] $end
$var wire 1 z$ rom|temp_rtl_0|auto_generated|ram_block1a0_PORTADATAOUT_bus [7] $end
$var wire 1 {$ rom|temp_rtl_0|auto_generated|ram_block1a0_PORTADATAOUT_bus [6] $end
$var wire 1 |$ rom|temp_rtl_0|auto_generated|ram_block1a0_PORTADATAOUT_bus [5] $end
$var wire 1 }$ rom|temp_rtl_0|auto_generated|ram_block1a0_PORTADATAOUT_bus [4] $end
$var wire 1 ~$ rom|temp_rtl_0|auto_generated|ram_block1a0_PORTADATAOUT_bus [3] $end
$var wire 1 !% rom|temp_rtl_0|auto_generated|ram_block1a0_PORTADATAOUT_bus [2] $end
$var wire 1 "% rom|temp_rtl_0|auto_generated|ram_block1a0_PORTADATAOUT_bus [1] $end
$var wire 1 #% rom|temp_rtl_0|auto_generated|ram_block1a0_PORTADATAOUT_bus [0] $end
$upscope $end
$upscope $end
$enddefinitions $end
#0
$dumpvars
0!
0"
02
01
00
0/
0.
0-
0,
0+
0*
0)
0(
0'
0&
0%
0$
0#
0:
09
08
07
06
05
04
03
0J
0I
0H
0G
0F
0E
0D
0C
0B
0A
0@
0?
0>
0=
0<
0;
0Z
0Y
0X
0W
0V
0U
0T
0S
0R
0Q
0P
0O
0N
0M
0L
0K
0j
0i
0h
0g
0f
0e
0d
0c
0b
0a
0`
0_
0^
0]
0\
0[
xk
0l
1m
xn
1o
1p
1q
0r
0s
0t
0u
0v
0w
0x
0y
0z
0{
0|
0}
0~
0!!
0"!
1#!
0$!
0%!
0&!
0'!
0(!
0)!
1*!
0+!
0,!
0-!
0.!
0/!
00!
01!
02!
03!
14!
05!
06!
07!
08!
09!
0:!
1;!
0<!
1=!
0>!
1?!
0@!
0A!
0B!
0C!
0D!
0E!
0F!
0G!
0H!
1I!
0J!
0K!
0L!
1M!
0N!
1O!
0P!
1Q!
1R!
0S!
0T!
0U!
0V!
0W!
1X!
0Y!
1Z!
0[!
0\!
0]!
0^!
0_!
0`!
0a!
0b!
1c!
0d!
0e!
0f!
0g!
0h!
0i!
0j!
0k!
0l!
1m!
0n!
0o!
0p!
0q!
1r!
0s!
0t!
0u!
0v!
0w!
1x!
0y!
0z!
1{!
0|!
0}!
0~!
0!"
0""
0#"
0$"
1%"
0&"
1'"
0("
1)"
0*"
0+"
0,"
0-"
0."
1/"
10"
01"
12"
03"
04"
15"
06"
07"
08"
19"
0:"
0;"
0<"
0="
1>"
0?"
0@"
0A"
0B"
0C"
0D"
0E"
0F"
1G"
0H"
1I"
1J"
0K"
0L"
0M"
0N"
0O"
0P"
1Q"
0R"
0S"
0T"
0U"
0V"
0W"
1X"
0Y"
1Z"
0["
0\"
1]"
0^"
1_"
0`"
1a"
0b"
0c"
1d"
1e"
0f"
0g"
0h"
0i"
0j"
0k"
0l"
0m"
0n"
0o"
0p"
0q"
0r"
1s"
0t"
0u"
0v"
0w"
0x"
0y"
0z"
1{"
0|"
1}"
1~"
1!#
0"#
0##
0$#
0%#
0&#
1'#
0(#
0)#
0*#
1+#
0,#
0-#
0.#
0/#
00#
01#
02#
03#
04#
05#
16#
17#
08#
09#
0:#
1;#
1<#
0=#
0>#
1?#
0@#
0A#
0B#
0C#
1D#
0E#
0F#
0G#
0H#
0I#
0J#
0K#
1L#
0M#
0N#
0O#
0P#
0Q#
0R#
0S#
0T#
0U#
0V#
0W#
0X#
0Y#
0Z#
0[#
0\#
0]#
0^#
0_#
0`#
0a#
0b#
0c#
0d#
0e#
0f#
zo#
0n#
0m#
zl#
zk#
zj#
zi#
zh#
zg#
0!$
0~#
0}#
0|#
0{#
0z#
0y#
0x#
0w#
0v#
0u#
0t#
0s#
0r#
0q#
0p#
0)$
0($
0'$
0&$
0%$
0$$
0#$
0"$
09$
08$
07$
06$
05$
04$
03$
02$
z1$
z0$
z/$
z.$
z-$
z,$
z+$
z*$
0I$
0H$
0G$
0F$
0E$
0D$
0C$
0B$
zA$
z@$
z?$
z>$
z=$
z<$
z;$
z:$
0Y$
0X$
0W$
0V$
0U$
0T$
0S$
0R$
0Q$
0P$
0O$
0N$
0M$
0L$
0K$
0J$
0i$
0h$
0g$
0f$
0e$
0d$
0c$
0b$
za$
z`$
z_$
z^$
z]$
z\$
z[$
zZ$
0y$
0x$
0w$
0v$
0u$
0t$
0s$
0r$
0q$
0p$
0o$
0n$
0m$
0l$
0k$
0j$
0#%
0"%
0!%
0~$
0}$
0|$
0{$
0z$
$end
#5000
1!
1+!
1,!
0k
#5001
1#%
1!%
12!
14#
#10000
0!
0+!
0,!
1k
1(#
#15000
1!
1+!
1,!
0k
1)#
11#
1*#
0'#
1C!
1&!
11!
1.!
#20000
0!
0+!
0,!
1k
1/!
1D!
0(#
1,#
12#
1y"
1l"
1W"
1P"
1L"
1]!
0C!
1"!
1!!
1~
1|
1{
1-#
13#
0*#
1|"
1Y"
1N"
1M"
1w"
1t"
1q"
1U"
1R"
1^#
0}"
1Y#
0Z"
1U#
0Q"
0N"
1]#
1[#
1Z#
1X#
1W#
1#
1'
1*
1$
1%
1&
1(
1)
1T"
0R"
0U#
0*
0X"
0U"
0W#
0)
1p"
0Y"
0X#
0(
0s"
0q"
0Y#
1Z"
0'
1v"
0t"
0Z#
0&
0{"
0w"
0[#
0%
0|"
0]#
0$
0^#
1}"
0#
#25000
1!
1+!
1,!
0k
0)#
19$
17$
1-!
01#
0-#
1'#
1C!
0&!
1k!
04!
1p!
0+#
1"#
0.!
1h!
1i!
1B!
1I#
1n!
1j!
1F#
0l"
1J#
1o!
1_#
1\"
1d#
1^"
12
10
0]"
0_"
1`"
0a"
1b"
1c"
#25001
1"%
19!
#30000
0!
0+!
0,!
1k
0/!
1##
1n#
1F!
#35000
1!
1+!
1,!
0k
1G$
1$#
1w$
1y$
1I$
1H$
0-!
18#
1G!
1u
1%#
1U!
1E!
0*!
0\"
1b!
1P!
1@#
1]"
0%"
1g!
0;!
01!
1"
1H
1J
1H!
0I#
1z!
0n!
0'#
1h"
1."
1V!
0F!
1l!
0h!
0i!
0^"
1&"
1q!
1d!
1r
1<!
0d"
1,"
0I!
0J#
0o!
1s
1i"
0"#
0m!
0r
0j!
0F#
1_"
0'"
0r!
1I#
1G#
1e!
0=!
1C#
0e"
1-"
0d#
1n!
0_#
1$"
0`"
1("
1w!
1s!
1J#
1o!
1c#
1%"
1>!
00
02
11
0i"
1f"
0%"
1a"
0)"
0x!
1!"
1K#
1t!
1d#
0&"
0?!
10
1&"
0b"
1*"
1<"
1y!
1P#
1#"
0_"
1'"
1@!
1/
0c"
1+"
0G"
1="
1Q#
1~!
1`"
0("
1A!
1.
1d"
0Q!
0~"
1["
1H"
1S#
1R#
1@"
1e#
0a"
1)"
0B!
1-
0C#
1e"
0!#
0I"
1T#
1D"
1f#
1b"
0*"
1a#
1l"
0f"
1%!
1,
1i"
0L"
1c"
0+"
1m"
1+
0M"
0d"
1Q!
1~"
0["
1Q"
1N"
0e"
1!#
0T"
1R"
1U#
0Z"
1*
1X"
1U"
1W#
1)
0p"
1Y"
1X#
1(
1s"
1q"
1Y#
1'
0v"
1t"
1Z#
0}"
1&
1{"
1w"
1[#
1%
1|"
1]#
1$
1^#
1#
#35001
0!%
04#
#40000
0!
0+!
0,!
1k
1j"
1n"
0##
1b#
1`#
