Turma2_2017020700_2017001212_2017005113/AntiLoop/simulation/qsim/AntiLoop.msim.vcd
$comment
	File created using the following command:
		vcd file AntiLoop.msim.vcd -direction
$end
$date
	Mon Jun 25 11:24:33 2018
$end
$version
	ModelSim Version 10.1d
$end
$timescale
	1ps
$end
$scope module AntiLoop_vlg_vec_tst $end
$var reg 1 ! clk $end
$var reg 8 " contador [7:0] $end
$var reg 16 # entrada [15:0] $end
$var wire 1 $ saidaA [15] $end
$var wire 1 % saidaA [14] $end
$var wire 1 & saidaA [13] $end
$var wire 1 ' saidaA [12] $end
$var wire 1 ( saidaA [11] $end
$var wire 1 ) saidaA [10] $end
$var wire 1 * saidaA [9] $end
$var wire 1 + saidaA [8] $end
$var wire 1 , saidaA [7] $end
$var wire 1 - saidaA [6] $end
$var wire 1 . saidaA [5] $end
$var wire 1 / saidaA [4] $end
$var wire 1 0 saidaA [3] $end
$var wire 1 1 saidaA [2] $end
$var wire 1 2 saidaA [1] $end
$var wire 1 3 saidaA [0] $end
$var wire 1 4 sampler $end
$scope module i1 $end
$var wire 1 5 gnd $end
$var wire 1 6 vcc $end
$var wire 1 7 unknown $end
$var tri1 1 8 devclrn $end
$var tri1 1 9 devpor $end
$var tri1 1 : devoe $end
$var wire 1 ; clk~combout $end
$var wire 1 < clk~clkctrl_outclk $end
$var wire 1 = Equal0~1_combout $end
$var wire 1 > saidaA~0_combout $end
$var wire 1 ? saidaA[0]~reg0_regout $end
$var wire 1 @ saidaA~1_combout $end
$var wire 1 A saidaA[1]~reg0_regout $end
$var wire 1 B Equal0~0_combout $end
$var wire 1 C saidaA~2_combout $end
$var wire 1 D saidaA[2]~reg0_regout $end
$var wire 1 E saidaA~3_combout $end
$var wire 1 F saidaA[3]~reg0_regout $end
$var wire 1 G saidaA~4_combout $end
$var wire 1 H saidaA[4]~reg0_regout $end
$var wire 1 I saidaA~5_combout $end
$var wire 1 J saidaA[5]~reg0_regout $end
$var wire 1 K saidaA~6_combout $end
$var wire 1 L saidaA[6]~reg0_regout $end
$var wire 1 M saidaA~7_combout $end
$var wire 1 N saidaA[7]~reg0_regout $end
$var wire 1 O saidaA~8_combout $end
$var wire 1 P saidaA[8]~reg0_regout $end
$var wire 1 Q saidaA~9_combout $end
$var wire 1 R saidaA[9]~reg0_regout $end
$var wire 1 S saidaA~10_combout $end
$var wire 1 T saidaA[10]~reg0_regout $end
$var wire 1 U saidaA~11_combout $end
$var wire 1 V saidaA[11]~reg0_regout $end
$var wire 1 W saidaA~12_combout $end
$var wire 1 X saidaA[12]~reg0_regout $end
$var wire 1 Y saidaA~13_combout $end
$var wire 1 Z saidaA[13]~reg0_regout $end
$var wire 1 [ saidaA~14_combout $end
$var wire 1 \ saidaA[14]~reg0_regout $end
$var wire 1 ] saidaA~15_combout $end
$var wire 1 ^ saidaA[15]~reg0_regout $end
$var wire 1 _ contador~combout [7] $end
$var wire 1 ` contador~combout [6] $end
$var wire 1 a contador~combout [5] $end
$var wire 1 b contador~combout [4] $end
$var wire 1 c contador~combout [3] $end
$var wire 1 d contador~combout [2] $end
$var wire 1 e contador~combout [1] $end
$var wire 1 f contador~combout [0] $end
$var wire 1 g entrada~combout [15] $end
$var wire 1 h entrada~combout [14] $end
$var wire 1 i entrada~combout [13] $end
$var wire 1 j entrada~combout [12] $end
$var wire 1 k entrada~combout [11] $end
$var wire 1 l entrada~combout [10] $end
$var wire 1 m entrada~combout [9] $end
$var wire 1 n entrada~combout [8] $end
$var wire 1 o entrada~combout [7] $end
$var wire 1 p entrada~combout [6] $end
$var wire 1 q entrada~combout [5] $end
$var wire 1 r entrada~combout [4] $end
$var wire 1 s entrada~combout [3] $end
$var wire 1 t entrada~combout [2] $end
$var wire 1 u entrada~combout [1] $end
$var wire 1 v entrada~combout [0] $end
$upscope $end
$upscope $end
$enddefinitions $end
#0
$dumpvars
0!
b0 "
b1111111111111111 #
03
02
01
00
0/
0.
0-
0,
0+
0*
0)
0(
0'
0&
0%
0$
x4
05
16
x7
18
19
1:
0;
0<
1=
0>
0?
0@
0A
1B
0C
0D
0E
0F
0G
0H
0I
0J
0K
0L
0M
0N
0O
0P
0Q
0R
0S
0T
0U
0V
0W
0X
0Y
0Z
0[
0\
0]
0^
0f
0e
0d
0c
0b
0a
0`
0_
1v
1u
1t
1s
1r
1q
1p
1o
1n
1m
1l
1k
1j
1i
1h
1g
$end
#10000
1!
1;
1<
04
#20000
0!
0;
0<
14
#30000
1!
1;
1<
04
#40000
0!
0;
0<
14
#50000
1!
1;
1<
04
#60000
b100 "
0!
1d
0;
0<
14
0B
1]
1[
1Y
1W
1U
1S
1Q
1O
1M
1K
1I
1G
1E
1C
1@
1>
#70000
1!
1;
1<
04
1^
1\
1Z
1X
1V
1T
1R
1P
1N
1L
1J
1H
1F
1D
1A
1?
1$
1%
1&
1'
1(
1)
1*
1+
1,
1-
1.
1/
10
11
12
13
#80000
0!
0;
0<
14
#90000
1!
1;
1<
04
#100000
0!
0;
0<
14
#110000
1!
1;
1<
04
#120000
b110 "
b111 "
b11 "
0!
1f
1e
0d
0;
0<
14
#130000
1!
1;
1<
04
#140000
0!
0;
0<
14
#150000
1!
1;
1<
04
#160000
0!
0;
0<
14
#170000
1!
1;
1<
04
#180000
b10 "
0!
0f
0;
0<
14
#190000
1!
1;
1<
04
#200000
0!
0;
0<
14
#210000
1!
1;
1<
04
#220000
0!
0;
0<
14
#230000
1!
1;
1<
04
#240000
b0 "
b1 "
0!
1f
0e
0;
0<
14
#250000
1!
1;
1<
04
#260000
0!
0;
0<
14
#270000
1!
1;
1<
04
#280000
0!
0;
0<
14
#290000
1!
1;
1<
04
#300000
b0 "
0!
0f
0;
0<
14
1B
0]
0[
0Y
0W
0U
0S
0Q
0O
0M
0K
0I
0G
0E
0C
0@
0>
#310000
1!
1;
1<
04
0^
0\
0Z
0X
0V
0T
0R
0P
0N
0L
0J
0H
0F
0D
0A
0?
0$
0%
0&
0'
0(
0)
0*
0+
0,
0-
0.
0/
00
01
02
03
#320000
0!
0;
0<
14
#330000
1!
1;
1<
04
#340000
0!
0;
0<
14
#350000
1!
1;
1<
04
#360000
0!
0;
0<
14
#370000
1!
1;
1<
04
#380000
0!
0;
0<
14
#390000
1!
1;
1<
04
#400000
0!
0;
0<
14
#410000
1!
1;
1<
04
#420000
0!
0;
0<
14
#430000
1!
1;
1<
04
#440000
0!
0;
0<
14
#450000
1!
1;
1<
04
#460000
0!
0;
0<
14
#470000
1!
1;
1<
04
#480000
0!
0;
0<
14
#490000
1!
1;
1<
04
#500000
0!
0;
0<
14
#510000
1!
1;
1<
04
#520000
0!
0;
0<
14
#530000
1!
1;
1<
04
#540000
0!
0;
0<
14
#550000
1!
1;
1<
04
#560000
0!
0;
0<
14
#570000
1!
1;
1<
04
#580000
0!
0;
0<
14
#590000
1!
1;
1<
04
#600000
0!
0;
0<
14
#610000
1!
1;
1<
04
#620000
0!
0;
0<
14
#630000
1!
1;
1<
04
#640000
0!
0;
0<
14
#650000
1!
1;
1<
04
#660000
0!
0;
0<
14
#670000
1!
1;
1<
04
#680000
0!
0;
0<
14
#690000
1!
1;
1<
04
#700000
0!
0;
0<
14
#710000
1!
1;
1<
04
#720000
0!
0;
0<
14
#730000
1!
1;
1<
04
#740000
0!
0;
0<
14
#750000
1!
1;
1<
04
#760000
0!
0;
0<
14
#770000
1!
1;
1<
04
#780000
0!
0;
0<
14
#790000
1!
1;
1<
04
#800000
0!
0;
0<
14
#810000
1!
1;
1<
04
#820000
0!
0;
0<
14
#830000
1!
1;
1<
04
#840000
0!
0;
0<
14
#850000
1!
1;
1<
04
#860000
0!
0;
0<
14
#870000
1!
1;
1<
04
#880000
0!
0;
0<
14
#890000
1!
1;
1<
04
#900000
0!
0;
0<
14
#910000
1!
1;
1<
04
#920000
0!
0;
0<
14
#930000
1!
1;
1<
04
#940000
0!
0;
0<
14
#950000
1!
1;
1<
04
#960000
0!
0;
0<
14
#970000
1!
1;
1<
04
#980000
0!
0;
0<
14
#990000
1!
1;
1<
04
